Date,Close
2010-01-04,
2010-01-05,0.003110832586067
2010-01-06,0.00054537178454397
2010-01-07,0.00399321768965843
2010-01-08,0.00287758302153243
2010-01-11,0.00174523162929859
2010-01-12,-0.00942544576897973
2010-01-13,0.00829145632438373
2010-01-14,0.00242348622352835
2010-01-15,-0.010882126616956
2010-01-19,0.0124221510615367
2010-01-20,-0.0106543862492532
2010-01-21,-0.019126657637915
2010-01-22,-0.0223897789955865
2010-01-25,0.00458755856844108
2010-01-26,-0.00421205752703468
2010-01-27,0.00486828281853953
2010-01-28,-0.0118881258080153
2010-01-29,-0.00987779888537287
2010-02-01,0.0141653052825124
2010-02-02,0.0128895205561932
2010-02-03,-0.0054893503911006
2010-02-04,-0.031635856109944
2010-02-05,0.00289293031048948
2010-02-08,-0.00890280294113517
2010-02-09,0.0129558424332482
2010-02-10,-0.00223506975616593
2010-02-11,0.00963388250066264
2010-02-12,-0.00274836617729546
2010-02-16,0.0178406532113086
2010-02-17,0.00422900491690684
2010-02-18,0.00656315752063228
2010-02-19,0.00218423491289589
2010-02-22,-0.00104640496269729
2010-02-23,-0.0121766447784491
2010-02-24,0.00967351910685458
2010-02-25,-0.00208320870914085
2010-02-26,0.00140439271298967
2010-03-01,0.0101072576918238
2010-03-02,0.00232773131013944
2010-03-03,0.000429109102265265
2010-03-04,0.00372915639980118
2010-03-05,0.0139102823862985
2010-03-08,-0.000175611281236972
2010-03-09,0.0017112718732641
2010-03-10,0.00451435474804304
2010-03-11,0.00403337441662218
2010-03-12,-0.000217369570137005
2010-03-15,0.000452093030955934
2010-03-16,0.00774901483335034
2010-03-17,0.00580479533225171
2010-03-18,-0.000325899227190031
2010-03-19,-0.00509942676168521
2010-03-22,0.00508235980463129
2010-03-23,0.00714537748290538
2010-03-24,-0.00550844767962899
2010-03-25,-0.00170562173967196
2010-03-26,0.000737451172124947
2010-03-29,0.00566714641181301
2010-03-30,0.0000426586094118508
2010-03-31,-0.00327824247037477
2010-04-01,0.00738645410980824
2010-04-05,0.00789672874949897
2010-04-06,0.00168287887592426
2010-04-07,-0.00589404277106974
2010-04-08,0.00336866123379913
2010-04-09,0.00666166854112611
2010-04-12,0.00176505056348243
2010-04-13,0.000685166575163196
2010-04-14,0.0110883626143397
2010-04-15,0.00084218437832757
2010-04-16,-0.0162579823653802
2010-04-19,0.0045111410326629
2010-04-20,0.00802604539093973
2010-04-21,-0.00101951681787834
2010-04-22,0.0022613210252101
2010-04-23,0.00709826739408836
2010-04-26,-0.00430570396940399
2010-04-27,-0.0236596402677067
2010-04-28,0.00644195803028755
2010-04-29,0.0128601803303771
2010-04-30,-0.0167878102361991
2010-05-03,0.0130352579905461
2010-05-04,-0.0241271997995496
2010-05-05,-0.00660834225410907
2010-05-06,-0.0328884409104766
2010-05-07,-0.0154266457083889
2010-05-10,0.043034703635936
2010-05-11,-0.00340307556835301
2010-05-12,0.013645992502575
2010-05-13,-0.01221950028689
2010-05-14,-0.0189789807824317
2010-05-17,0.00110875300916161
2010-05-18,-0.0142976312743288
2010-05-19,-0.00514346885922483
2010-05-20,-0.0397557958242243
2010-05-21,0.0149126320445233
2010-05-24,-0.0129920463358484
2010-05-25,0.000353874873899142
2010-05-26,-0.0056770785781786
2010-05-27,0.0323473122979098
2010-05-28,-0.0124518928786395
2010-06-01,-0.0173143531012861
2010-06-02,0.0255144281566614
2010-06-03,0.00404319182716311
2010-06-04,-0.0350174419301952
2010-06-07,-0.0136244659931516
2010-06-08,0.0109162673609073
2010-06-09,-0.00595939712670738
2010-06-10,0.0290798462163265
2010-06-11,0.00437011595660417
2010-06-14,-0.00180629420352573
2010-06-15,0.0232224500706357
2010-06-16,-0.000556089249191531
2010-06-17,0.0012821860718008
2010-06-18,0.00131626440418606
2010-06-21,-0.00386429830752568
2010-06-22,-0.0162012245616929
2010-06-23,-0.00298993968920056
2010-06-24,-0.0169462835260869
2010-06-25,0.00285528252758032
2010-06-28,-0.00203601009732413
2010-06-29,-0.0315082302982982
2010-06-30,-0.0101644536876053
2010-07-01,-0.00324571348394738
2010-07-02,-0.00467327172809586
2010-07-06,0.0053447263704792
2010-07-07,0.0308500230552064
2010-07-08,0.00936865450955356
2010-07-09,0.00717806382460929
2010-07-12,0.000732633547972835
2010-07-13,0.0152618228996203
2010-07-14,-0.000155143778905523
2010-07-15,0.00119538807897415
2010-07-16,-0.0292429091631982
2010-07-19,0.005964069477861
2010-07-20,0.0113518737363591
2010-07-21,-0.0129026989816559
2010-07-22,0.0222636877044326
2010-07-23,0.00818641997138309
2010-07-26,0.0111379090898878
2010-07-27,-0.00104990835639713
2010-07-28,-0.00694603269365901
2010-07-29,-0.00416729259597182
2010-07-30,0.0000634978415841655
2010-08-02,0.0217835280930318
2010-08-03,-0.00480789427328846
2010-08-04,0.00603287779632792
2010-08-05,-0.00126932927444419
2010-08-06,-0.00371091561381247
2010-08-09,0.00546808673855132
2010-08-10,-0.00598528118612932
2010-08-11,-0.0285834060878469
2010-08-12,-0.00539326699700266
2010-08-13,-0.00403169038775268
2010-08-16,0.000120451397280691
2010-08-17,0.0121184894355722
2010-08-18,0.00148168037892123
2010-08-19,-0.0170804355837252
2010-08-20,-0.00366975441094114
2010-08-23,-0.00404849074485489
2010-08-24,-0.0146187681440242
2010-08-25,0.00328394475122651
2010-08-26,-0.00771446624558358
2010-08-27,0.01645071028858
2010-08-30,-0.0148286112297344
2010-08-31,0.000390717984239214
2010-09-01,0.029077736381012
2010-09-02,0.00903985342442842
2010-09-03,0.0131323936255202
2010-09-07,-0.0115374914603933
2010-09-08,0.00641805921968646
2010-09-09,0.00482065242742976
2010-09-10,0.00485154493380627
2010-09-13,0.0110691260791667
2010-09-14,-0.000713373191198295
2010-09-15,0.00353488317600453
2010-09-16,-0.000364409958688709
2010-09-17,0.000826514434341535
2010-09-20,0.0150952877846136
2010-09-21,-0.00256731343587537
2010-09-22,-0.00483717279571462
2010-09-23,-0.00836623996472993
2010-09-24,0.0209729156440361
2010-09-27,-0.00568355338686546
2010-09-28,0.00483866074341514
2010-09-29,-0.00259111314287384
2010-09-30,-0.00308848644757907
2010-10-01,0.00440671430603085
2010-10-04,-0.00806738657634576
2010-10-05,0.0206467227682611
2010-10-06,-0.000672230203662221
2010-10-07,-0.00164787548692472
2010-10-08,0.00610361246510915
2010-10-11,0.000145826380505602
2010-10-12,0.00381148431292342
2010-10-13,0.0070957855123059
2010-10-14,-0.0036480321897743
2010-10-15,0.00202543218178515
2010-10-18,0.00721763508885645
2010-10-19,-0.0160046444369544
2010-10-20,0.0104690830152398
2010-10-21,0.0017723371049611
2010-10-22,0.00238640853948694
2010-10-25,0.00214467009426543
2010-10-26,0.0000168855375757543
2010-10-27,-0.0026942100810885
2010-10-28,0.00112421713132596
2010-10-29,-0.000439383364707159
2010-11-01,0.000946085618121553
2010-11-02,0.00772933572356652
2010-11-03,0.00367130673804099
2010-11-04,0.0190993046901953
2010-11-05,0.00391507905868472
2010-11-08,-0.00212321016063645
2010-11-09,-0.00808489488190263
2010-11-10,0.0043665339722504
2010-11-11,-0.00425114999364308
2010-11-12,-0.0118787661411335
2010-11-15,-0.00121817736157267
2010-11-16,-0.016338157262196
2010-11-17,0.00021214037595554
2010-11-18,0.0152405830517099
2010-11-19,0.00253715186067574
2010-11-22,-0.00157660834433876
2010-11-23,-0.0143870321375597
2010-11-24,0.0148127162611445
2010-11-26,-0.00749659211788833
2010-11-29,-0.0013798097197847
2010-11-30,-0.00608871566190022
2010-12-01,0.0213866218778679
2010-12-02,0.0127371001572587
2010-12-03,0.00259985431041924
2010-12-06,-0.00129908225014314
2010-12-07,0.0005149476802682
2010-12-08,0.00369492551091515
2010-12-09,0.00383538380870905
2010-12-10,0.00598370341054657
2010-12-13,0.0000483195346565466
2010-12-14,0.000910541779019245
2010-12-15,-0.00513561753954301
2010-12-16,0.00616604598946999
2010-12-17,0.00083645440972699
2010-12-20,0.00254511156114435
2010-12-21,0.00601199422367447
2010-12-22,0.0033738574382477
2010-12-23,-0.00164568154736526
2010-12-27,0.000612509202130928
2010-12-28,0.000771026831074493
2010-12-29,0.00100863608877643
2010-12-30,-0.00150935736759857
2010-12-31,-0.000190807466305256
2011-01-03,0.011251293776082
2011-01-04,-0.00131392469581037
2011-01-05,0.00499467652785976
2011-01-06,-0.0021252143638272
2011-01-07,-0.0018464860941299
2011-01-10,-0.00137727518081989
2011-01-11,0.00371820589061037
2011-01-12,0.00896725421524976
2011-01-13,-0.00171221110649204
2011-01-14,0.00735740998350158
2011-01-18,0.00137546480937738
2011-01-19,-0.0101671661126885
2011-01-20,-0.00129579826342625
2011-01-21,0.0024106377438341
2011-01-24,0.00581931505115542
2011-01-25,0.000263427858291137
2011-01-26,0.00421202401498405
2011-01-27,0.00224179092232716
2011-01-28,-0.0180138052353055
2011-01-31,0.0076333497009808
2011-02-01,0.0165557920663703
2011-02-02,-0.0027262306244414
2011-02-03,0.00235143283456576
2011-02-04,0.00288011065657637
2011-02-07,0.00622078256565153
2011-02-08,0.00417602002730663
2011-02-09,-0.00278965277085035
2011-02-10,0.000749212030126419
2011-02-11,0.00549226127901494
2011-02-14,0.00238208473863126
2011-02-15,-0.00324015429813147
2011-02-16,0.00623793830605267
2011-02-17,0.00307097131234176
2011-02-18,0.00192287268089018
2011-02-22,-0.0207422054038012
2011-02-23,-0.0061307150183835
2011-02-24,-0.000994871327514054
2011-02-25,0.0104952479370892
2011-02-28,0.00554568008612837
2011-03-01,-0.0158648620566038
2011-03-02,0.00161389762089928
2011-03-03,0.0170724351127742
2011-03-04,-0.00740539032583091
2011-03-07,-0.00837621485341204
2011-03-08,0.00888316122204379
2011-03-09,-0.00136263081917739
2011-03-10,-0.0190512811028926
2011-03-11,0.00705556456840747
2011-03-14,-0.00606769645797206
2011-03-15,-0.0112635447574505
2011-03-16,-0.0196874817647162
2011-03-17,0.0133092663717146
2011-03-18,0.00430093939832694
2011-03-21,0.0148746679715807
2011-03-22,-0.00355688506898162
2011-03-23,0.0029097418480217
2011-03-24,0.00929739334644179
2011-03-25,0.00315615127021327
2011-03-28,-0.00275161894028352
2011-03-29,0.00703523960947542
2011-03-30,0.00666246311058365
2011-03-31,-0.0018311773226756
2011-04-01,0.00495071285084481
2011-04-04,0.000345150227789548
2011-04-05,-0.000180071281672132
2011-04-06,0.00218129662341837
2011-04-07,-0.00152116247666988
2011-04-08,-0.00401248313555701
2011-04-11,-0.00279728828538817
2011-04-12,-0.00780709562964546
2011-04-13,0.000190217490336079
2011-04-14,0.0000836735841615587
2011-04-15,0.00391772868801377
2011-04-18,-0.0110789976782502
2011-04-19,0.00571480985944935
2011-04-20,0.0134244349573639
2011-04-21,0.00526290885154147
2011-04-25,-0.0015939396377205
2011-04-26,0.00893950761622622
2011-04-27,0.00623039784124928
2011-04-28,0.00354911825943315
2011-04-29,0.00229801982875082
2011-05-02,-0.00175424863313323
2011-05-03,-0.0033850266755294
2011-05-04,-0.00687891438099671
2011-05-05,-0.00911121665601231
2011-05-06,0.00381264255749487
2011-05-09,0.0045338701837534
2011-05-10,0.00804161592368753
2011-05-11,-0.0111736895962343
2011-05-12,0.00488349340589571
2011-05-13,-0.00810004638800875
2011-05-16,-0.00622371876518891
2011-05-17,-0.000368629099347293
2011-05-18,0.00876527255202601
2011-05-19,0.00217557268173257
2011-05-20,-0.00771797456920877
2011-05-23,-0.0119972652815234
2011-05-24,-0.000827722781916753
2011-05-25,0.00317811360703569
2011-05-26,0.00394532223642983
2011-05-27,0.00407261593627793
2011-05-31,0.0105370144175309
2011-06-01,-0.0230482254421232
2011-06-02,-0.00122558655421565
2011-06-03,-0.00978149249397567
2011-06-06,-0.0108185158329986
2011-06-07,-0.000956865401349866
2011-06-08,-0.00419566378795319
2011-06-09,0.0073504090114998
2011-06-10,-0.0140784832506561
2011-06-13,0.000668532885312098
2011-06-14,0.012532913437113
2011-06-15,-0.0175855693730479
2011-06-16,0.0017527982098022
2011-06-17,0.0030403900144637
2011-06-20,0.00538068881514831
2011-06-21,0.0133341796982979
2011-06-22,-0.00648945993309692
2011-06-23,-0.0028319931313285
2011-06-24,-0.0117950773123584
2011-06-27,0.00914253711469192
2011-06-28,0.0128612924547111
2011-06-29,0.00824863335529995
2011-06-30,0.0100683719988067
2011-07-01,0.0143068688806979
2011-07-05,-0.00133707249830785
2011-07-06,0.00100105795369096
2011-07-07,0.0103995828897993
2011-07-08,-0.00698545819841805
2011-07-11,-0.0182561672421016
2011-07-12,-0.00444336938458711
2011-07-13,0.003101027066792
2011-07-14,-0.0067387826841626
2011-07-15,0.00553905589693278
2011-07-18,-0.00816311811768241
2011-07-19,0.0161771496047291
2011-07-20,-0.000671057918560313
2011-07-21,0.0134552627786401
2011-07-22,0.000907439733718529
2011-07-25,-0.00565899535561898
2011-07-26,-0.00411342058346742
2011-07-27,-0.0205177242328662
2011-07-28,-0.00323920738287917
2011-07-29,-0.00647142755894835
2011-08-01,-0.00414086095217231
2011-08-02,-0.0258889087378969
2011-08-03,0.00500314595823231
2011-08-04,-0.0490016554271836
2011-08-05,-0.000575082650694485
2011-08-08,-0.0689583694345014
2011-08-09,0.0463174407543658
2011-08-10,-0.0451567965651611
2011-08-11,0.0452505944544544
2011-08-12,0.00524787511209872
2011-08-15,0.0215507274368222
2011-08-16,-0.00978627478653772
2011-08-17,0.000946938237782741
2011-08-18,-0.0456185995898372
2011-08-19,-0.0151227560294363
2011-08-22,0.000258007880244178
2011-08-23,0.0337102489999169
2011-08-24,0.0130346513639337
2011-08-25,-0.0156879346852277
2011-08-26,0.015008418016619
2011-08-29,0.0278875048209183
2011-08-30,0.00234427511405007
2011-08-31,0.00490990895541145
2011-09-01,-0.0119424610353264
2011-09-02,-0.0256070170842772
2011-09-06,-0.00746407691162979
2011-09-07,0.0282438250625174
2011-09-08,-0.0106688906386885
2011-09-09,-0.0270685625679224
2011-09-12,0.0069415689914432
2011-09-13,0.00907872567713347
2011-09-14,0.0133897608613247
2011-09-15,0.0170410461841645
2011-09-16,0.00569047604543796
2011-09-19,-0.00985094873159029
2011-09-20,-0.00166238645247593
2011-09-21,-0.02983099503575
2011-09-22,-0.0324024566004533
2011-09-23,0.00606358872417666
2011-09-26,0.0230680208948171
2011-09-27,0.0106316656047886
2011-09-28,-0.0209081955994618
2011-09-29,0.00808148572559597
2011-09-30,-0.0252912740737031
2011-10-03,-0.028863603378555
2011-10-04,0.0222393064046692
2011-10-05,0.0177079188389319
2011-10-06,0.0181381689808147
2011-10-07,-0.00819681138836645
2011-10-10,0.0335556441594188
2011-10-11,0.00054385529075336
2011-10-12,0.00974704698991557
2011-10-13,-0.00297810254442033
2011-10-14,0.0172309489071041
2011-10-17,-0.0195599378475503
2011-10-18,0.0202130497687037
2011-10-19,-0.0127298187858014
2011-10-20,0.00454384001348446
2011-10-21,0.0186340672031756
2011-10-24,0.0127908063564575
2011-10-25,-0.0202483457356242
2011-10-26,0.0104814304042435
2011-10-27,0.0337165913080137
2011-10-28,0.000389153528486978
2011-10-31,-0.0250486166156645
2011-11-01,-0.0283400600024162
2011-11-02,0.0159763632135932
2011-11-03,0.0186076072070969
2011-11-04,-0.00629981958290175
2011-11-07,0.00627600849227674
2011-11-08,0.0116673104575095
2011-11-09,-0.0373853468049666
2011-11-10,0.00858720062395664
2011-11-11,0.0192932234707758
2011-11-14,-0.00959603725233694
2011-11-15,0.00480559883744456
2011-11-16,-0.0167557988102081
2011-11-17,-0.0169426717460741
2011-11-18,-0.000394756927443267
2011-11-21,-0.0188245711572624
2011-11-22,-0.00414943851668992
2011-11-23,-0.0223429704597848
2011-11-25,-0.00268911919925576
2011-11-28,0.0288210791355353
2011-11-29,0.00221120648536917
2011-11-30,0.0424034387262536
2011-12-01,-0.00191046967191508
2011-12-02,-0.000241015567978522
2011-12-05,0.0102344634943542
2011-12-06,0.00110513818593137
2011-12-07,0.00201632073261907
2011-12-08,-0.0213684988013429
2011-12-09,0.0167424122479794
2011-12-12,-0.015026386341024
2011-12-13,-0.00872395364282915
2011-12-14,-0.0114132513532483
2011-12-15,0.00323785309661756
2011-12-16,0.0032109889545745
2011-12-19,-0.0118021979677113
2011-12-20,0.0293892957258871
2011-12-21,0.00194760826508993
2011-12-22,0.00823157693113066
2011-12-23,0.00899448073988557
2011-12-27,0.0000791050906894925
2011-12-28,-0.0125565062036016
2011-12-29,0.0106501725530838
2011-12-30,-0.00430057078195068
2012-01-03,0.015355483659043
2012-01-04,0.000187906160885086
2012-01-05,0.00293939285205289
2012-01-06,-0.00254018500173262
2012-01-09,0.0022590439104781
2012-01-10,0.00884652370493917
2012-01-11,0.000309549024282574
2012-01-12,0.00233388310124386
2012-01-13,-0.00496020430847843
2012-01-17,0.00354665767105626
2012-01-18,0.0110466890401679
2012-01-19,0.00492650176502541
2012-01-20,0.000669235882376005
2012-01-23,0.000471231832950807
2012-01-24,-0.00102634414018378
2012-01-25,0.00864169533851486
2012-01-26,-0.00577050837510023
2012-01-27,-0.00159414780608374
2012-01-30,-0.00252530886629796
2012-01-31,-0.000457051443494207
2012-02-01,0.0088602377468864
2012-02-02,0.00109454764781003
2012-02-03,0.0144997256873824
2012-02-06,-0.000423963746335283
2012-02-07,0.00202133769374391
2012-02-08,0.00215788085202916
2012-02-09,0.00147302495244991
2012-02-10,-0.00691012225464092
2012-02-13,0.00677702341142062
2012-02-14,-0.000939965350693487
2012-02-15,-0.00539774788518886
2012-02-16,0.0109653661362268
2012-02-17,0.00234617558460494
2012-02-21,0.000719664147934855
2012-02-22,-0.00334569759037775
2012-02-23,0.00426290335879653
2012-02-24,0.00167084095805895
2012-02-27,0.00135364285487918
2012-02-28,0.00335071357158399
2012-02-29,-0.00474824275595077
2012-03-01,0.00613915646363953
2012-03-02,-0.00325103507306514
2012-03-05,-0.00387720062846623
2012-03-06,-0.0154895063491641
2012-03-07,0.00687692207133468
2012-03-08,0.00977004895653398
2012-03-09,0.00362467306679903
2012-03-12,0.000160448003326579
2012-03-13,0.0179691328362557
2012-03-14,-0.00119697817839571
2012-03-15,0.00594946620969431
2012-03-16,0.00111877222043632
2012-03-19,0.00396597147512476
2012-03-20,-0.00300502840088387
2012-03-21,-0.00187294998668195
2012-03-22,-0.00723263469064937
2012-03-23,0.00310403596907356
2012-03-26,0.0137903003811834
2012-03-27,-0.00282074958785213
2012-03-28,-0.00495375905960951
2012-03-29,-0.00160922411047839
2012-03-30,0.00369161404395763
2012-04-02,0.00747662586616012
2012-04-03,-0.00399661169318435
2012-04-04,-0.010254926890775
2012-04-05,-0.000629240236213568
2012-04-09,-0.0114234380847753
2012-04-10,-0.0172290250205766
2012-04-11,0.00742128971352704
2012-04-12,0.0136853149819897
2012-04-13,-0.0125534667456892
2012-04-16,-0.000503727622278272
2012-04-17,0.0153679791555562
2012-04-18,-0.00406353329447659
2012-04-19,-0.00595207569129505
2012-04-20,0.00116858236626408
2012-04-23,-0.00844311318472782
2012-04-24,0.00367302015521137
2012-04-25,0.0135523423902343
2012-04-26,0.0066579520908028
2012-04-27,0.00241141401333438
2012-04-30,-0.00389106215339501
2012-05-01,0.00564243564260583
2012-05-02,-0.00249980508133989
2012-05-03,-0.00768835160093137
2012-05-04,-0.016278995211432
2012-05-07,0.000350519240533409
2012-05-08,-0.00428785287734422
2012-05-09,-0.0067248277898492
2012-05-10,0.00251424727416791
2012-05-11,-0.00339309090192778
2012-05-14,-0.01117507305272
2012-05-15,-0.00576240872092158
2012-05-16,-0.004413543664175
2012-05-17,-0.0151657978047664
2012-05-18,-0.00741520132812132
2012-05-21,0.0159086839885332
2012-05-22,0.000486219062245313
2012-05-23,0.00169227015897768
2012-05-24,0.00137908064402732
2012-05-25,-0.00216798114098363
2012-05-29,0.011018055539221
2012-05-30,-0.0144386295659415
2012-05-31,-0.00227926088167842
2012-06-01,-0.0249512954215289
2012-06-04,0.000109548470042509
2012-06-05,0.00571051436820743
2012-06-06,0.0227877761371555
2012-06-07,-0.000106470427507786
2012-06-08,0.00808142084267704
2012-06-11,-0.0127004234590167
2012-06-12,0.0115833898986966
2012-06-13,-0.00704803020027556
2012-06-14,0.0107565928722815
2012-06-15,0.0102847454744224
2012-06-18,0.00144370360436278
2012-06-19,0.00976783429319208
2012-06-20,-0.00168778046725276
2012-06-21,-0.0225132077068942
2012-06-22,0.00714898940880384
2012-06-25,-0.016083502515741
2012-06-26,0.00476136775748164
2012-06-27,0.00894478190806829
2012-06-28,-0.00211202870368586
2012-06-29,0.024614793650033
2012-07-02,0.00245629246225956
2012-07-03,0.00621277173793739
2012-07-05,-0.00469804194746194
2012-07-06,-0.0094774184022128
2012-07-09,-0.00164017633768659
2012-07-10,-0.00815912161449704
2012-07-11,-0.0000149240384226142
2012-07-12,-0.00499957404873947
2012-07-13,0.0163627588531714
2012-07-16,-0.00231699541309566
2012-07-17,0.00738235559029866
2012-07-18,0.00665827507372362
2012-07-19,0.00271341563503713
2012-07-20,-0.0101126208363019
2012-07-23,-0.0089489785247536
2012-07-24,-0.0090820502359582
2012-07-25,-0.000313910762898477
2012-07-26,0.0164056629468413
2012-07-27,0.0189008143599864
2012-07-30,-0.000483476534740232
2012-07-31,-0.00432617309985964
2012-08-01,-0.00290419290235493
2012-08-02,-0.00753196341395769
2012-08-03,0.0188612880168074
2012-08-06,0.00232656055634568
2012-08-07,0.00509376337427386
2012-08-08,0.000620633723697119
2012-08-09,0.000413599905977963
2012-08-10,0.00218605046122617
2012-08-13,-0.00125268524521917
2012-08-14,-0.000128154155743771
2012-08-15,0.00113899121233447
2012-08-16,0.00707542076430092
2012-08-17,0.00187038344719569
2012-08-20,-0.0000211748443129511
2012-08-21,-0.00350366685838139
2012-08-22,0.000226377418945395
2012-08-23,-0.00810499947091411
2012-08-24,0.00643398846531199
2012-08-27,-0.000489134791598222
2012-08-28,-0.00080850863280796
2012-08-29,0.000843992676176313
2012-08-30,-0.00783642989845356
2012-08-31,0.00506047006371111
2012-09-04,-0.00116663957296659
2012-09-05,-0.00106823165359777
2012-09-06,0.0202295368196462
2012-09-07,0.00404179510880333
2012-09-10,-0.00616680573095281
2012-09-11,0.00313005242310574
2012-09-12,0.0020905056020051
2012-09-13,0.0161781717105188
2012-09-14,0.00395113577313789
2012-09-17,-0.00312958345809004
2012-09-18,-0.00128059505217088
2012-09-19,0.00118485206009244
2012-09-20,-0.000540879949957098
2012-09-21,-0.0000753222997945229
2012-09-24,-0.00223514954449443
2012-09-25,-0.0105573895352326
2012-09-26,-0.00575325353805965
2012-09-27,0.00960272762378531
2012-09-28,-0.00448780791268442
2012-10-01,0.00264799746778056
2012-10-02,0.000871906889520157
2012-10-03,0.00361785713150588
2012-10-04,0.00714882160989227
2012-10-05,-0.000321640602880391
2012-10-08,-0.00346272396479828
2012-10-09,-0.00994018254082099
2012-10-10,-0.00620725495771145
2012-10-11,0.000195370278808036
2012-10-12,-0.0029705449556434
2012-10-15,0.00804547070826012
2012-10-16,0.0102175557733856
2012-10-17,0.00410860596536981
2012-10-18,-0.00244671963059961
2012-10-19,-0.0167101450067927
2012-10-22,0.000439485760406262
2012-10-23,-0.0145492350179213
2012-10-24,-0.00309015223480152
2012-10-25,0.00299106515850186
2012-10-26,-0.000729248066476161
2012-10-31,0.000155867711762236
2012-11-01,0.0108672128540968
2012-11-02,-0.00942371849029542
2012-11-05,0.00216147163196456
2012-11-06,0.00782250920348028
2012-11-07,-0.023990484638215
2012-11-08,-0.0122799329304798
2012-11-09,0.00169725140975543
2012-11-12,0.000130478861348628
2012-11-13,-0.00399338347560607
2012-11-14,-0.0139488704012527
2012-11-15,-0.0015948158245184
2012-11-16,0.00482827486176018
2012-11-19,0.0196673769068625
2012-11-20,0.000663166475065143
2012-11-21,0.00231749315482334
2012-11-23,0.0129422019885508
2012-11-26,-0.00203164401993104
2012-11-27,-0.00524029393118299
2012-11-28,0.00782533125554251
2012-11-29,0.0042605532404781
2012-11-30,0.000162494659567252
2012-12-03,-0.00475651932603101
2012-12-04,-0.00171127571324475
2012-12-05,0.00158360732177708
2012-12-06,0.00330113578204883
2012-12-07,0.00291666208282592
2012-12-10,0.000338503574980464
2012-12-11,0.00652753131997631
2012-12-12,0.000448138879965076
2012-12-13,-0.0063414897699479
2012-12-14,-0.0041439755970932
2012-12-17,0.0118006878307122
2012-12-18,0.0114211858693626
2012-12-19,-0.00761814523668087
2012-12-20,0.00547310412923057
2012-12-21,-0.00942294445827168
2012-12-24,-0.00244327880769231
2012-12-26,-0.00479895670249285
2012-12-27,-0.00121918458576554
2012-12-28,-0.0111114457608301
2012-12-31,0.0168000267789206
2013-01-02,0.0250861162809424
2013-01-03,-0.00208779554121976
2013-01-04,0.00485330026172312
2013-01-07,-0.00312800322107976
2013-01-08,-0.00324763970537711
2013-01-09,0.00265234596367827
2013-01-10,0.00756869970876882
2013-01-11,-0.0000475149186140372
2013-01-14,-0.00093110482512851
2013-01-15,0.00112803322079629
2013-01-16,0.000196972467491268
2013-01-17,0.00562706018745872
2013-01-18,0.00339749233702164
2013-01-22,0.00441833221534306
2013-01-23,0.0015063419238834
2013-01-24,0.00000661419639457404
2013-01-25,0.00543070889682907
2013-01-28,-0.00185133412369162
2013-01-29,0.00509300370768887
2013-01-30,-0.00390724474930825
2013-01-31,-0.002566592234675
2013-02-01,0.0100025134948212
2013-02-04,-0.0116058327040064
2013-02-05,0.010362632138918
2013-02-06,0.000549019822990706
2013-02-07,-0.00180703074544109
2013-02-08,0.00564199454255837
2013-02-11,-0.000606301283572331
2013-02-12,0.00159400117335032
2013-02-13,0.000592087548575696
2013-02-14,0.000690433378051556
2013-02-15,-0.0010456279141648
2013-02-19,0.00730969421712548
2013-02-20,-0.0124817112783237
2013-02-21,-0.00632300531558812
2013-02-22,0.00873421362357535
2013-02-25,-0.0184792755796789
2013-02-26,0.00609087631288471
2013-02-27,0.0126456992358045
2013-02-28,-0.000864453116014726
2013-03-01,0.0023211591454764
2013-03-04,0.00460012654886926
2013-03-05,0.00952055194460004
2013-03-06,0.0010839251365506
2013-03-07,0.00181484372843214
2013-03-08,0.00447112874753335
2013-03-11,0.00324381887029046
2013-03-12,-0.0024061458895049
2013-03-13,0.00131318976064706
2013-03-14,0.00558735155757229
2013-03-15,-0.00161977356025576
2013-03-18,-0.00552556995812157
2013-03-19,-0.00242546987760009
2013-03-20,0.00667516373986337
2013-03-21,-0.008316923684914
2013-03-22,0.00714864391792233
2013-03-25,-0.0033456297885692
2013-03-26,0.00775496375620264
2013-03-27,-0.000588523087380247
2013-03-28,0.00404846287235908
2013-04-01,-0.00448361657145718
2013-04-02,0.00515893386384598
2013-04-03,-0.0106021334803154
2013-04-04,0.00404027897372681
2013-04-05,-0.00430414505955084
2013-04-08,0.00628295877146625
2013-04-09,0.00353806576738628
2013-04-10,0.0121154432584397
2013-04-11,0.00354595640126246
2013-04-12,-0.0028407979843971
2013-04-15,-0.0232341250374391
2013-04-16,0.0142058408709523
2013-04-17,-0.0144313133513888
2013-04-18,-0.00672355634860699
2013-04-19,0.0088089892791036
2013-04-22,0.00465079821542739
2013-04-23,0.010365312617512
2013-04-24,0.00000634031852625873
2013-04-25,0.00402661449122249
2013-04-26,-0.00184381183629028
2013-04-29,0.00716031529692843
2013-04-30,0.00248181745825091
2013-05-01,-0.0093514725772216
2013-05-02,0.00936400403139083
2013-05-03,0.0104795638695706
2013-05-06,0.00190596109460971
2013-05-07,0.00521663919827658
2013-05-08,0.00413053857943543
2013-05-09,-0.00369391774633157
2013-05-10,0.00431234363275966
2013-05-13,0.0000428888409885926
2013-05-14,0.0100910667911165
2013-05-15,0.00510110320235999
2013-05-16,-0.00502233162656586
2013-05-17,0.0102474119847287
2013-05-20,-0.000707868620254905
2013-05-21,0.00172090461285937
2013-05-22,-0.00830807390799118
2013-05-23,-0.00292811521274045
2013-05-24,-0.000551517389982607
2013-05-28,0.00632096210287218
2013-05-29,-0.00707293670116606
2013-05-30,0.00366362521898233
2013-05-31,-0.0144105769569689
2013-06-03,0.0059184400368024
2013-06-04,-0.00552604796710957
2013-06-05,-0.013875554873113
2013-06-06,0.00845445465196402
2013-06-07,0.0127499143478785
2013-06-10,-0.000346873427656278
2013-06-11,-0.0102052643600455
2013-06-12,-0.00840477668942224
2013-06-13,0.014676068591821
2013-06-14,-0.00590240113576855
2013-06-17,0.00753887581273738
2013-06-18,0.00776096371285769
2013-06-19,-0.0139483013969688
2013-06-20,-0.0253284248255479
2013-06-21,0.0026662194908426
2013-06-24,-0.012219369026924
2013-06-25,0.00945245625813099
2013-06-26,0.00954478999932188
2013-06-27,0.00618069104756734
2013-06-28,-0.00429878905874645
2013-07-01,0.00538919983291197
2013-07-02,-0.000545056762633086
2013-07-03,0.00082370781722356
2013-07-05,0.0101500460298921
2013-07-08,0.00523780503650235
2013-07-09,0.00720366172182044
2013-07-10,0.000181576068661444
2013-07-11,0.0134632131161114
2013-07-12,0.00308172969899342
2013-07-15,0.00137393539334405
2013-07-16,-0.00371565527788686
2013-07-17,0.0027702064016789
2013-07-18,0.0050203417495381
2013-07-19,0.00160875575520589
2013-07-22,0.00203096226114148
2013-07-23,-0.00185365348551234
2013-07-24,-0.00381850317841328
2013-07-25,0.00255321022615245
2013-07-26,0.000827951193140812
2013-07-29,-0.00374303396304847
2013-07-30,0.000373747154854253
2013-07-31,-0.00013641883113869
2013-08-01,0.0124625884398297
2013-08-02,0.00163911418859062
2013-08-05,-0.00148093070361428
2013-08-06,-0.00573947310553113
2013-08-07,-0.00381312569916789
2013-08-08,0.00387792090416856
2013-08-09,-0.00357634773295005
2013-08-12,-0.00115358571713637
2013-08-13,0.00277220972548463
2013-08-14,-0.00519006291320109
2013-08-15,-0.0143845653305516
2013-08-16,-0.00331006748250961
2013-08-19,-0.00591777767732516
2013-08-20,0.00381391310215985
2013-08-21,-0.00579636961331374
2013-08-22,0.00858244167651039
2013-08-23,0.00393924187249346
2013-08-26,-0.00404783940924644
2013-08-27,-0.0160015393374874
2013-08-28,0.00274387763468831
2013-08-29,0.00196147664425171
2013-08-30,-0.00317936704421773
2013-09-03,0.00415557533102222
2013-09-04,0.00808418760961482
2013-09-05,0.00120913153950726
2013-09-06,0.0000544297258648824
2013-09-09,0.00994328214331651
2013-09-10,0.00731894030823725
2013-09-11,0.00304763482237413
2013-09-12,-0.0033861418646933
2013-09-13,0.00271100148176886
2013-09-16,0.00567700867858
2013-09-17,0.00420886949012443
2013-09-18,0.0121041216925903
2013-09-19,-0.00184465431581123
2013-09-20,-0.00724305417226095
2013-09-23,-0.00473075873128084
2013-09-24,-0.00260052157109822
2013-09-25,-0.00274322490968269
2013-09-26,0.00347936560327911
2013-09-27,-0.00408212169563781
2013-09-30,-0.00604747987897874
2013-10-01,0.00796672458119453
2013-10-02,-0.000666891939524126
2013-10-03,-0.00901997253841193
2013-10-04,0.0070284668113262
2013-10-07,-0.00854274760673554
2013-10-08,-0.0124087499649913
2013-10-09,0.000573741584451988
2013-10-10,0.0215956233728349
2013-10-11,0.00626659527639332
2013-10-14,0.00406644145177665
2013-10-15,-0.00708878958009045
2013-10-16,0.0137328040315839
2013-10-17,0.00672131421113436
2013-10-18,0.00652740570253004
2013-10-21,0.0000917321066118297
2013-10-22,0.00572111637378689
2013-10-23,-0.00473575320410046
2013-10-24,0.00325283831226911
2013-10-25,0.00438521482412816
2013-10-28,0.00132881605335473
2013-10-29,0.00556866131660858
2013-10-30,-0.00488784936718115
2013-10-31,-0.00384677083391014
2013-11-01,0.00289921464735646
2013-11-04,0.0035641993420361
2013-11-05,-0.0028095308434488
2013-11-06,0.00425646841151416
2013-11-07,-0.0132704361042093
2013-11-08,0.0133382088307028
2013-11-11,0.000722670461938161
2013-11-12,-0.00237320587385063
2013-11-13,0.00806275295031912
2013-11-14,0.00482559675500539
2013-11-15,0.00421314650007902
2013-11-18,-0.00370505274996773
2013-11-19,-0.00204505517743621
2013-11-20,-0.00364223599640055
2013-11-21,0.00809570571710712
2013-11-22,0.00494919039932775
2013-11-25,-0.00126414117716296
2013-11-26,0.000149793495562154
2013-11-27,0.00248199841808597
2013-11-29,-0.000785997972773352
2013-12-02,-0.0027227239896044
2013-12-03,-0.00319795599263005
2013-12-04,-0.00130434301253106
2013-12-05,-0.00434901620599335
2013-12-06,0.0111751951427345
2013-12-09,0.0018154510836031
2013-12-10,-0.00318472489586376
2013-12-11,-0.0113813974430215
2013-12-12,-0.00377768854573224
2013-12-13,-0.000101415449328604
2013-12-16,0.00630015225723514
2013-12-17,-0.00310580590138749
2013-12-18,0.0165109057804926
2013-12-19,-0.000580096970897719
2013-12-20,0.00480715505290393
2013-12-23,0.00530402891696375
2013-12-24,0.00291150427484911
2013-12-26,0.00473430503327986
2013-12-27,-0.000336641489946285
2013-12-30,-0.000179269894159673
2013-12-31,0.0039518563159172
2014-01-02,-0.0089014130822974
2014-01-03,-0.000333020328278824
2014-01-06,-0.0025149269331701
2014-01-07,0.00606334518255303
2014-01-08,-0.000212231694765124
2014-01-09,0.000348248734819572
2014-01-10,0.00230403036309475
2014-01-13,-0.0126559664896654
2014-01-14,0.01075987627814
2014-01-15,0.00515288913435484
2014-01-16,-0.00134802835936904
2014-01-17,-0.00390278060394826
2014-01-21,0.00276991242951163
2014-01-22,0.000574699765987097
2014-01-23,-0.00892932453982589
2014-01-24,-0.0210964214964332
2014-01-27,-0.00488822159039836
2014-01-28,0.00612187539440163
2014-01-29,-0.0102617040053706
2014-01-30,0.0112040442426678
2014-01-31,-0.00648628988702371
2014-02-03,-0.0230966046034598
2014-02-04,0.00761204338332991
2014-02-05,-0.00203028211002863
2014-02-06,0.0123630544156673
2014-02-07,0.0132141936021491
2014-02-10,0.00156800464224081
2014-02-11,0.0110013758444197
2014-02-12,-0.000269298518891001
2014-02-13,0.00579321182006008
2014-02-14,0.00479768947917124
2014-02-18,0.00115780345614751
2014-02-19,-0.0065458619005211
2014-02-20,0.00601334166556958
2014-02-21,-0.00192056651181662
2014-02-24,0.00616745536205199
2014-02-25,-0.00134859055000719
2014-02-26,0.0000216997082535703
2014-02-27,0.00493588147209405
2014-02-28,0.0027788242226104
2014-03-03,-0.00740586636198617
2014-03-04,0.0151523228342173
2014-03-05,-0.0000533524369712086
2014-03-06,0.00171693312189078
2014-03-07,0.000537944701998336
2014-03-10,-0.000463353578807149
2014-03-11,-0.0050950969416021
2014-03-12,0.000305124168463053
2014-03-13,-0.0117700915065624
2014-03-14,-0.00282576645111632
2014-03-17,0.00956771760196887
2014-03-18,0.00719368227489353
2014-03-19,-0.0061505248448227
2014-03-20,0.00602233396080957
2014-03-21,-0.00293697999067265
2014-03-24,-0.0048765814292139
2014-03-25,0.00439427100472307
2014-03-26,-0.00702493667277074
2014-03-27,-0.00190189159706944
2014-03-28,0.00462948921412618
2014-03-31,0.00789287154385096
2014-04-01,0.00701468819684915
2014-04-02,0.00284926336425705
2014-04-03,-0.00112708474585692
2014-04-04,-0.0126165430771488
2014-04-07,-0.0108083124623669
2014-04-08,0.00374353804780003
2014-04-09,0.0108590394626165
2014-04-10,-0.0211059679216197
2014-04-11,-0.00953205993380778
2014-04-14,0.00818370818243813
2014-04-15,0.00673457945540654
2014-04-16,0.0104338684212528
2014-04-17,0.00136292371098618
2014-04-21,0.00376801562134878
2014-04-22,0.00408378889976113
2014-04-23,-0.00221576676650585
2014-04-24,0.00171548790073021
2014-04-25,-0.00812934477856997
2014-04-28,0.00323081153933626
2014-04-29,0.00474946032089261
2014-04-30,0.00298754974058496
2014-05-01,-0.000143271499644947
2014-05-02,-0.0013493549964392
2014-05-05,0.00186946730010963
2014-05-06,-0.00902903120769851
2014-05-07,0.00560075474535933
2014-05-08,-0.00137456920358373
2014-05-09,0.00151832288286313
2014-05-12,0.00962625620353982
2014-05-13,0.000421668916013612
2014-05-14,-0.004712089631634
2014-05-15,-0.00940590380541265
2014-05-16,0.00373996241046296
2014-05-19,0.00383741434790779
2014-05-20,-0.00651960460873306
2014-05-21,0.00808334041970692
2014-05-22,0.00235944422810977
2014-05-23,0.00423939288552312
2014-05-27,0.00596995027375222
2014-05-28,-0.00111469281152501
2014-05-29,0.00535275865819089
2014-05-30,0.00184198044744743
2014-06-02,0.000727561668555774
2014-06-03,-0.000379288745559382
2014-06-04,0.00188987678894988
2014-06-05,0.00650408209108602
2014-06-06,0.00461708330741689
2014-06-09,0.000938331305108024
2014-06-10,-0.000246014154145996
2014-06-11,-0.00354331093877262
2014-06-12,-0.0071141394519117
2014-06-13,0.00312965928841103
2014-06-16,0.000836355270389251
2014-06-17,0.00217021247740467
2014-06-18,0.00768924304189028
2014-06-19,0.00127666329547062
2014-06-20,0.00172856367519563
2014-06-23,-0.000132472972326894
2014-06-24,-0.00645610655987445
2014-06-25,0.0048855575116011
2014-06-26,-0.00117957912445393
2014-06-27,0.00190904511827381
2014-06-30,-0.000372326268003538
2014-07-01,0.00665557298946726
2014-07-02,0.000658596162261814
2014-07-03,0.00546455008240456
2014-07-07,-0.00393123905908006
2014-07-08,-0.00707376194048222
2014-07-09,0.0046335164937114
2014-07-10,-0.0041396281496238
2014-07-11,0.00146984170400419
2014-07-14,0.00483186108333965
2014-07-15,-0.00193396492782229
2014-07-16,0.00419228501402056
2014-07-17,-0.0119046058414495
2014-07-18,0.0102126091095899
2014-07-21,-0.00232294651459982
2014-07-22,0.00500361095825346
2014-07-23,0.00175290104463646
2014-07-24,0.000488036458804902
2014-07-25,-0.0048609457194896
2014-07-28,0.000288113211924055
2014-07-29,-0.00453806841016109
2014-07-30,0.0000609108599316274
2014-07-31,-0.0202019319801774
2014-08-01,-0.00286321647470456
2014-08-04,0.00716331454385235
2014-08-05,-0.00973267904391344
2014-08-06,0.0000156382717566577
2014-08-07,-0.00557211547605363
2014-08-08,0.0114654228023735
2014-08-11,0.00275562496105038
2014-08-12,-0.00163798240239016
2014-08-13,0.00668476725501071
2014-08-14,0.00433639826904212
2014-08-15,-0.0000613747476216497
2014-08-18,0.00849548289299904
2014-08-19,0.00498819050701849
2014-08-20,0.00247474819157331
2014-08-21,0.00294554710346912
2014-08-22,-0.00199457506824351
2014-08-25,0.00477635409921509
2014-08-26,0.00105052910224403
2014-08-27,0.0000499857503217804
2014-08-28,-0.00169133060373468
2014-08-29,0.00331491438790357
2014-09-02,-0.000544214307475989
2014-09-03,-0.00077944445614908
2014-09-04,-0.00153559956037106
2014-09-05,0.00502324794336313
2014-09-08,-0.00307784591667175
2014-09-09,-0.00656652170576526
2014-09-10,0.00363944360110984
2014-09-11,0.000881516882239481
2014-09-12,-0.00598040543743689
2014-09-15,-0.000710403657569338
2014-09-16,0.00745650703099943
2014-09-17,0.00129480516916536
2014-09-18,0.00487925709696923
2014-09-19,-0.000477383541575131
2014-09-22,-0.00804560235559777
2014-09-23,-0.00579324981187508
2014-09-24,0.00780197660825348
2014-09-25,-0.0163009134703958
2014-09-26,0.00853926145203815
2014-09-29,-0.00255005097883561
2014-09-30,-0.00278981666290314
2014-10-01,-0.0133371061732776
2014-10-02,0.00000514344867949856
2014-10-03,0.0111036352853943
2014-10-06,-0.00156638593810901
2014-10-07,-0.0152416182580349
2014-10-08,0.0173109474626431
2014-10-09,-0.0208778486004603
2014-10-10,-0.0115170799971451
2014-10-13,-0.0166050333890191
2014-10-14,0.0015776197143493
2014-10-15,-0.00813330076038212
2014-10-16,0.000144967452102614
2014-10-17,0.0128018133755456
2014-10-20,0.00910111612015585
2014-10-21,0.0193853705517281
2014-10-22,-0.00732610069111455
2014-10-23,0.0122283057558545
2014-10-24,0.00702869029605445
2014-10-27,-0.00150269679126132
2014-10-28,0.0118683645937553
2014-10-29,-0.00138631599052234
2014-10-30,0.00621079695358197
2014-10-31,0.0116631145259039
2014-11-03,-0.000118928800236236
2014-11-04,-0.00283385324821087
2014-11-05,0.00568431071217057
2014-11-06,0.0037684038179458
2014-11-07,0.000349525122925019
2014-11-10,0.00311532710763249
2014-11-11,0.000696451657019191
2014-11-12,-0.000701362720637503
2014-11-13,0.000529704401583902
2014-11-14,0.000240241233653449
2014-11-17,0.000735088777762742
2014-11-18,0.0051208495790619
2014-11-19,-0.00150228681447909
2014-11-20,0.00196516386829528
2014-11-21,0.00522321260373825
2014-11-24,0.00285992976088589
2014-11-25,-0.00115069155918804
2014-11-26,0.00280205255492338
2014-11-28,-0.00254566438022057
2014-12-01,-0.00685278973916071
2014-12-02,0.00636416703985698
2014-12-03,0.00375767369059657
2014-12-04,-0.00116257161119486
2014-12-05,0.00166383144824513
2014-12-08,-0.00728302186219094
2014-12-09,-0.000237852197482317
2014-12-10,-0.0164861208350661
2014-12-11,0.00452543377123822
2014-12-12,-0.0163464657921013
2014-12-15,-0.00636278618551089
2014-12-16,-0.00852526004308676
2014-12-17,0.0201480735367581
2014-12-18,0.0237313744836408
2014-12-19,0.00455963802882106
2014-12-22,0.00380322261586866
2014-12-23,0.00174483871980716
2014-12-24,-0.000139306211045177
2014-12-26,0.00330411011647226
2014-12-29,0.000861403031772277
2014-12-30,-0.00490059269736484
2014-12-31,-0.010364383893445
2015-01-02,-0.000340021389684641
2015-01-05,-0.018447213476145
2015-01-06,-0.00893325483918713
2015-01-07,0.0115627358160438
2015-01-08,0.0177301685361215
2015-01-09,-0.0084393221529863
2015-01-12,-0.0081266169265895
2015-01-13,-0.00258188569811863
2015-01-14,-0.00583002858816629
2015-01-15,-0.00929090321018489
2015-01-16,0.0133348931859038
2015-01-20,0.00154875249129893
2015-01-21,0.00472046487954229
2015-01-22,0.0151543129616839
2015-01-23,-0.00550665628783713
2015-01-26,0.00256516822694241
2015-01-27,-0.0134782877843411
2015-01-28,-0.0135875029854551
2015-01-29,0.0094895171480105
2015-01-30,-0.0130770991238003
2015-02-02,0.0128791703225924
2015-02-03,0.0143362382277427
2015-02-04,-0.00416470631283334
2015-02-05,0.0102388108233749
2015-02-06,-0.00342402769471731
2015-02-09,-0.00425623956942479
2015-02-10,0.0106189797214477
2015-02-11,-0.0000290342065521882
2015-02-12,0.00959829498499032
2015-02-13,0.00406645934045757
2015-02-17,0.00159629986164071
2015-02-18,-0.000314358504146546
2015-02-19,-0.00106262196882071
2015-02-20,0.00610784288444643
2015-02-23,-0.000303385345276204
2015-02-24,0.00275497229909507
2015-02-25,-0.000766016941597341
2015-02-26,-0.00147711854171729
2015-02-27,-0.00296068293759311
2015-03-02,0.00610623838037609
2015-03-03,-0.00454887294390783
2015-03-04,-0.00439816123077547
2015-03-05,0.00119536536275699
2015-03-06,-0.0142753562195641
2015-03-09,0.00393666241764425
2015-03-10,-0.0171068211978681
2015-03-11,-0.00191952070345807
2015-03-12,0.0125227022377191
2015-03-13,-0.00609323717440789
2015-03-16,0.0134429089960604
2015-03-17,-0.00332569765570317
2015-03-18,0.0120851016447507
2015-03-19,-0.00488448890258956
2015-03-20,0.00897238213196052
2015-03-23,-0.00174725671037594
2015-03-24,-0.00615834576098982
2015-03-25,-0.014665926443847
2015-03-26,-0.00238033098804712
2015-03-27,0.0023657611241205
2015-03-30,0.0121623823073703
2015-03-31,-0.00883468590117515
2015-04-01,-0.00397325460309816
2015-04-02,0.00352345253119019
2015-04-06,0.00658707252681062
2015-04-07,-0.00206403267867214
2015-04-08,0.00267894145243611
2015-04-09,0.00444757621059215
2015-04-10,0.00518937692086628
2015-04-13,-0.00459180684247379
2015-04-14,0.00162843213895025
2015-04-15,0.00513498908181377
2015-04-16,-0.000778746958332466
2015-04-17,-0.0113757039050322
2015-04-20,0.00919274825019882
2015-04-21,-0.00148170237090901
2015-04-22,0.00507458291283605
2015-04-23,0.00235494098298666
2015-04-24,0.00225026646283342
2015-04-27,-0.00414991298962621
2015-04-28,0.0027654044889026
2015-04-29,-0.00374734807524308
2015-04-30,-0.0101805530840239
2015-05-01,0.0108637764214277
2015-05-04,0.00293643306656561
2015-05-05,-0.0119080032177758
2015-05-06,-0.00446568133609649
2015-05-07,0.00376671063472775
2015-05-08,0.0133681481498062
2015-05-11,-0.00510255667790024
2015-05-12,-0.00295399646931728
2015-05-13,-0.000305001424704461
2015-05-14,0.0107216046471981
2015-05-15,0.000768118444980315
2015-05-18,0.00304331261267174
2015-05-19,-0.000643581575864556
2015-05-20,-0.000930949230348761
2015-05-21,0.00233514557838913
2015-05-22,-0.00223638478974677
2015-05-26,-0.0103352051802653
2015-05-27,0.00912091879004587
2015-05-28,-0.00126756372621101
2015-05-29,-0.00633851495443912
2015-06-01,0.00205734307698481
2015-06-02,-0.00100910478042796
2015-06-03,0.00211662913681834
2015-06-04,-0.00866056199292249
2015-06-05,-0.00143721534464687
2015-06-08,-0.00649556042135558
2015-06-09,0.000418265496528152
2015-06-10,0.0119704918361239
2015-06-11,0.00173711663812221
2015-06-12,-0.00701887465451177
2015-06-15,-0.00463328924790424
2015-06-16,0.00567373031353
2015-06-17,0.00197768423147561
2015-06-18,0.00985400013693092
2015-06-19,-0.00531761523853872
2015-06-22,0.00607636825454935
2015-06-23,0.000635666182352178
2015-06-24,-0.00738046569667404
2015-06-25,-0.00297800390407503
2015-06-26,-0.00039015604969013
2015-06-29,-0.021086969192055
2015-06-30,0.00265496194295388
2015-07-01,0.00691209669929287
2015-07-02,-0.000308070392667004
2015-07-06,-0.00386923244265528
2015-07-07,0.00606256053312656
2015-07-08,-0.016792964823457
2015-07-09,0.00225964770162926
2015-07-10,0.0122629860966726
2015-07-13,0.0110052687613677
2015-07-14,0.00444327299128076
2015-07-15,-0.000735256382355035
2015-07-16,0.00798273357816976
2015-07-17,0.00110557185224853
2015-07-20,0.000770936286134651
2015-07-21,-0.00427079607374032
2015-07-22,-0.00239056521227731
2015-07-23,-0.00569221021230754
2015-07-24,-0.0107610206984304
2015-07-27,-0.00579175469573502
2015-07-28,0.0123100735978523
2015-07-29,0.00729214275694817
2015-07-30,0.0000283671633782084
2015-07-31,-0.00227410383798379
2015-08-03,-0.00276069402668255
2015-08-04,-0.00225223930882016
2015-08-05,0.00310983840925506
2015-08-06,-0.00778319577967061
2015-08-07,-0.00287902322429495
2015-08-10,0.0127268359757946
2015-08-11,-0.00960306502341229
2015-08-12,0.000949603893046331
2015-08-13,-0.00127602574827922
2015-08-14,0.00390433204198235
2015-08-17,0.00519789154605734
2015-08-18,-0.00262898268279398
2015-08-19,-0.00828913667207091
2015-08-20,-0.021325960481545
2015-08-21,-0.0323692421132393
2015-08-24,-0.0402114444918841
2015-08-25,-0.0136142499639106
2015-08-26,0.0382912997435538
2015-08-27,0.0240072542785083
2015-08-28,0.000608551188356078
2015-08-31,-0.00842707845849241
2015-09-01,-0.0300226497726474
2015-09-02,0.0181276710264701
2015-09-03,0.00116411593987424
2015-09-04,-0.0154483086598135
2015-09-08,0.024773636951275
2015-09-09,-0.0139950357100281
2015-09-10,0.00526407544510463
2015-09-11,0.00447700656464434
2015-09-14,-0.00409804146269554
2015-09-15,0.0127496878742787
2015-09-16,0.00866774082813926
2015-09-17,-0.00256434473252314
2015-09-18,-0.0162962310196421
2015-09-21,0.00455539233622198
2015-09-22,-0.0123949302909499
2015-09-23,-0.00205074398806339
2015-09-24,-0.00336865211349261
2015-09-25,-0.000465901586885751
2015-09-28,-0.0260012110067462
2015-09-29,0.00123209375925214
2015-09-30,0.0188958983535743
2015-10-01,0.00197193868270283
2015-10-02,0.0142137929864973
2015-10-05,0.0181245937851627
2015-10-06,-0.00359468940301975
2015-10-07,0.00800351980253082
2015-10-08,0.00877978031552663
2015-10-09,0.000724848591430416
2015-10-12,0.00127466433383014
2015-10-13,-0.00684882392385759
2015-10-14,-0.00472743082671427
2015-10-15,0.0147435512951723
2015-10-16,0.00456006137448722
2015-10-19,0.000270509028434965
2015-10-20,-0.00142210073671335
2015-10-21,-0.00584244934317739
2015-10-22,0.0164908473280029
2015-10-23,0.0109699536892027
2015-10-26,-0.00191493266193726
2015-10-27,-0.00255738583439016
2015-10-28,0.0117704884483798
2015-10-29,-0.000449875597454115
2015-10-30,-0.00482148183896511
2015-11-02,0.0118038766233893
2015-11-03,0.00272435281375602
2015-11-04,-0.00355166671678358
2015-11-05,-0.00113278977860133
2015-11-06,-0.000347682033036739
2015-11-09,-0.0098712906347633
2015-11-10,0.00150945535619739
2015-11-11,-0.00323330746417937
2015-11-12,-0.0140891631915304
2015-11-13,-0.0112706406081519
2015-11-16,0.0147933026272656
2015-11-17,-0.00134027701851194
2015-11-18,0.0160332300153076
2015-11-19,-0.00112374038159948
2015-11-20,0.00380295545259501
2015-11-23,-0.00123562384909843
2015-11-24,0.00122125009447989
2015-11-25,-0.000129140906665741
2015-11-27,0.000593441447398861
2015-11-30,-0.00465179999034875
2015-12-01,0.0106239390884871
2015-12-02,-0.0110565926159161
2015-12-03,-0.0144778266483373
2015-12-04,0.0203178562611106
2015-12-07,-0.00701404393919707
2015-12-08,-0.00651105239957209
2015-12-09,-0.00776908647592599
2015-12-10,0.00224885640741575
2015-12-11,-0.0196138675856388
2015-12-14,0.00474428792138082
2015-12-15,0.0105625802189002
2015-12-16,0.0144106355653524
2015-12-17,-0.0151547762903473
2015-12-18,-0.0179574950935822
2015-12-21,0.0077483064365919
2015-12-22,0.00877809594203412
2015-12-23,0.0123415963516766
2015-12-24,-0.00159991548730619
2015-12-28,-0.00218093634258649
2015-12-29,0.0105736639700385
2015-12-30,-0.00724339878525414
2015-12-31,-0.00945648503576592
2016-01-04,-0.0154220416883263
2016-01-05,0.00201020425962953
2016-01-06,-0.0132021629158562
2016-01-07,-0.0239858165446305
2016-01-08,-0.0108975376927821
2016-01-11,0.000852908478710422
2016-01-12,0.00777251423844887
2016-01-13,-0.0252823753840652
2016-01-14,0.016558061184935
2016-01-15,-0.021835772820744
2016-01-19,0.000531680187444364
2016-01-20,-0.0117627660262423
2016-01-21,0.00518198853995862
2016-01-22,0.0200807267904764
2016-01-25,-0.0157615449848167
2016-01-26,0.0140452379210622
2016-01-27,-0.010922922453368
2016-01-28,0.00551335062318937
2016-01-29,0.0244586510594414
2016-02-01,-0.000443334664319602
2016-02-02,-0.0189209689346578
2016-02-03,0.00497962002234887
2016-02-04,0.00152556835801897
2016-02-05,-0.0186541580952005
2016-02-08,-0.0142550582336647
2016-02-09,-0.000663840393829787
2016-02-10,-0.000188968354347235
2016-02-11,-0.0123774471693122
2016-02-12,0.0193300150777438
2016-02-16,0.0163817378720362
2016-02-17,0.0163461105044708
2016-02-18,-0.00467663200242943
2016-02-19,-0.0000260334080878925
2016-02-22,0.0143507312538776
2016-02-23,-0.0125325773268093
2016-02-24,0.00442995987971643
2016-02-25,0.0112843665533229
2016-02-26,-0.00187186515327117
2016-02-29,-0.00815413142239628
2016-03-01,0.0235883858535109
2016-03-02,0.00408594956528115
2016-03-03,0.0034926341991238
2016-03-04,0.00330043995647043
2016-03-07,0.000884623035136383
2016-03-08,-0.0113037560546752
2016-03-09,0.00503967278221885
2016-03-10,0.000155792534013452
2016-03-11,0.0162625455332442
2016-03-14,-0.00126176824164393
2016-03-15,-0.00183863096500071
2016-03-16,0.00558472788483502
2016-03-17,0.00657358301020842
2016-03-18,0.00439596710198145
2016-03-21,0.000985092132832508
2016-03-22,-0.000877772980474794
2016-03-23,-0.00640650958382992
2016-03-24,-0.000378142009602769
2016-03-28,0.000545107171986099
2016-03-29,0.00877801208391337
2016-03-30,0.00434087979624073
2016-03-31,-0.00204184239013459
2016-04-01,0.00631095903716293
2016-04-04,-0.00321347981187973
2016-04-05,-0.0101962984758041
2016-04-06,0.0104527978523497
2016-04-07,-0.0120480740050811
2016-04-08,0.00278270289483455
2016-04-11,-0.00274354620660013
2016-04-12,0.00961575414016158
2016-04-13,0.00999006968459034
2016-04-14,0.000172912227568184
2016-04-15,-0.000984769658889613
2016-04-18,0.00651972589130361
2016-04-19,0.00307973793245641
2016-04-20,0.000761254803916815
2016-04-21,-0.00520756291791199
2016-04-22,0.0000478587439009507
2016-04-25,-0.00181368959093554
2016-04-26,0.00187100012200284
2016-04-27,0.00164799402984732
2016-04-28,-0.00927363570178569
2016-04-29,-0.00507594934304352
2016-05-02,0.0077796067866815
2016-05-03,-0.00871449965192446
2016-05-04,-0.00595458270601523
2016-05-05,-0.000239036509945345
2016-05-06,0.00316961066719553
2016-05-09,0.000753212905197304
2016-05-10,0.0124063656357688
2016-05-11,-0.00960752304999178
2016-05-12,-0.000169479502624446
2016-05-13,-0.00851443412914455
2016-05-16,0.00974897650846727
2016-05-17,-0.00945586346870987
2016-05-18,0.000205157713102882
2016-05-19,-0.00371359461058808
2016-05-20,0.00600145907833457
2016-05-23,-0.00208763642351202
2016-05-24,0.0135886377601904
2016-05-25,0.00695052942600362
2016-05-26,-0.00021046585556624
2016-05-27,0.00427769496851278
2016-05-31,-0.00100576889609323
2016-06-01,0.00113439867634767
2016-06-02,0.00282069633785736
2016-06-03,-0.00291606225870038
2016-06-06,0.00488532837818981
2016-06-07,0.00128861576982143
2016-06-08,0.00330410179470161
2016-06-09,-0.00171923573099449
2016-06-10,-0.00921753236003702
2016-06-13,-0.00814829842285691
2016-06-14,-0.00180050544053862
2016-06-15,-0.00184240889064404
2016-06-16,0.00312809299825633
2016-06-17,-0.00326328388848625
2016-06-20,0.0057913826350896
2016-06-21,0.00270839043964955
2016-06-22,-0.00165292891443178
2016-06-23,0.0132755669843189
2016-06-24,-0.0365807927237243
2016-06-27,-0.0182622464547502
2016-06-28,0.0176141217235806
2016-06-29,0.0168892431093678
2016-06-30,0.013473862722099
2016-07-01,0.00194670641230357
2016-07-05,-0.00687102882157432
2016-07-06,0.0053386867527392
2016-07-07,-0.00087195782734437
2016-07-08,0.0151381865684542
2016-07-11,0.00340281942221321
2016-07-12,0.0069848425545492
2016-07-13,0.000134758645918206
2016-07-14,0.00524542263473468
2016-07-15,-0.000929379168290769
2016-07-18,0.00237946212497982
2016-07-19,-0.00143620483230894
2016-07-20,0.00426120866867965
2016-07-21,-0.00361907001450633
2016-07-22,0.0045436265952857
2016-07-25,-0.00301601881960254
2016-07-26,0.000322732542557735
2016-07-27,-0.00119926117017645
2016-07-28,0.00160492069299376
2016-07-29,0.00162998008859877
2016-08-01,-0.00127059425525514
2016-08-02,-0.00638194100068276
2016-08-03,0.00312904282481814
2016-08-04,0.000212549328373615
2016-08-05,0.00856669720348392
2016-08-08,-0.000907577012203772
2016-08-09,0.000389717685688688
2016-08-10,-0.00286879706379692
2016-08-11,0.00472341518158423
2016-08-12,-0.000796363279624738
2016-08-15,0.00278901605887361
2016-08-16,-0.00549414221734283
2016-08-17,0.00186684630001563
2016-08-18,0.00219720177467256
2016-08-19,-0.00144130986895765
2016-08-22,-0.000563481604179692
2016-08-23,0.00194986682788912
2016-08-24,-0.00525405528922969
2016-08-25,-0.00136616007324839
2016-08-26,-0.00158006440418104
2016-08-29,0.00521442854348314
2016-08-30,-0.00195559157927956
2016-08-31,-0.00237869109857046
2016-09-01,-0.0000413855045765343
2016-09-02,0.00419224157834527
2016-09-06,0.00297724237064449
2016-09-07,-0.000146395773938399
2016-09-08,-0.00222548806364495
2016-09-09,-0.0248277422987072
2016-09-12,0.0145703870135624
2016-09-13,-0.0149417480288841
2016-09-14,-0.000587849399683308
2016-09-15,0.0100585163380823
2016-09-16,-0.00377942795585267
2016-09-19,-0.0000186032703477062
2016-09-20,0.000299093681420301
2016-09-21,0.0108580001374223
2016-09-22,0.00647875216938693
2016-09-23,-0.00575329331245436
2016-09-26,-0.00862484977007069
2016-09-27,0.00642349517150666
2016-09-28,0.00528257635090876
2016-09-29,-0.00936512755656675
2016-09-30,0.00793639271705029
2016-10-03,-0.0032660234772408
2016-10-04,-0.00496788181582121
2016-10-05,0.00428748612314274
2016-10-06,0.000481444286582203
2016-10-07,-0.00325878776737299
2016-10-10,0.00459533037559561
2016-10-11,-0.0125245778665823
2016-10-12,0.00114593259377288
2016-10-13,-0.00310407649963473
2016-10-14,0.000201583858762237
2016-10-17,-0.00304261789207733
2016-10-18,0.00614150576635959
2016-10-19,0.00218957196554249
2016-10-20,-0.0013766710511559
2016-10-21,-0.0000841452423146624
2016-10-24,0.00473859464040592
2016-10-25,-0.00380495745763715
2016-10-26,-0.00174192770217584
2016-10-27,-0.00299119610328675
2016-10-28,-0.00311314016176056
2016-10-31,-0.000122283994439305
2016-11-01,-0.00681001880647348
2016-11-02,-0.00654688478768083
2016-11-03,-0.00443321288133321
2016-11-04,-0.00166752004697957
2016-11-07,0.0219801997770311
2016-11-08,0.0037648783671194
2016-11-09,0.011016119798124
2016-11-10,0.00194884539148701
2016-11-11,-0.00139892821094072
2016-11-14,-0.000115509457192342
2016-11-15,0.00745295529499288
2016-11-16,-0.00158351690247714
2016-11-17,0.00466546946208371
2016-11-18,-0.00238965143736532
2016-11-21,0.00743370239190758
2016-11-22,0.00216309075569307
2016-11-23,0.000807698475975776
2016-11-25,0.00390674563407694
2016-11-28,-0.00526838927520493
2016-11-29,0.00133440216881349
2016-11-30,-0.00265693032078661
2016-12-01,-0.00352172320857237
2016-12-02,0.000396927698722422
2016-12-05,0.00580442703350407
2016-12-06,0.00340508422863575
2016-12-07,0.0130773591099809
2016-12-08,0.00215701468264186
2016-12-09,0.00592141858244364
2016-12-12,-0.00113808213151935
2016-12-13,0.00651848330422764
2016-12-14,-0.00815029572429385
2016-12-15,0.00387570768806318
2016-12-16,-0.00175215677888892
2016-12-19,0.0019731727431488
2016-12-20,0.00363091263558093
2016-12-21,-0.00246038566924012
2016-12-22,-0.00186471135340519
2016-12-23,0.00125093247982754
2016-12-27,0.00224584901479726
2016-12-28,-0.00839164073685391
2016-12-29,-0.000293347683225005
2016-12-30,-0.0046478348568879
2017-01-03,0.00845076675362697
2017-01-04,0.00570596382591232
2017-01-05,-0.000770967602481185
2017-01-06,0.00351078897471433
2017-01-09,-0.00355490541719995
2017-01-10,0
2017-01-11,0.00282564238266223
2017-01-12,-0.00214711241471488
2017-01-13,0.00184813175954566
2017-01-17,-0.00297191445566636
2017-01-18,0.00176220046948194
2017-01-19,-0.0036158379894763
2017-01-20,0.00336058441962503
2017-01-23,-0.00269374990080754
2017-01-24,0.00654314044722272
2017-01-25,0.00799405287200487
2017-01-26,-0.000735654697207659
2017-01-27,-0.000866839823256574
2017-01-30,-0.00602767346976557
2017-01-31,-0.000890301539602116
2017-02-01,0.000298319145792635
2017-02-02,0.000570146914003562
2017-02-03,0.00723849675825126
2017-02-06,-0.00211759739091437
2017-02-07,0.000226803232130393
2017-02-08,0.000693082257595496
2017-02-09,0.00573606360024238
2017-02-10,0.00355970705167041
2017-02-13,0.00523213343559379
2017-02-14,0.00399932714219848
2017-02-15,0.00497988871920872
2017-02-16,-0.000864491475070851
2017-02-17,0.00167714915423839
2017-02-21,0.00602985014585715
2017-02-22,-0.00108278637816838
2017-02-23,0.000418899295217362
2017-02-24,0.00149225010637087
2017-02-27,0.00101746522153214
2017-02-28,-0.00258170593670956
2017-03-01,0.0135812109313255
2017-03-02,-0.00587711694571215
2017-03-03,0.000503750237377844
2017-03-06,-0.0032826225138571
2017-03-07,-0.00291762589499275
2017-03-08,-0.00228682834056354
2017-03-09,0.000799575731853127
2017-03-10,0.00326333993002724
2017-03-13,0.000366565599366962
2017-03-14,-0.00338474917863209
2017-03-15,0.00833987929560664
2017-03-16,-0.00162803481870745
2017-03-17,-0.00131517934296735
2017-03-20,-0.00201191595529975
2017-03-21,-0.0124855945152058
2017-03-22,0.00188810257429917
2017-03-23,-0.00106083204500201
2017-03-24,-0.000844352440560403
2017-03-27,-0.00102010733915568
2017-03-28,0.00722530863054442
2017-03-29,0.00108473643561123
2017-03-30,0.00293081100384775
2017-03-31,-0.00225759398417103
2017-04-03,-0.00164347538729499
2017-04-04,0.000559365981951003
2017-04-05,-0.00305953683822663
2017-04-06,0.00192765026736434
2017-04-07,-0.000827472390060951
2017-04-10,0.000687450115915287
2017-04-11,-0.00143490837168414
2017-04-12,-0.00376703713960386
2017-04-13,-0.0068380205168597
2017-04-17,0.00857646586468263
2017-04-18,-0.00290760311905805
2017-04-19,-0.0017178251699592
2017-04-20,0.00752885035594023
2017-04-21,-0.0030396883265113
2017-04-24,0.010781736616292
2017-04-25,0.00607221417992022
2017-04-26,-0.000485821371058852
2017-04-27,0.000552767268520894
2017-04-28,-0.00191497973980982
2017-05-01,0.00173079184664512
2017-05-02,0.00118834369042491
2017-05-03,-0.00127216936958977
2017-05-04,0.000581933405525334
2017-05-05,0.00408035918526009
2017-05-08,0.000037445376102627
2017-05-09,-0.0010257745827881
2017-05-10,0.00112996274343639
2017-05-11,-0.00216515162190755
2017-05-12,-0.00147953531490466
2017-05-15,0.0047651422971946
2017-05-16,-0.000687132835322283
2017-05-17,-0.0183454683491369
2017-05-18,0.00368003887865927
2017-05-19,0.00674470288589965
2017-05-22,0.00514686368861927
2017-05-23,0.00183618502869785
2017-05-24,0.00248603392791904
2017-05-25,0.00443211171771264
2017-05-26,0.000310501785348594
2017-05-30,-0.00120535062610386
2017-05-31,-0.000460074503358143
2017-06-01,0.00754259568075998
2017-06-02,0.00370087430352824
2017-06-05,-0.00121840685198097
2017-06-06,-0.00278290885876528
2017-06-07,0.00156702902118901
2017-06-08,0.000267168836597683
2017-06-09,-0.00083033364774634
2017-06-12,-0.000979242498824212
2017-06-13,0.00450135881043622
2017-06-14,-0.000996327054905226
2017-06-15,-0.00224210982241947
2017-06-16,0.000283598983087768
2017-06-19,0.00831258337364602
2017-06-20,-0.00671916059422433
2017-06-21,-0.000582814244664454
2017-06-22,-0.000455885799226852
2017-06-23,0.0015596986258986
2017-06-26,0.000315751721901898
2017-06-27,-0.00810558635083266
2017-06-28,0.0087695014026031
2017-06-29,-0.0086372167487241
2017-06-30,0.00153205763677241
2017-07-03,0.0023081681207701
2017-07-05,0.00145222391410548
2017-07-06,-0.00941298728117294
2017-07-07,0.00638271271780055
2017-07-10,0.000927336103375247
2017-07-11,-0.00078298733652557
2017-07-12,0.0072790510702173
2017-07-13,0.00187282942240749
2017-07-14,0.00466261641168023
2017-07-17,-0.0000529142557583002
2017-07-18,0.000597678355105707
2017-07-19,0.00535825833697586
2017-07-20,-0.000153671107566017
2017-07-21,-0.000367939284998526
2017-07-24,-0.00106430101441406
2017-07-25,0.00291890763987352
2017-07-26,0.00028262387997962
2017-07-27,-0.000973161536449862
2017-07-28,-0.0013420155895608
2017-07-31,-0.000728410904034967
2017-08-01,0.00244612084417494
2017-08-02,0.00049252712348292
2017-08-03,-0.002186041734137
2017-08-04,0.00188732141131432
2017-08-07,0.00164584465066151
2017-08-08,-0.00241735213579199
2017-08-09,-0.000363674653750077
2017-08-10,-0.0145802185645769
2017-08-11,0.00127475695514848
2017-08-14,0.00999365143761086
2017-08-15,-0.000498932542412678
2017-08-16,0.00141909552357494
2017-08-17,-0.0155573422198108
2017-08-18,-0.00183705368694197
2017-08-21,0.00116197556649383
2017-08-22,0.00989169543340284
2017-08-23,-0.0034595702537768
2017-08-24,-0.00207661659984446
2017-08-25,0.00167147161756874
2017-08-28,0.000486953307054757
2017-08-29,0.000842466928157631
2017-08-30,0.00460453176230682
2017-08-31,0.0057046734011315
2017-09-01,0.00198057825081323
2017-09-05,-0.00757945848168786
2017-09-06,0.0031238423279367
2017-09-07,-0.000178451880057659
2017-09-08,-0.00148996013690185
2017-09-11,0.0107809748815882
2017-09-12,0.0033583025766752
2017-09-13,0.000756834360797848
2017-09-14,-0.00110132385091066
2017-09-15,0.00184547743380825
2017-09-18,0.00145486204172808
2017-09-19,0.00110957955448035
2017-09-20,0.000634146746002747
2017-09-21,-0.00305056571600587
2017-09-22,0.000647583976344724
2017-09-25,-0.00222452286230695
2017-09-26,0.0000721642135086899
2017-09-27,0.00407682233325281
2017-09-28,0.00120389081571656
2017-09-29,0.00369826273919687
2017-10-02,0.0038665189230292
2017-10-03,0.00215651120947967
2017-10-04,0.00124594361807576
2017-10-05,0.00563090398283137
2017-10-06,-0.00107421107345519
2017-10-09,-0.00180606400318531
2017-10-10,0.00231971998008184
2017-10-11,0.00180188267254067
2017-10-12,-0.00168817688774813
2017-10-13,0.000877721912925059
2017-10-16,0.00174922264829397
2017-10-17,0.000672352575650886
2017-10-18,0.000742059767673381
2017-10-19,0.000327944157669914
2017-10-20,0.00510379607513307
2017-10-23,-0.00398039552001697
2017-10-24,0.00161660113029006
2017-10-25,-0.0046739558946689
2017-10-26,0.00127013925077294
2017-10-27,0.00804060997474842
2017-10-30,-0.00319757728609049
2017-10-31,0.00094401307627437
2017-11-01,0.00159084385333579
2017-11-02,0.000189948066468871
2017-11-03,0.00309228923533517
2017-11-06,0.00127044391487362
2017-11-07,-0.000189120714598283
2017-11-08,0.00144261384148617
2017-11-09,-0.00376898148418629
2017-11-10,-0.00089804683695035
2017-11-13,0.000983150887048293
2017-11-14,-0.00231228067530223
2017-11-15,-0.00554099874252763
2017-11-16,0.00816265301924337
2017-11-17,-0.00262941700876233
2017-11-20,0.0012748699188763
2017-11-21,0.00651983860214541
2017-11-22,-0.000750542637235231
2017-11-24,0.00205398437439539
2017-11-27,-0.000384331586784817
2017-11-28,0.00980033212495188
2017-11-29,-0.000369293995848674
2017-11-30,0.00815758675244713
2017-12-01,-0.00202658277623433
2017-12-04,-0.00105271081555984
2017-12-05,-0.003746390508707
2017-12-06,-0.000114111855582094
2017-12-07,0.00292806665406773
2017-12-08,0.00549120221327836
2017-12-11,0.00319684203358467
2017-12-12,0.00154772365184571
2017-12-13,-0.000473068682704282
2017-12-14,-0.00407916777147721
2017-12-15,0.00893431347358949
2017-12-18,0.00534847838711706
2017-12-19,-0.00323549789174756
2017-12-20,-0.00082823618428607
2017-12-21,0.00198368687879151
2017-12-22,-0.000458271463486148
2017-12-26,-0.00105897574081936
2017-12-27,0.000790628240347942
2017-12-28,0.00183231904955842
2017-12-29,-0.00519663242728501
2018-01-02,0.00826907852688715
2018-01-03,0.00637843324297805
2018-01-04,0.00402054261954734
2018-01-05,0.00700914584931432
2018-01-08,0.00166096391535533
2018-01-09,0.00130208347183541
2018-01-10,-0.00111284595936833
2018-01-11,0.00700902608623622
2018-01-12,0.00672692616818542
2018-01-16,-0.0035307131324619
2018-01-17,0.00937100630643673
2018-01-18,-0.00161769774853182
2018-01-19,0.00437564815425052
2018-01-22,0.00803436442584718
2018-01-23,0.00217200492947076
2018-01-24,-0.000560132635299511
2018-01-25,0.000602439420859098
2018-01-26,0.0117716380408185
2018-01-29,-0.00675473632363513
2018-01-30,-0.0109586425739711
2018-01-31,0.000488865875232355
2018-02-01,-0.000648298661995979
2018-02-02,-0.0214366802827097
2018-02-05,-0.0418425411596271
2018-02-06,0.017290573658832
2018-02-07,-0.00501413842107059
2018-02-08,-0.0382590522050153
2018-02-09,0.0148256452651369
2018-02-12,0.0138186656125738
2018-02-13,0.00260952182772053
2018-02-14,0.0133134400309336
2018-02-15,0.0119968616443654
2018-02-16,0.000373399821508971
2018-02-20,-0.00585851712920845
2018-02-21,-0.00551166461587029
2018-02-22,0.000973077554965638
2018-02-23,0.0159012782845682
2018-02-26,0.0116884386817348
2018-02-27,-0.012788311673316
2018-02-28,-0.011157806021537
2018-03-01,-0.0134139657621337
2018-03-02,0.00505878543851617
2018-03-05,0.0109716174612216
2018-03-06,0.00263538301257311
2018-03-07,-0.000483991693955966
2018-03-08,0.00445314825424219
2018-03-09,0.0172295465038515
2018-03-12,-0.00127479704059957
2018-03-13,-0.00638391043583745
2018-03-14,-0.00574097014258484
2018-03-15,-0.000782236274108499
2018-03-16,0.00170199807789535
2018-03-19,-0.0143060405804625
2018-03-20,0.00148070846611835
2018-03-21,-0.0018456918435883
2018-03-22,-0.0254848872590385
2018-03-23,-0.0211898070675298
2018-03-26,0.0267950406801321
2018-03-27,-0.0174272857817388
2018-03-28,-0.0029209188276956
2018-03-29,0.013675777422844
2018-04-02,-0.022590682199875
2018-04-03,0.0125359611773792
2018-04-04,0.0115001022585776
2018-04-05,0.00683942159633542
2018-04-06,-0.0221640669841528
2018-04-09,0.00333099481175077
2018-04-10,0.0165885989675975
2018-04-11,-0.0055406858556444
2018-04-12,0.00821689876343307
2018-04-13,-0.00289079967402312
2018-04-16,0.0080763367777029
2018-04-17,0.0106050717289033
2018-04-18,0.0008310204074237
2018-04-19,-0.00574258188196259
2018-04-20,-0.00857317709997693
2018-04-23,0.0000562299297814113
2018-04-24,-0.0134708878288692
2018-04-25,0.00183537394838544
2018-04-26,0.0103801441652869
2018-04-27,0.00111300538272617
2018-04-30,-0.00822119244304931
2018-05-01,0.00254580217086239
2018-05-02,-0.00723195121871726
2018-05-03,-0.00225621781074056
2018-05-04,0.0127298102535174
2018-05-07,0.00345198057821346
2018-05-08,-0.000265676635106561
2018-05-09,0.00963564786491877
2018-05-10,0.00932701149504137
2018-05-11,0.00170613951177176
2018-05-14,0.000883099469968412
2018-05-15,-0.0068656551760574
2018-05-16,0.00405233993386022
2018-05-17,-0.000856238742636719
2018-05-18,-0.00263566521405281
2018-05-21,0.00735960452426241
2018-05-22,-0.0031406888277454
2018-05-23,0.00324314533314578
2018-05-24,-0.00202526284893418
2018-05-25,-0.00236000318604151
2018-05-29,-0.0116315726226978
2018-05-30,0.0126158755948033
2018-05-31,-0.00690333315620172
2018-06-01,0.0107907994674016
2018-06-04,0.00446959489865794
2018-06-05,0.000702346400362425
2018-06-06,0.0085309006987769
2018-06-07,-0.000714443813657318
2018-06-08,0.00312102886860513
2018-06-11,0.00106813711376706
2018-06-12,0.00174186740205108
2018-06-13,-0.00403425459720631
2018-06-14,0.00246850037071921
2018-06-15,-0.0010176202706103
2018-06-18,-0.00212839114153826
2018-06-19,-0.00403151791179988
2018-06-20,0.00171069005465713
2018-06-21,-0.00636572862812166
2018-06-22,0.00186020323796029
2018-06-25,-0.0138197231680974
2018-06-26,0.00220215078715127
2018-06-27,-0.00864158639287595
2018-06-28,0.00615968009913676
2018-06-29,0.000758115668982346
2018-07-02,0.00306326092619001
2018-07-03,-0.00495962919403715
2018-07-05,0.00858385648196029
2018-07-06,0.00844551762452289
2018-07-09,0.00878429096045495
2018-07-10,0.00346724931307377
2018-07-11,-0.00711948624208647
2018-07-12,0.00871099138885831
2018-07-13,0.00107865570396513
2018-07-16,-0.00102866463749967
2018-07-17,0.00396582427619843
2018-07-18,0.00215818194896927
2018-07-19,-0.00396082686602809
2018-07-20,-0.000948897732316774
2018-07-23,0.00183636222085076
2018-07-24,0.00476951893116806
2018-07-25,0.00906043506598178
2018-07-26,-0.00303690276577158
2018-07-27,-0.006583834629162
2018-07-30,-0.00577078906544193
2018-07-31,0.00487283707445684
2018-08-01,-0.00104089319533296
2018-08-02,0.00491434983716881
2018-08-03,0.00463343208136584
2018-08-06,0.00353198240918072
2018-08-07,0.00282020180695404
2018-08-08,-0.000262414393310877
2018-08-09,-0.0014427146607
2018-08-10,-0.00713931232422116
2018-08-13,-0.00401403743384818
2018-08-14,0.00636892991107396
2018-08-15,-0.00763120866991392
2018-08-16,0.00788821447615503
2018-08-17,0.00331760658406054
2018-08-20,0.00242507489650002
2018-08-21,0.00206639991629951
2018-08-22,-0.000398231201649663
2018-08-23,-0.00169269396203125
2018-08-24,0.00617970595103754
2018-08-27,0.00764114146752016
2018-08-28,0.000269242320284602
2018-08-29,0.00568524228568749
2018-08-30,-0.00444017195838016
2018-08-31,0.000134468564228123
2018-09-04,-0.00165569210794596
2018-09-05,-0.00280706278475041
2018-09-06,-0.00365899109590121
2018-09-07,-0.00221579782958923
2018-09-10,0.00189602815471794
2018-09-11,0.00373286577063052
2018-09-12,0.000356608247078275
2018-09-13,0.00526835223986664
2018-09-14,0.000275443615661464
2018-09-17,-0.00558529077069144
2018-09-18,0.00535465294800658
2018-09-19,0.00125248783418851
2018-09-20,0.00781001424443421
2018-09-21,-0.000368600894340109
2018-09-24,-0.003521882420907
2018-09-25,-0.00130594828955323
2018-09-26,-0.00329469971833814
2018-09-27,0.00275947612635097
2018-09-28,-0.00000687030500060894
2018-10-01,0.00363449254045944
2018-10-02,-0.000396768824748207
2018-10-03,0.00071126669390333
2018-10-04,-0.00820303564651752
2018-10-05,-0.00554331456377091
2018-10-08,-0.000395194459216246
2018-10-09,-0.0014189099207727
2018-10-10,-0.0334163889515669
2018-10-11,-0.0207875801702719
2018-10-12,0.0141062355448584
2018-10-15,-0.00592248238178061
2018-10-16,0.0212678281021073
2018-10-17,-0.00025269428490194
2018-10-18,-0.0144964907048117
2018-10-19,-0.00036123513531814
2018-10-22,-0.00430879692118046
2018-10-23,-0.00552707639695959
2018-10-24,-0.0313507735834927
2018-10-25,0.0184537177164673
2018-10-26,-0.0174791380299761
2018-10-29,-0.0065812081423932
2018-10-30,0.0155453230417717
2018-10-31,0.0107928785982474
2018-11-01,0.0105024988865376
2018-11-02,-0.00633672083826959
2018-11-05,0.00558469369636322
2018-11-06,0.00623978753367442
2018-11-07,0.0209870787730761
2018-11-08,-0.00251206918295162
2018-11-09,-0.00924158578656125
2018-11-12,-0.0198981509608482
2018-11-13,-0.00148301879905276
2018-11-14,-0.00759618899673718
2018-11-15,0.010538032725958
2018-11-16,0.00222083777174711
2018-11-19,-0.0167831615812405
2018-11-20,-0.0183179952226899
2018-11-21,0.0030386692866971
2018-11-23,-0.00657641969315501
2018-11-26,0.0154129756267595
2018-11-27,0.00325638447550639
2018-11-28,0.022714051233731
2018-11-29,-0.00218549445983618
2018-11-30,0.00813754769912614
2018-12-03,0.0108820016818801
2018-12-04,-0.0329002286209011
2018-12-06,-0.00152338812835683
2018-12-07,-0.0235963354400421
2018-12-10,0.001760603382939
2018-12-11,-0.000356409900445532
2018-12-12,0.00540487098738264
2018-12-13,-0.000199950200436651
2018-12-14,-0.0192712123112267
2018-12-17,-0.0209922849220374
2018-12-18,0.0000863969703999639
2018-12-19,-0.0155154591080494
2018-12-20,-0.0158978094583743
2018-12-21,-0.0208031206267887
2018-12-24,-0.0274865726545185
2018-12-26,0.048403177454947
2018-12-27,0.00852622898824232
2018-12-28,-0.00124235395429467
2018-12-31,0.00845662609361893
2019-01-02,0.00126769280722647
2019-01-03,-0.0250683315282973
2019-01-04,0.033759398727554
2019-01-07,0.00698597599634681
2019-01-08,0.00964858745334504
2019-01-09,0.00408967139948609
2019-01-10,0.00450824151275336
2019-01-11,-0.000146308616678064
2019-01-14,-0.00527139484087579
2019-01-15,0.0106646191089581
2019-01-16,0.00221952059464126
2019-01-17,0.00756273059854849
2019-01-18,0.0130969128395472
2019-01-22,-0.0142584769819338
2019-01-23,0.00220048998487408
2019-01-24,0.00137478012880697
2019-01-25,0.00845286783577828
2019-01-28,-0.00787777580664376
2019-01-29,-0.00145730806513355
2019-01-30,0.0154296099556674
2019-01-31,0.00856064887278227
2019-02-01,0.000898206347996846
2019-02-04,0.00675338115835754
2019-02-05,0.00469737044338007
2019-02-06,-0.00222691580916986
2019-02-07,-0.00940119298427327
2019-02-08,0.000675972571740021
2019-02-11,0.000708851798003173
2019-02-12,0.0128078526686296
2019-02-13,0.00301943165665701
2019-02-14,-0.00265516344658242
2019-02-15,0.0108200049595242
2019-02-19,0.00149762128705981
2019-02-20,0.00177553341470482
2019-02-21,-0.00353266919654973
2019-02-22,0.0063906386718999
2019-02-25,0.00123110425411251
2019-02-26,-0.000790769644996878
2019-02-27,-0.000544197246115208
2019-02-28,-0.00282950775026918
2019-03-01,0.00687165652798645
2019-03-04,-0.00388810710489399
2019-03-05,-0.00113217375839298
2019-03-06,-0.00654547354291802
2019-03-07,-0.0081589109455822
2019-03-08,-0.00213396439319835
2019-03-11,0.0145595357562537
2019-03-12,0.00294896583397222
2019-03-13,0.00692554663356953
2019-03-14,-0.000868399542970836
2019-03-15,0.0049725194092586
2019-03-18,0.00369909682158313
2019-03-19,-0.000130570063396933
2019-03-20,-0.00294869677987162
2019-03-21,0.0107940157263407
2019-03-22,-0.0191568271776344
2019-03-25,-0.000839373006383721
2019-03-26,0.00715705312086704
2019-03-27,-0.00465514336561029
2019-03-28,0.00358305463780416
2019-03-29,0.00671170606634047
2019-04-01,0.0115021954976331
2019-04-02,0.0000174556148051527
2019-04-03,0.00214607238219985
2019-04-04,0.00208246550914145
2019-04-05,0.00462571739556183
2019-04-08,0.00104691199341941
2019-04-09,-0.00608597665725975
2019-04-10,0.00347183783585568
2019-04-11,0.0000381221942795494
2019-04-12,0.00658757847634989
2019-04-15,-0.000629567249758413
2019-04-16,0.000509228507906596
2019-04-17,-0.00227640101974287
2019-04-18,0.00157784678131432
2019-04-22,0.00101150602121637
2019-04-23,0.00880235119540492
2019-04-24,-0.00219416872553595
2019-04-25,-0.00036904169755481
2019-04-26,0.004674350344365
2019-04-29,0.00107094833958194
2019-04-30,0.000950964757232606
2019-05-01,-0.00753044596818442
2019-05-02,-0.00212624432768956
2019-05-03,0.00959212746147039
2019-05-06,-0.00448101323105557
2019-05-07,-0.0166494881305477
2019-05-08,-0.00160671540560347
2019-05-09,-0.00302599860192496
2019-05-10,0.00371339384720424
2019-05-13,-0.0244264690858794
2019-05-14,0.00798398755130936
2019-05-15,0.00582199438823372
2019-05-16,0.00885595696963402
2019-05-17,-0.00585443715292063
2019-05-20,-0.00677225803662526
2019-05-21,0.00845994911094588
2019-05-22,-0.00282839205250265
2019-05-23,-0.0119856924884403
2019-05-24,0.00135264399883423
2019-05-28,-0.00841094999347043
2019-05-29,-0.00693591014934048
2019-05-30,0.00209627235529331
2019-05-31,-0.0132832049515648
2019-06-03,-0.00276907086455093
2019-06-04,0.0212059273109195
2019-06-05,0.00812872668996638
2019-06-06,0.00611684071521119
2019-06-07,0.0104429793677506
2019-06-10,0.00464921987431912
2019-06-11,-0.000349941192693143
2019-06-12,-0.00203965789213518
2019-06-13,0.00408901061076557
2019-06-14,-0.00161281209441454
2019-06-17,0.000931315637977284
2019-06-18,0.00967048954971309
2019-06-19,0.00298071681438073
2019-06-20,0.00942760543616594
2019-06-21,-0.00126001638019447
2019-06-24,-0.00173338836506087
2019-06-25,-0.00954177569282688
2019-06-26,-0.00123469584496061
2019-06-27,0.00381588593721358
2019-06-28,0.00574094187753503
2019-07-01,0.00764301848911426
2019-07-02,0.00292384739799087
2019-07-03,0.00764309546189117
2019-07-05,-0.00180753412116511
2019-07-08,-0.00484717303130324
2019-07-09,0.00123579317913578
2019-07-10,0.00450054675308643
2019-07-11,0.00228261966255823
2019-07-12,0.00460953449406186
2019-07-15,0.000175853629867833
2019-07-16,-0.00340958463283552
2019-07-17,-0.00655266540340367
2019-07-18,0.00357559752608035
2019-07-19,-0.00619588946572007
2019-07-22,0.00282470172852572
2019-07-23,0.00682414533750915
2019-07-24,0.0046771928492371
2019-07-25,-0.00527629657652315
2019-07-26,0.00736053558974417
2019-07-29,-0.00161742169136279
2019-07-30,-0.00258198535104809
2019-07-31,-0.0109452070084962
2019-08-01,-0.00903952749417167
2019-08-02,-0.00730938861849156
2019-08-05,-0.030230182310703
2019-08-06,0.012933024156216
2019-08-07,0.000766582008662592
2019-08-08,0.0185884626666274
2019-08-09,-0.00663859328866065
2019-08-12,-0.0123938090577612
2019-08-13,0.015018346204117
2019-08-14,-0.0297303522107148
2019-08-15,0.00246123669788277
2019-08-16,0.0143230581759374
2019-08-19,0.0120331753224137
2019-08-20,-0.00794621511373511
2019-08-21,0.00821297959943551
2019-08-22,-0.000506203140967559
2019-08-23,-0.0262888812122125
2019-08-26,0.0109231129441154
2019-08-27,-0.00320832190381789
2019-08-28,0.0065241514280121
2019-08-29,0.0126074825390244
2019-08-30,0.000642580823974934
2019-09-03,-0.00692300919275306
2019-09-04,0.0107837250160779
2019-09-05,0.0129259130228138
2019-09-06,0.000910190825359102
2019-09-09,-0.0000940145792229485
2019-09-10,0.000322252446869734
2019-09-11,0.00720367230454405
2019-09-12,0.002875016039068
2019-09-13,-0.000724676617275952
2019-09-16,-0.00314051303578802
2019-09-17,0.00257842529443158
2019-09-18,0.000342633185549791
2019-09-19,0.0000199746570435837
2019-09-20,-0.00490759920420323
2019-09-23,-0.000096940596948634
2019-09-24,-0.00845198874844782
2019-09-25,0.00613968506327353
2019-09-26,-0.00243187100976622
2019-09-27,-0.00533053453726086
2019-09-30,0.00503491015761519
2019-10-01,-0.0123341268666773
2019-10-02,-0.0180654043337421
2019-10-03,0.00794030498438416
2019-10-04,0.0141167852542351
2019-10-07,-0.00448835237434393
2019-10-08,-0.0156831593904205
2019-10-09,0.00906329625667682
2019-10-10,0.00639520259334536
2019-10-11,0.0108795797677868
2019-10-14,-0.00138808194692389
2019-10-15,0.00990644561234453
2019-10-16,-0.00200154480904173
2019-10-17,0.00275902204832814
2019-10-18,-0.00392704571002533
2019-10-21,0.00684811426162721
2019-10-22,-0.00357504943534354
2019-10-23,0.00284310358007522
2019-10-24,0.0019186044823943
2019-10-25,0.00406442958828222
2019-10-28,0.00556581990037976
2019-10-29,-0.000832751858690191
2019-10-30,0.00324808941579185
2019-10-31,-0.00302743865464828
2019-11-01,0.00961593039024251
2019-11-04,0.0036972459932525
2019-11-05,-0.0011864029250808
2019-11-06,0.000702250556783877
2019-11-07,0.00272637545725374
2019-11-08,0.00255740298821875
2019-11-11,-0.00196439529700143
2019-11-12,0.00156342326071541
2019-11-13,0.000711281514540771
2019-11-14,0.000836692695206521
2019-11-15,0.00766602873745256
2019-11-18,0.000503026207690136
2019-11-19,-0.000592769889424575
2019-11-20,-0.0037632565160123
2019-11-21,-0.00158400612643417
2019-11-22,0.00217257394241981
2019-11-25,0.00747925204218941
2019-11-26,0.00219316365957126
2019-11-27,0.00416573553549631
2019-11-29,-0.00401928643868123
2019-12-02,-0.00866848360494129
2019-12-03,-0.00666022525339609
2019-12-04,0.00630365773963026
2019-12-05,0.00149912696661447
2019-12-06,0.00909424588037925
2019-12-09,-0.00316783362977699
2019-12-10,-0.00109753603927438
2019-12-11,0.00290393743939322
2019-12-12,0.00853866720245398
2019-12-13,0.0000725793178732835
2019-12-16,0.00712236083444829
2019-12-17,0.0003352362291435
2019-12-18,-0.00043239365514826
2019-12-19,0.00444937863116674
2019-12-20,0.00493259595499202
2019-12-23,0.000865768694832955
2019-12-24,-0.000195467316996139
2019-12-26,0.00511506231812643
2019-12-27,0.0000339843180915737
2019-12-30,-0.00579759624342714
2019-12-31,0.00294169057170331
2020-01-02,0.00834389555972058
2020-01-03,-0.0070849093642043
2020-01-06,0.00352714499655721
2020-01-07,-0.00280717488212912
2020-01-08,0.00489047342746134
2020-01-09,0.00663321401158579
2020-01-10,-0.0028592623297472
2020-01-13,0.00695199399768449
2020-01-14,-0.00151568099862038
2020-01-15,0.00186845032938812
2020-01-16,0.00833174756371506
2020-01-17,0.00385472306869014
2020-01-21,-0.00265550033209342
2020-01-22,0.000289034315501908
2020-01-23,0.00114032617456429
2020-01-24,-0.00908328931731403
2020-01-27,-0.0158557523891242
2020-01-28,0.0100033833710092
2020-01-29,-0.000867250177059896
2020-01-30,0.00312945700191544
2020-01-31,-0.0178644433927288
2020-02-03,0.00722842565438162
2020-02-04,0.0148693159121999
2020-02-05,0.0111877785039794
2020-02-06,0.00332015509009619
2020-02-07,-0.00541549090194545
2020-02-10,0.00729969013442038
2020-02-11,0.00168704865337336
2020-02-12,0.00644185305434425
2020-02-13,-0.00163177642953796
2020-02-14,0.00184183618653564
2020-02-18,-0.00292421397233429
2020-02-19,0.00469474820131295
2020-02-20,-0.00382281746544279
2020-02-21,-0.010573809093858
2020-02-24,-0.0340880792896629
2020-02-25,-0.0307479044861516
2020-02-26,-0.00378569720813652
2020-02-27,-0.0451681364089521
2020-02-28,-0.00827246308784326
2020-03-02,0.0450108685172337
2020-03-03,-0.0285104848336568
2020-03-04,0.0413363493631612
2020-03-05,-0.0345107825144237
2020-03-06,-0.0172009435811226
2020-03-09,-0.0790104127293782
2020-03-10,0.0482150521153123
2020-03-11,-0.0501028925775747
2020-03-12,-0.0999448523008027
2020-03-13,0.0888084069520743
2020-03-16,-0.127652197567144
2020-03-17,0.0582263123964882
2020-03-18,-0.0532222720281132
2020-03-19,0.00469676100215471
2020-03-20,-0.0443276241742312
2020-03-23,-0.0297315012174467
2020-03-24,0.0896832326205253
2020-03-25,0.0114689906360027
2020-03-26,0.0605438307735014
2020-03-27,-0.0342678452881732
2020-03-30,0.0329665903222924
2020-03-31,-0.0161423106152276
2020-04-01,-0.045146362775105
2020-04-02,0.0225726569209242
2020-04-03,-0.0152528608280352
2020-04-06,0.0679682444178742
2020-04-07,-0.00160433922440674
2020-04-08,0.0334893710619566
2020-04-09,0.0143834703453385
2020-04-13,-0.0101560592479658
2020-04-14,0.0301145596471541
2020-04-15,-0.0222767329666808
2020-04-16,0.00579983805250542
2020-04-17,0.0264409321012528
2020-04-20,-0.0180428457954158
2020-04-21,-0.0311551150491359
2020-04-22,0.0226713005788091
2020-04-23,-0.000539567743888498
2020-04-24,0.0138220904227859
2020-04-27,0.0146068681015109
2020-04-28,-0.00525616988030327
2020-04-29,0.0262367039774715
2020-04-30,-0.009255143275394
2020-05-01,-0.0284602111160902
2020-05-04,0.00424082247432336
2020-05-05,0.00899993513859926
2020-05-06,-0.00700388021353119
2020-05-07,0.0114389555700061
2020-05-08,0.0167307952648914
2020-05-11,0.000133069169483539
2020-05-12,-0.0207133656987331
2020-05-13,-0.0176169965589517
2020-05-14,0.0114589178040715
2020-05-15,0.00391867514370444
2020-05-18,0.0310152087930647
2020-05-19,-0.0105397478135589
2020-05-20,0.0165139906104338
2020-05-21,-0.00780396808849593
2020-05-22,0.00235094554916782
2020-05-26,0.0122142852362955
2020-05-27,0.0147184473953909
2020-05-28,-0.00211013954139262
2020-05-29,0.00480079384047049
2020-06-01,0.00374421619151829
2020-06-02,0.00817730731914993
2020-06-03,0.013556670869172
2020-06-04,-0.00337438891312094
2020-06-05,0.0258740128237069
2020-06-08,0.0119696564238027
2020-06-09,-0.00782974343818364
2020-06-10,-0.00532725571499187
2020-06-11,-0.0607526930140292
2020-06-12,0.0129762866242858
2020-06-15,0.00827786072026453
2020-06-16,0.0187848527560378
2020-06-17,-0.0036067962329004
2020-06-18,0.00059404351418759
2020-06-19,-0.00566551367644219
2020-06-22,0.00647409323700917
2020-06-23,0.00429816930683315
2020-06-24,-0.0261952656166816
2020-06-25,0.0108998278452002
2020-06-26,-0.0245252042937148
2020-06-29,0.0145788879796515
2020-06-30,0.0152923494923589
2020-07-01,0.00500956386063416
2020-07-02,0.00453097068709281
2020-07-06,0.0157569308506485
2020-07-07,-0.0108774780772658
2020-07-08,0.00779698624953028
2020-07-09,-0.0056595912935096
2020-07-10,0.0104118097002921
2020-07-13,-0.00940664510234578
2020-07-14,0.0133173006354119
2020-07-15,0.00904105691566521
2020-07-16,-0.00341191545178418
2020-07-17,0.00284456255398334
2020-07-20,0.00837179743413603
2020-07-21,0.00167762935369151
2020-07-22,0.0057306306847928
2020-07-23,-0.012396378589135
2020-07-24,-0.00620963993216426
2020-07-27,0.00736792872940946
2020-07-28,-0.00649443551110826
2020-07-29,0.0123517833532921
2020-07-30,-0.00375730154732611
2020-07-31,0.00764123609340401
2020-08-03,0.00715536259362846
2020-08-04,0.00360542322506665
2020-08-05,0.00640916050549521
2020-08-06,0.00640712584714737
2020-08-07,0.000632829214028396
2020-08-10,0.00273846545032061
2020-08-11,-0.00800105561158253
2020-08-12,0.0138995025171661
2020-08-13,-0.00204927267131619
2020-08-14,-0.000171897400893354
2020-08-17,0.00270617733620587
2020-08-18,0.00230074040153849
2020-08-19,-0.00441412315574631
2020-08-20,0.00315365473571871
2020-08-21,0.00343519988154756
2020-08-24,0.00999361531057924
2020-08-25,0.00358989977761192
2020-08-26,0.0101440012645426
2020-08-27,0.00167164621588147
2020-08-28,0.00671000286705689
2020-08-31,-0.00219737512625875
2020-09-01,0.00749683120717265
2020-09-02,0.0152490502718862
2020-09-03,-0.0357575940551487
2020-09-04,-0.00816628085361847
2020-09-08,-0.0281488290718774
2020-09-09,0.0199447606477413
2020-09-10,-0.0177412460654447
2020-09-11,0.000532930368607527
2020-09-14,0.0126613349176922
2020-09-15,0.00520578589843767
2020-09-16,-0.00462964691084741
2020-09-17,-0.00844794938950671
2020-09-18,-0.0112455769282106
2020-09-21,-0.0116385639929155
2020-09-22,0.0104630161661693
2020-09-23,-0.0240073387673671
2020-09-24,0.00298300554970106
2020-09-25,0.0158504392094475
2020-09-28,0.0159821919374689
2020-09-29,-0.00482428271800145
2020-09-30,0.00821984247937402
2020-10-01,0.00527894961513356
2020-10-02,-0.00962381287987831
2020-10-05,0.0178131090664176
2020-10-06,-0.0140720644000408
2020-10-07,0.0172471635631054
2020-10-08,0.00797821297741001
2020-10-09,0.00875509533834635
2020-10-12,0.0162825301209962
2020-10-13,-0.00632689161083368
2020-10-14,-0.00664517215055889
2020-10-15,-0.00152892351864386
2020-10-16,0.000134910541841899
2020-10-19,-0.0164646635950775
2020-10-20,0.00471619522906874
2020-10-21,-0.00219811383886525
2020-10-22,0.00520535381737654
2020-10-23,0.00343983850999506
2020-10-26,-0.0187644730197702
2020-10-27,-0.00303020533174774
2020-10-28,-0.0359255423053256
2020-10-29,0.011876524903306
2020-10-30,-0.0122037132986961
