Date,Close,group
2010-01-05,,MA(14)
2010-01-06,,MA(14)
2010-01-07,,MA(14)
2010-01-08,,MA(14)
2010-01-11,,MA(14)
2010-01-12,,MA(14)
2010-01-13,,MA(14)
2010-01-14,,MA(14)
2010-01-15,,MA(14)
2010-01-19,,MA(14)
2010-01-20,,MA(14)
2010-01-21,,MA(14)
2010-01-22,,MA(14)
2010-01-25,16.2301019311938,MA(14)
2010-01-26,16.274404300791,MA(14)
2010-01-27,16.4022954902295,MA(14)
2010-01-28,17.0711714640266,MA(14)
2010-01-29,17.531959794073,MA(14)
2010-02-01,18.5110000113081,MA(14)
2010-02-02,18.88017002122,MA(14)
2010-02-03,18.6966637202722,MA(14)
2010-02-04,22.9616116681717,MA(14)
2010-02-05,22.5296145753342,MA(14)
2010-02-08,22.2301992453255,MA(14)
2010-02-09,22.4473819438026,MA(14)
2010-02-10,20.9630723737782,MA(14)
2010-02-11,19.1443377833632,MA(14)
2010-02-12,19.0813089657563,MA(14)
2010-02-16,20.4393136973141,MA(14)
2010-02-17,20.4138930008564,MA(14)
2010-02-18,19.9795379930843,MA(14)
2010-02-19,19.5604321201473,MA(14)
2010-02-22,18.6272549740858,MA(14)
2010-02-23,18.5414056619704,MA(14)
2010-02-24,18.8444424270137,MA(14)
2010-02-25,13.3104767065602,MA(14)
2010-02-26,13.2674985395561,MA(14)
2010-03-01,13.4207013324308,MA(14)
2010-03-02,12.2926352495624,MA(14)
2010-03-03,12.2576385334084,MA(14)
2010-03-04,11.6687406664246,MA(14)
2010-03-05,13.0139738658076,MA(14)
2010-03-08,10.6080968123032,MA(14)
2010-03-09,10.4814597327214,MA(14)
2010-03-10,10.2863115671043,MA(14)
2010-03-11,10.385628623771,MA(14)
2010-03-12,10.3766174718955,MA(14)
2010-03-15,9.01297848871648,MA(14)
2010-03-16,8.67446410355842,MA(14)
2010-03-17,8.97153558517022,MA(14)
2010-03-18,8.95294460386645,MA(14)
2010-03-19,8.15822011943767,MA(14)
2010-03-22,8.37863736607054,MA(14)
2010-03-23,8.90426306186496,MA(14)
2010-03-24,9.06757795827324,MA(14)
2010-03-25,6.94172968380241,MA(14)
2010-03-26,6.94832477916541,MA(14)
2010-03-29,7.31377996800974,MA(14)
2010-03-30,7.06063198456713,MA(14)
2010-03-31,6.99046415573008,MA(14)
2010-04-01,7.65512612820121,MA(14)
2010-04-05,8.34864499967199,MA(14)
2010-04-06,7.71251465702032,MA(14)
2010-04-07,7.72459236571843,MA(14)
2010-04-08,7.85345579772625,MA(14)
2010-04-09,8.0596390280337,MA(14)
2010-04-12,7.80394357012919,MA(14)
2010-04-13,7.20195448718573,MA(14)
2010-04-14,8.27075766164234,MA(14)
2010-04-15,8.24697509344773,MA(14)
2010-04-16,10.7292050217806,MA(14)
2010-04-19,10.6308391618803,MA(14)
2010-04-20,11.1587420570854,MA(14)
2010-04-21,11.0807964266059,MA(14)
2010-04-22,10.6749418313143,MA(14)
2010-04-23,10.5743255477739,MA(14)
2010-04-26,10.7061283000073,MA(14)
2010-04-27,14.4353080475623,MA(14)
2010-04-28,14.6206092795702,MA(14)
2010-04-29,15.3417894416966,MA(14)
2010-04-30,16.8861206075421,MA(14)
2010-05-03,17.7594968809957,MA(14)
2010-05-04,19.9347528098833,MA(14)
2010-05-05,20.1262505491264,MA(14)
2010-05-06,23.4737579066637,MA(14)
2010-05-07,24.2874451027071,MA(14)
2010-05-10,30.1510964449727,MA(14)
2010-05-11,30.1822966176622,MA(14)
2010-05-12,30.7133559292729,MA(14)
2010-05-13,30.9996200694381,MA(14)
2010-05-14,31.9685412157266,MA(14)
2010-05-17,30.3685147968814,MA(14)
2010-05-18,30.843802648575,MA(14)
2010-05-19,30.438978594159,MA(14)
2010-05-20,34.0358756867623,MA(14)
2010-05-21,34.1732385707049,MA(14)
2010-05-24,33.0756946005328,MA(14)
2010-05-25,32.9579381577114,MA(14)
2010-05-26,29.980480335018,MA(14)
2010-05-27,32.2983047469473,MA(14)
2010-05-28,27.2058116840661,MA(14)
2010-06-01,28.1357695589293,MA(14)
2010-06-02,29.5739191728325,MA(14)
2010-06-03,29.1697149278421,MA(14)
2010-06-04,31.7099134849123,MA(14)
2010-06-07,32.2249375883212,MA(14)
2010-06-08,31.9878425774009,MA(14)
2010-06-09,32.0131188221687,MA(14)
2010-06-10,29.8933129884805,MA(14)
2010-06-11,29.2798328418197,MA(14)
2010-06-14,28.7706374803012,MA(14)
2010-06-15,30.3978224478131,MA(14)
2010-06-16,30.3039207377744,MA(14)
2010-06-17,27.0513071240809,MA(14)
2010-06-18,26.5404439743795,MA(14)
2010-06-21,25.5642010775033,MA(14)
2010-06-22,24.1692416056274,MA(14)
2010-06-23,24.1418608068777,MA(14)
2010-06-24,20.3750555127921,MA(14)
2010-06-25,19.5819100773346,MA(14)
2010-06-28,19.050249233333,MA(14)
2010-06-29,23.1051993962575,MA(14)
2010-06-30,20.0322953626978,MA(14)
2010-07-01,19.9940917368489,MA(14)
2010-07-02,20.0768768666819,MA(14)
2010-07-06,17.6601722362759,MA(14)
2010-07-07,21.9494228462086,MA(14)
2010-07-08,22.297020142731,MA(14)
2010-07-09,22.4955227643128,MA(14)
2010-07-12,22.4383114631159,MA(14)
2010-07-13,22.3203917027899,MA(14)
2010-07-14,22.2846988286026,MA(14)
2010-07-15,21.1088002884095,MA(14)
2010-07-16,24.4301161327868,MA(14)
2010-07-19,24.5446968504271,MA(14)
2010-07-20,21.1701122891621,MA(14)
2010-07-21,21.4348514045795,MA(14)
2010-07-22,23.3684506512538,MA(14)
2010-07-23,23.5404330127963,MA(14)
2010-07-26,23.8998581993964,MA(14)
2010-07-27,20.036201290134,MA(14)
2010-07-28,19.8592912351908,MA(14)
2010-07-29,19.7051200659217,MA(14)
2010-07-30,19.7027061149407,MA(14)
2010-08-02,20.7687091909671,MA(14)
2010-08-03,20.8677457623052,MA(14)
2010-08-04,21.0168232603892,MA(14)
2010-08-05,17.0085161245306,MA(14)
2010-08-06,16.8936941225926,MA(14)
2010-08-09,16.3622910412135,MA(14)
2010-08-10,15.6330780908116,MA(14)
2010-08-11,17.3716766847718,MA(14)
2010-08-12,17.1756196688923,MA(14)
2010-08-13,16.6057875568524,MA(14)
2010-08-16,16.5999376673143,MA(14)
2010-08-17,17.1221182515249,MA(14)
2010-08-18,17.0428235646497,MA(14)
2010-08-19,18.5082082372846,MA(14)
2010-08-20,16.1314141469093,MA(14)
2010-08-23,16.094145759578,MA(14)
2010-08-24,17.0494727758575,MA(14)
2010-08-25,17.0974435179466,MA(14)
2010-08-26,17.3346706359472,MA(14)
2010-08-27,18.5331479591124,MA(14)
2010-08-30,19.3996434542988,MA(14)
2010-08-31,15.1815212360196,MA(14)
2010-09-01,19.3976596138236,MA(14)
2010-09-02,19.696681800485,MA(14)
2010-09-03,20.4634569237546,MA(14)
2010-09-07,20.4034009372413,MA(14)
2010-09-08,20.5733410124205,MA(14)
2010-09-09,19.3730604025051,MA(14)
2010-09-10,19.4194169179198,MA(14)
2010-09-13,19.9014190720897,MA(14)
2010-09-14,18.9207596368835,MA(14)
2010-09-15,18.9288325014689,MA(14)
2010-09-16,18.6466375963042,MA(14)
2010-09-17,17.3058669941091,MA(14)
2010-09-20,17.346989157433,MA(14)
2010-09-21,17.380096485698,MA(14)
2010-09-22,12.4603865824011,MA(14)
2010-09-23,12.3760853088039,MA(14)
2010-09-24,14.1745581858123,MA(14)
2010-09-27,13.5246496427778,MA(14)
2010-09-28,13.4067652313104,MA(14)
2010-09-29,13.2962586017844,MA(14)
2010-09-30,13.2019209911926,MA(14)
2010-10-01,12.4851454509919,MA(14)
2010-10-04,12.938697658049,MA(14)
2010-10-05,15.5338753425565,MA(14)
2010-10-06,15.535709352707,MA(14)
2010-10-07,15.5473852419457,MA(14)
2010-10-08,14.4112123005973,MA(14)
2010-10-11,14.3704507764532,MA(14)
2010-10-12,14.3152289220971,MA(14)
2010-10-13,14.1921794599089,MA(14)
2010-10-14,11.1913990575865,MA(14)
2010-10-15,10.9641062797145,MA(14)
2010-10-18,11.195237563342,MA(14)
2010-10-19,13.0336206952325,MA(14)
2010-10-20,13.7019579794497,MA(14)
2010-10-21,13.5954726030004,MA(14)
2010-10-22,13.1996937276371,MA(14)
2010-10-25,9.94638457253766,MA(14)
2010-10-26,9.94232979341387,MA(14)
2010-10-27,9.98304666474136,MA(14)
2010-10-28,9.6557959556904,MA(14)
2010-10-29,9.65738436397914,MA(14)
2010-11-01,9.53051558294158,MA(14)
2010-11-02,9.61810542897787,MA(14)
2010-11-03,9.61968671293019,MA(14)
2010-11-04,12.5277973057737,MA(14)
2010-11-05,12.2629635316013,MA(14)
2010-11-08,10.2686147649233,MA(14)
2010-11-09,9.87649393344835,MA(14)
2010-11-10,10.0194291758462,MA(14)
2010-11-11,10.129126250976,MA(14)
2010-11-12,11.2683262433476,MA(14)
2010-11-15,11.28007613316,MA(14)
2010-11-16,13.1761504861907,MA(14)
2010-11-17,13.1678885153518,MA(14)
2010-11-18,14.6573039237281,MA(14)
2010-11-19,14.6910248847329,MA(14)
2010-11-22,14.3388200056285,MA(14)
2010-11-23,15.4969930944208,MA(14)
2010-11-24,14.6355192645934,MA(14)
2010-11-26,14.882769426866,MA(14)
2010-11-29,14.8671382467629,MA(14)
2010-11-30,14.6962398688945,MA(14)
2010-12-01,17.1537479640902,MA(14)
2010-12-02,17.8883812638786,MA(14)
2010-12-03,17.2047625733722,MA(14)
2010-12-06,17.2058194461859,MA(14)
2010-12-07,15.7613623196079,MA(14)
2010-12-08,15.8382589858943,MA(14)
2010-12-09,14.56020324836,MA(14)
2010-12-10,14.7391901750375,MA(14)
2010-12-13,14.7241390252486,MA(14)
2010-12-14,13.4159014446032,MA(14)
2010-12-15,12.0629443610129,MA(14)
2010-12-16,11.9276325264434,MA(14)
2010-12-17,11.9186147936567,MA(14)
2010-12-20,11.687172872464,MA(14)
2010-12-21,7.8337700033186,MA(14)
2010-12-22,5.86773452573156,MA(14)
2010-12-23,5.80576611040575,MA(14)
2010-12-27,5.78554704091799,MA(14)
2010-12-28,5.79062692158325,MA(14)
2010-12-29,5.59241337247189,MA(14)
2010-12-30,5.39027695656047,MA(14)
2010-12-31,4.76108069828016,MA(14)
2011-01-03,6.72853010886788,MA(14)
2011-01-04,6.7404266683544,MA(14)
2011-01-05,6.72148733893354,MA(14)
2011-01-06,6.26063963547604,MA(14)
2011-01-07,6.29916750919612,MA(14)
2011-01-10,6.23390151560314,MA(14)
2011-01-11,5.9055896326884,MA(14)
2011-01-12,6.8704110924221,MA(14)
2011-01-13,6.87331370435642,MA(14)
2011-01-14,7.53934898314691,MA(14)
2011-01-18,7.55469823508379,MA(14)
2011-01-19,8.6804925631023,MA(14)
2011-01-20,8.67432850272234,MA(14)
2011-01-21,8.73356647297809,MA(14)
2011-01-24,7.72766184746734,MA(14)
2011-01-25,7.70849298375727,MA(14)
2011-01-26,7.62457483049296,MA(14)
2011-01-27,7.63053408053573,MA(14)
2011-01-28,10.7499829745988,MA(14)
2011-01-31,11.208407963899,MA(14)
2011-02-01,13.1188814770993,MA(14)
2011-02-02,12.6124157368963,MA(14)
2011-02-03,12.6307910447899,MA(14)
2011-02-04,12.3025120639242,MA(14)
2011-02-07,12.566795317935,MA(14)
2011-02-08,11.9406583784261,MA(14)
2011-02-09,11.9862069204265,MA(14)
2011-02-10,11.9470365410517,MA(14)
2011-02-11,11.9193564522947,MA(14)
2011-02-14,11.9612682944929,MA(14)
2011-02-15,11.9070830748281,MA(14)
2011-02-16,12.1585255283771,MA(14)
2011-02-17,9.56911182885185,MA(14)
2011-02-18,9.0456151410766,MA(14)
2011-02-22,10.4740708114921,MA(14)
2011-02-23,10.7280325853931,MA(14)
2011-02-24,10.6901854039872,MA(14)
2011-02-25,11.5094956922839,MA(14)
2011-02-28,11.4477070536019,MA(14)
2011-03-01,13.1484293385933,MA(14)
2011-03-02,13.1132238990696,MA(14)
2011-03-03,14.9634310890973,MA(14)
2011-03-04,15.1099469584411,MA(14)
2011-03-07,15.4863155678487,MA(14)
2011-03-08,15.8758429735484,MA(14)
2011-03-09,15.6660590421934,MA(14)
2011-03-10,17.5657068499542,MA(14)
2011-03-11,17.7984061887163,MA(14)
2011-03-14,15.7012518114481,MA(14)
2011-03-15,16.2010025106851,MA(14)
2011-03-16,18.2074017054907,MA(14)
2011-03-17,18.5329793521521,MA(14)
2011-03-18,18.4738373142131,MA(14)
2011-03-21,18.3261367987723,MA(14)
2011-03-22,18.3750198720989,MA(14)
2011-03-23,16.9441843511404,MA(14)
2011-03-24,17.1098961745564,MA(14)
2011-03-25,16.792814042199,MA(14)
2011-03-28,16.4091276474875,MA(14)
2011-03-29,16.6663201143481,MA(14)
2011-03-30,14.8620319792971,MA(14)
2011-03-31,14.5804430445898,MA(14)
2011-04-01,14.5048809884194,MA(14)
2011-04-04,13.7024795338982,MA(14)
2011-04-05,10.8880667110265,MA(14)
2011-04-06,9.36846405641176,MA(14)
2011-04-07,9.21293074898682,MA(14)
2011-04-08,6.94572831684377,MA(14)
2011-04-11,6.88340375631199,MA(14)
2011-04-12,7.53348630726501,MA(14)
2011-04-13,6.42836611279822,MA(14)
2011-04-14,6.28858801090719,MA(14)
2011-04-15,6.39805621483062,MA(14)
2011-04-18,7.34951752339523,MA(14)
2011-04-19,7.20561438913206,MA(14)
2011-04-20,9.13802069453175,MA(14)
2011-04-21,9.16912342208485,MA(14)
2011-04-25,9.19267304446604,MA(14)
2011-04-26,9.93830703720114,MA(14)
2011-04-27,10.2397292112348,MA(14)
2011-04-28,10.3289970586256,MA(14)
2011-04-29,10.2350473125777,MA(14)
2011-05-02,10.193548818311,MA(14)
2011-05-03,9.75041128699229,MA(14)
2011-05-04,10.1741812048079,MA(14)
2011-05-05,10.8782668454322,MA(14)
2011-05-06,10.8715972240968,MA(14)
2011-05-09,9.99718617577315,MA(14)
2011-05-10,10.2790827043463,MA(14)
2011-05-11,9.78637277971752,MA(14)
2011-05-12,9.75118687367567,MA(14)
2011-05-13,10.312524652898,MA(14)
2011-05-16,9.94960158266154,MA(14)
2011-05-17,9.59620117745045,MA(14)
2011-05-18,10.1763152353291,MA(14)
2011-05-19,10.1715079587313,MA(14)
2011-05-20,10.655844794973,MA(14)
2011-05-23,11.7133876938398,MA(14)
2011-05-24,11.3523517783236,MA(14)
2011-05-25,10.7636219854835,MA(14)
2011-05-26,10.7721569870281,MA(14)
2011-05-27,10.739202818405,MA(14)
2011-05-31,11.1179693542725,MA(14)
2011-06-01,14.0062557145279,MA(14)
2011-06-02,13.8630718981905,MA(14)
2011-06-03,14.0553847946668,MA(14)
2011-06-06,14.5443111315234,MA(14)
2011-06-07,14.5490968497958,MA(14)
2011-06-08,14.1809758058915,MA(14)
2011-06-09,14.488023471768,MA(14)
2011-06-10,15.3185949925226,MA(14)
2011-06-13,14.4580979300971,MA(14)
2011-06-14,15.3936079641009,MA(14)
2011-06-15,17.0406319809065,MA(14)
2011-06-16,16.975046331431,MA(14)
2011-06-17,16.9363834867599,MA(14)
2011-06-20,16.4980151333725,MA(14)
2011-06-21,14.4593819697571,MA(14)
2011-06-22,14.7080146927163,MA(14)
2011-06-23,14.165895214089,MA(14)
2011-06-24,14.3044077397016,MA(14)
2011-06-27,14.8114364951882,MA(14)
2011-06-28,15.6771540720294,MA(14)
2011-06-29,15.7567510160807,MA(14)
2011-06-30,15.1981528396593,MA(14)
2011-07-01,16.3540575976551,MA(14)
2011-07-05,15.4830723414148,MA(14)
2011-07-06,13.5897337168901,MA(14)
2011-07-07,14.2634138163182,MA(14)
2011-07-08,14.5088920241101,MA(14)
2011-07-11,16.2743243097773,MA(14)
2011-07-12,15.3827565858444,MA(14)
2011-07-13,15.1929659455689,MA(14)
2011-07-14,15.411138171897,MA(14)
2011-07-15,14.7695094828799,MA(14)
2011-07-18,14.6666872936661,MA(14)
2011-07-19,15.2415839557045,MA(14)
2011-07-20,14.840360644811,MA(14)
2011-07-21,15.3121991779023,MA(14)
2011-07-22,14.0733552338774,MA(14)
2011-07-25,14.2638948534594,MA(14)
2011-07-26,14.3631896306949,MA(14)
2011-07-27,16.1914466786757,MA(14)
2011-07-28,15.9788271365718,MA(14)
2011-07-29,14.2578303397117,MA(14)
2011-08-01,14.241559301634,MA(14)
2011-08-02,17.9106038538085,MA(14)
2011-08-03,17.8087196123744,MA(14)
2011-08-04,27.2112235971904,MA(14)
2011-08-05,26.992783707367,MA(14)
2011-08-08,39.128393578199,MA(14)
2011-08-09,43.7497543457647,MA(14)
2011-08-10,47.3903279186868,MA(14)
2011-08-11,51.1012906269759,MA(14)
2011-08-12,51.0934553848494,MA(14)
2011-08-15,51.8695896488007,MA(14)
2011-08-16,51.3067428323746,MA(14)
2011-08-17,51.2900412290145,MA(14)
2011-08-18,54.7248309692319,MA(14)
2011-08-19,55.0689031355949,MA(14)
2011-08-22,53.9713910504401,MA(14)
2011-08-23,55.7796226695901,MA(14)
2011-08-24,52.085765827831,MA(14)
2011-08-25,52.5053939152821,MA(14)
2011-08-26,44.1348738070718,MA(14)
2011-08-29,41.275587926316,MA(14)
2011-08-30,36.6131676115693,MA(14)
2011-08-31,31.2919020382641,MA(14)
2011-09-01,31.6185629478077,MA(14)
2011-09-02,32.1541854614254,MA(14)
2011-09-06,32.0427573413256,MA(14)
2011-09-07,34.1910374407334,MA(14)
2011-09-08,28.5960787460909,MA(14)
2011-09-09,30.1286804498116,MA(14)
2011-09-12,30.2709436695699,MA(14)
2011-09-13,26.9837601421914,MA(14)
2011-09-14,27.0147912647852,MA(14)
2011-09-15,27.1607649797934,MA(14)
2011-09-16,26.5191607625253,MA(14)
2011-09-19,24.1188176240054,MA(14)
2011-09-20,24.1087015224617,MA(14)
2011-09-21,27.1262465079873,MA(14)
2011-09-22,29.964154227509,MA(14)
2011-09-23,28.0592829058063,MA(14)
2011-09-26,29.5363938463883,MA(14)
2011-09-27,27.3885749234321,MA(14)
2011-09-28,28.4230729314395,MA(14)
2011-09-29,26.2429628366236,MA(14)
2011-09-30,28.1835327917641,MA(14)
2011-10-03,30.4690383116639,MA(14)
2011-10-04,31.3793890185901,MA(14)
2011-10-05,31.445255841256,MA(14)
2011-10-06,32.2764694805351,MA(14)
2011-10-07,32.1937805271796,MA(14)
2011-10-10,35.1712112188783,MA(14)
2011-10-11,32.8353208829708,MA(14)
2011-10-12,30.1270292654116,MA(14)
2011-10-13,30.0442357906262,MA(14)
2011-10-14,29.336855769282,MA(14)
2011-10-17,30.1460879097309,MA(14)
2011-10-18,30.0613057790409,MA(14)
2011-10-19,30.3472688332666,MA(14)
2011-10-20,28.4678879283712,MA(14)
2011-10-21,26.9008645038687,MA(14)
2011-10-24,25.778917326673,MA(14)
2011-10-25,26.110751600571,MA(14)
2011-10-26,25.3503549022918,MA(14)
2011-10-27,28.8728975024875,MA(14)
2011-10-28,25.1516037637422,MA(14)
2011-10-31,27.2872130518113,MA(14)
2011-11-01,29.5135236988081,MA(14)
2011-11-02,30.2496881360553,MA(14)
2011-11-03,30.394964887222,MA(14)
2011-11-04,29.3704125443801,MA(14)
2011-11-07,28.2258090058507,MA(14)
2011-11-08,28.1436909118292,MA(14)
2011-11-09,32.2174386209403,MA(14)
2011-11-10,31.4503756543269,MA(14)
2011-11-11,32.0371716746881,MA(14)
2011-11-14,31.1385684476724,MA(14)
2011-11-15,30.8887748008351,MA(14)
2011-11-16,28.3063601921588,MA(14)
2011-11-17,29.1973055216713,MA(14)
2011-11-18,27.211557015415,MA(14)
2011-11-21,25.6968277483959,MA(14)
2011-11-22,24.8560305054184,MA(14)
2011-11-23,25.3995567203883,MA(14)
2011-11-25,25.2852071808764,MA(14)
2011-11-28,27.939922321157,MA(14)
2011-11-29,27.5173424308517,MA(14)
2011-11-30,28.7871828282302,MA(14)
2011-12-01,28.5689657197299,MA(14)
2011-12-02,27.3811395902599,MA(14)
2011-12-05,27.4223918590926,MA(14)
2011-12-06,27.3510837202238,MA(14)
2011-12-07,26.4324162700315,MA(14)
2011-12-08,26.9990917255042,MA(14)
2011-12-09,27.910180801424,MA(14)
2011-12-12,27.495797355741,MA(14)
2011-12-13,27.6863659446406,MA(14)
2011-12-14,26.4698251016967,MA(14)
2011-12-15,26.4807933083051,MA(14)
2011-12-16,23.5529698129624,MA(14)
2011-12-19,24.0570742862747,MA(14)
2011-12-20,20.2953148070576,MA(14)
2011-12-21,20.295945148536,MA(14)
2011-12-22,20.5916199638281,MA(14)
2011-12-23,20.4879729182642,MA(14)
2011-12-27,20.4826769982533,MA(14)
2011-12-28,21.1416338486537,MA(14)
2011-12-29,19.6388738603462,MA(14)
2011-12-30,18.4101320782866,MA(14)
2012-01-03,18.4585596942235,MA(14)
2012-01-04,18.086849638225,MA(14)
2012-01-05,17.4761513567497,MA(14)
2012-01-06,17.4555440340306,MA(14)
2012-01-09,17.4288888233698,MA(14)
2012-01-10,17.1133804805853,MA(14)
2012-01-11,11.7748578212916,MA(14)
2012-01-12,11.7873917353093,MA(14)
2012-01-13,11.4558418501053,MA(14)
2012-01-17,10.9103607936397,MA(14)
2012-01-18,11.8670050376798,MA(14)
2012-01-19,10.8168940250878,MA(14)
2012-01-20,9.84024898799104,MA(14)
2012-01-23,9.67302906470862,MA(14)
2012-01-24,7.18679909745813,MA(14)
2012-01-25,8.06097349552227,MA(14)
2012-01-26,8.32962421188967,MA(14)
2012-01-27,8.28759344536724,MA(14)
2012-01-30,8.30130641750164,MA(14)
2012-01-31,7.41443293863601,MA(14)
2012-02-01,8.30513353317314,MA(14)
2012-02-02,8.25932789816354,MA(14)
2012-02-03,10.0680790059477,MA(14)
2012-02-06,9.95751482096539,MA(14)
2012-02-07,8.8368974356768,MA(14)
2012-02-08,8.6364495986003,MA(14)
2012-02-09,8.65423297739728,MA(14)
2012-02-10,9.13142065035897,MA(14)
2012-02-13,9.56013472475065,MA(14)
2012-02-14,8.84411852474914,MA(14)
2012-02-15,8.80198980356857,MA(14)
2012-02-16,9.92433952899356,MA(14)
2012-02-17,9.91648554797011,MA(14)
2012-02-21,9.91926750565699,MA(14)
2012-02-22,9.29366469494996,MA(14)
2012-02-23,9.45533343335545,MA(14)
2012-02-24,7.23592617207209,MA(14)
2012-02-27,7.25628936681034,MA(14)
2012-02-28,7.34363662181175,MA(14)
2012-02-29,7.55801080410579,MA(14)
2012-03-01,7.96657293833779,MA(14)
2012-03-02,7.53836179639338,MA(14)
2012-03-05,7.16309079344851,MA(14)
2012-03-06,9.69514368939914,MA(14)
2012-03-07,9.86093408199105,MA(14)
2012-03-08,9.63390144545412,MA(14)
2012-03-09,9.70439181235772,MA(14)
2012-03-12,9.69986249519051,MA(14)
2012-03-13,12.2371295661439,MA(14)
2012-03-14,12.1143769061602,MA(14)
2012-03-15,12.3523418433973,MA(14)
2012-03-16,12.3481437065966,MA(14)
2012-03-19,12.3806509831713,MA(14)
2012-03-20,12.2827935072695,MA(14)
2012-03-21,12.0317585037921,MA(14)
2012-03-22,12.3376294797526,MA(14)
2012-03-23,12.2985054346774,MA(14)
2012-03-26,11.9318428918205,MA(14)
2012-03-27,11.6337737237831,MA(14)
2012-03-28,11.0761660311861,MA(14)
2012-03-29,10.9908037006172,MA(14)
2012-03-30,11.1007541587963,MA(14)
2012-04-02,8.69194988462348,MA(14)
2012-04-03,8.8400479548701,MA(14)
2012-04-04,9.51866104482872,MA(14)
2012-04-05,9.51063105609748,MA(14)
2012-04-09,10.5330922844924,MA(14)
2012-04-10,12.7412917928417,MA(14)
2012-04-11,13.0976721762288,MA(14)
2012-04-12,13.9875667598896,MA(14)
2012-04-13,14.9020960993692,MA(14)
2012-04-16,13.7170851403151,MA(14)
2012-04-17,15.1298270554127,MA(14)
2012-04-18,15.0823803758141,MA(14)
2012-04-19,15.27553781191,MA(14)
2012-04-20,15.2036948104407,MA(14)
2012-04-23,15.2937855428165,MA(14)
2012-04-24,15.2792896649155,MA(14)
2012-04-25,15.7313377964381,MA(14)
2012-04-26,15.978737660315,MA(14)
2012-04-27,15.2661641517346,MA(14)
2012-04-30,13.5185940850602,MA(14)
2012-05-01,13.3642306494796,MA(14)
2012-05-02,12.0943912625289,MA(14)
2012-05-03,11.3441087846982,MA(14)
2012-05-04,13.2652152979348,MA(14)
2012-05-07,11.5677918550938,MA(14)
2012-05-08,11.5822424620466,MA(14)
2012-05-09,11.6575145161377,MA(14)
2012-05-10,11.6954101566071,MA(14)
2012-05-11,11.2298197615746,MA(14)
2012-05-14,12.0830515243664,MA(14)
2012-05-15,10.914768183452,MA(14)
2012-05-16,10.7095681754325,MA(14)
2012-05-17,12.4389772513594,MA(14)
2012-05-18,12.7217650560401,MA(14)
2012-05-21,14.1898584298795,MA(14)
2012-05-22,14.1519751535906,MA(14)
2012-05-23,13.7925450369507,MA(14)
2012-05-24,11.9687707513304,MA(14)
2012-05-25,12.0028681762641,MA(14)
2012-05-29,12.7461296263215,MA(14)
2012-05-30,13.8425335048544,MA(14)
2012-05-31,13.835266146157,MA(14)
2012-06-01,17.3358411639197,MA(14)
2012-06-04,16.680321600795,MA(14)
2012-06-05,16.677134372054,MA(14)
2012-06-06,19.167091936243,MA(14)
2012-06-07,18.0639905580445,MA(14)
2012-06-08,18.1149483430228,MA(14)
2012-06-11,17.6567576562947,MA(14)
2012-06-12,18.3215360290357,MA(14)
2012-06-13,18.5482554686382,MA(14)
2012-06-14,19.0882069052583,MA(14)
2012-06-15,19.5552780930044,MA(14)
2012-06-18,19.0027092968834,MA(14)
2012-06-19,18.4638311616019,MA(14)
2012-06-20,18.4524810336195,MA(14)
2012-06-21,17.8837720398941,MA(14)
2012-06-22,18.1370779560986,MA(14)
2012-06-25,19.2177801826092,MA(14)
2012-06-26,16.7523831058906,MA(14)
2012-06-27,17.1734579776651,MA(14)
2012-06-28,16.8541336192356,MA(14)
2012-06-29,19.0644279011219,MA(14)
2012-07-02,18.4545385136912,MA(14)
2012-07-03,18.4008722463204,MA(14)
2012-07-05,17.9407908365186,MA(14)
2012-07-06,17.8612136385727,MA(14)
2012-07-09,17.8642421829633,MA(14)
2012-07-10,17.7195166405661,MA(14)
2012-07-11,17.7051583064843,MA(14)
2012-07-12,15.0807229784655,MA(14)
2012-07-13,16.3129537639016,MA(14)
2012-07-16,14.8619792554953,MA(14)
2012-07-17,15.0519798444303,MA(14)
2012-07-18,14.8388441026922,MA(14)
2012-07-19,14.8562950057356,MA(14)
2012-07-20,11.4357697052681,MA(14)
2012-07-23,12.0000080728183,MA(14)
2012-07-24,12.3222083828339,MA(14)
2012-07-25,12.1619512843103,MA(14)
2012-07-26,13.4139948760188,MA(14)
2012-07-27,15.5964055659902,MA(14)
2012-07-30,15.2118993418279,MA(14)
2012-07-31,15.3213558230945,MA(14)
2012-08-01,15.224537780864,MA(14)
2012-08-02,13.932203696905,MA(14)
2012-08-03,16.0210519823592,MA(14)
2012-08-06,15.7451166297958,MA(14)
2012-08-07,15.6405066219817,MA(14)
2012-08-08,15.6006242274785,MA(14)
2012-08-09,15.0049458031496,MA(14)
2012-08-10,14.5499486492287,MA(14)
2012-08-13,14.0446432068817,MA(14)
2012-08-14,14.0441211598151,MA(14)
2012-08-15,12.2232260143284,MA(14)
2012-08-16,9.72387910384258,MA(14)
2012-08-17,9.75380881379825,MA(14)
2012-08-20,9.58095840708465,MA(14)
2012-08-21,9.61668957956903,MA(14)
2012-08-22,9.07520953415564,MA(14)
2012-08-23,5.52842699256697,MA(14)
2012-08-24,6.08186636675879,MA(14)
2012-08-27,5.69197083538175,MA(14)
2012-08-28,5.69618103800098,MA(14)
2012-08-29,5.70465877742282,MA(14)
2012-08-30,6.5311390773709,MA(14)
2012-08-31,6.85189613708066,MA(14)
2012-09-04,6.86939532814474,MA(14)
2012-09-05,6.86736503404039,MA(14)
2012-09-06,10.5498181687596,MA(14)
2012-09-07,10.6579136298187,MA(14)
2012-09-10,10.971874213326,MA(14)
2012-09-11,10.9516867563691,MA(14)
2012-09-12,10.9868415345531,MA(14)
2012-09-13,12.4787109434833,MA(14)
2012-09-14,12.2928357218141,MA(14)
2012-09-17,12.3620413842743,MA(14)
2012-09-18,12.3691625028505,MA(14)
2012-09-19,12.3741533944869,MA(14)
2012-09-20,11.9250118452811,MA(14)
2012-09-21,11.7317517739532,MA(14)
2012-09-24,11.7593826052153,MA(14)
2012-09-25,12.5691132114571,MA(14)
2012-09-26,9.52973134366265,MA(14)
2012-09-27,10.215924502046,MA(14)
2012-09-28,10.0583615017048,MA(14)
2012-10-01,10.0336062503918,MA(14)
2012-10-02,10.0014305452148,MA(14)
2012-10-03,7.45840708353889,MA(14)
2012-10-04,7.87185378608811,MA(14)
2012-10-05,7.76115808992065,MA(14)
2012-10-08,7.87933274221796,MA(14)
2012-10-09,8.91500648516539,MA(14)
2012-10-10,9.29007314403773,MA(14)
2012-10-11,9.29038545465334,MA(14)
2012-10-12,9.32710442038453,MA(14)
2012-10-15,8.86850804395481,MA(14)
2012-10-16,9.55940968078909,MA(14)
2012-10-17,8.82780935104456,MA(14)
2012-10-18,8.6834740162049,MA(14)
2012-10-19,11.13610836346,MA(14)
2012-10-22,11.1315608199395,MA(14)
2012-10-23,12.6243569043818,MA(14)
2012-10-24,12.3269446380956,MA(14)
2012-10-25,12.3908302581612,MA(14)
2012-10-26,12.3079846514571,MA(14)
2012-10-31,11.5692124408581,MA(14)
2012-11-01,12.1677830584041,MA(14)
2012-11-02,12.8025945344395,MA(14)
2012-11-05,12.7736042880045,MA(14)
2012-11-06,12.7488505347234,MA(14)
2012-11-07,15.7056107521655,MA(14)
2012-11-08,16.4493100199968,MA(14)
2012-11-09,16.4324434435757,MA(14)
2012-11-12,14.8379892790467,MA(14)
2012-11-13,14.9324858505005,MA(14)
2012-11-14,14.8298317496384,MA(14)
2012-11-15,14.7875930810157,MA(14)
2012-11-16,14.8740789539857,MA(14)
2012-11-19,17.0357186215714,MA(14)
2012-11-20,17.0378961287607,MA(14)
2012-11-21,16.4365551030712,MA(14)
2012-11-23,16.8586139840999,MA(14)
2012-11-26,16.8557306088808,MA(14)
2012-11-27,16.6760986715481,MA(14)
2012-11-28,13.6474039311807,MA(14)
2012-11-29,12.7501030239421,MA(14)
2012-11-30,12.7300996941224,MA(14)
2012-12-03,12.8876872676604,MA(14)
2012-12-04,12.7971764351834,MA(14)
2012-12-05,11.378520531126,MA(14)
2012-12-06,11.4438859612741,MA(14)
2012-12-07,11.3277852501738,MA(14)
2012-12-10,7.69848889217413,MA(14)
2012-12-11,8.17293628613037,MA(14)
2012-12-12,8.11626040010669,MA(14)
2012-12-13,6.56841093431022,MA(14)
2012-12-14,6.74340260467052,MA(14)
2012-12-17,8.08931210046976,MA(14)
2012-12-18,8.82017483278366,MA(14)
2012-12-19,9.21507435231891,MA(14)
2012-12-20,9.50062966033701,MA(14)
2012-12-21,10.1033446039707,MA(14)
2012-12-24,10.1301843077494,MA(14)
2012-12-26,10.309476606961,MA(14)
2012-12-27,10.227646687635,MA(14)
2012-12-28,11.1862794392935,MA(14)
2012-12-31,13.2481148402084,MA(14)
2013-01-02,16.7416014505144,MA(14)
2013-01-03,16.7637624105552,MA(14)
2013-01-04,16.6747934224211,MA(14)
2013-01-07,16.6351864078402,MA(14)
2013-01-08,15.9293962343554,MA(14)
2013-01-09,15.2219717434011,MA(14)
2013-01-10,15.2175665143997,MA(14)
2013-01-11,15.0407995152892,MA(14)
2013-01-14,14.5094717479332,MA(14)
2013-01-15,14.4805384289564,MA(14)
2013-01-16,14.3380760227946,MA(14)
2013-01-17,14.5247803640732,MA(14)
2013-01-18,13.8196708740904,MA(14)
2013-01-22,12.0028810304511,MA(14)
2013-01-23,5.66541974401961,MA(14)
2013-01-24,5.59630372961299,MA(14)
2013-01-25,5.69025360535931,MA(14)
2013-01-28,5.58961658551189,MA(14)
2013-01-29,5.83029157442215,MA(14)
2013-01-30,5.95501741540444,MA(14)
2013-01-31,5.13897366693782,MA(14)
2013-02-01,6.65392876029533,MA(14)
2013-02-04,8.25667583860916,MA(14)
2013-02-05,9.33387439614632,MA(14)
2013-02-06,9.33638626532626,MA(14)
2013-02-07,9.06073713234129,MA(14)
2013-02-08,9.25851065597324,MA(14)
2013-02-11,9.07191556452459,MA(14)
2013-02-12,9.07458996519784,MA(14)
2013-02-13,9.07803814671325,MA(14)
2013-02-14,8.78802399422527,MA(14)
2013-02-15,8.76427761413359,MA(14)
2013-02-19,9.0400230179851,MA(14)
2013-02-20,10.3351847505116,MA(14)
2013-02-21,10.6197495090366,MA(14)
2013-02-22,10.4180394488392,MA(14)
2013-02-25,12.0607637948041,MA(14)
2013-02-26,11.5287060974137,MA(14)
2013-02-27,12.7048517614296,MA(14)
2013-02-28,12.6871431367283,MA(14)
2013-03-01,12.4996560152857,MA(14)
2013-03-04,12.6473134204023,MA(14)
2013-03-05,13.2546856634804,MA(14)
2013-03-06,13.2602372948455,MA(14)
2013-03-07,13.2791913006546,MA(14)
2013-03-08,13.4056518964062,MA(14)
2013-03-11,13.1167501066252,MA(14)
2013-03-12,12.0525009883855,MA(14)
2013-03-13,11.7656858790624,MA(14)
2013-03-14,11.4185598397049,MA(14)
2013-03-15,8.35899525948319,MA(14)
2013-03-18,8.28855535073583,MA(14)
2013-03-19,6.41830576578072,MA(14)
2013-03-20,7.00128260725569,MA(14)
2013-03-21,7.77224923116299,MA(14)
2013-03-22,8.10892311661966,MA(14)
2013-03-25,7.18105494109484,MA(14)
2013-03-26,7.88016100195495,MA(14)
2013-03-27,7.84669574679422,MA(14)
2013-03-28,7.80561394299113,MA(14)
2013-04-01,7.91444280197253,MA(14)
2013-04-02,8.14599077348841,MA(14)
2013-04-03,9.28017178494022,MA(14)
2013-04-04,9.13574466784998,MA(14)
2013-04-05,9.28985862061409,MA(14)
2013-04-08,9.37542282314546,MA(14)
2013-04-09,9.4383989891469,MA(14)
2013-04-10,10.3604076129231,MA(14)
2013-04-11,9.86059658703065,MA(14)
2013-04-12,9.46292264214661,MA(14)
2013-04-15,13.562645622577,MA(14)
2013-04-16,14.4652320063057,MA(14)
2013-04-17,15.6962057107567,MA(14)
2013-04-18,15.8592754019793,MA(14)
2013-04-19,16.1797300751375,MA(14)
2013-04-22,16.1521993810508,MA(14)
2013-04-23,16.1247276968013,MA(14)
2013-04-24,16.0340848355244,MA(14)
2013-04-25,16.0212050779523,MA(14)
2013-04-26,15.8188773938123,MA(14)
2013-04-29,16.0361129562738,MA(14)
2013-04-30,15.2330362178913,MA(14)
2013-05-01,15.665763569976,MA(14)
2013-05-02,16.113131669996,MA(14)
2013-05-03,13.522082211298,MA(14)
2013-05-06,12.1432545493837,MA(14)
2013-05-07,10.7297887524584,MA(14)
2013-05-08,10.492973774564,MA(14)
2013-05-09,9.9338951552065,MA(14)
2013-05-10,9.90659152960018,MA(14)
2013-05-13,8.8856751281634,MA(14)
2013-05-14,9.85591586931966,MA(14)
2013-05-15,9.94436725263536,MA(14)
2013-05-16,10.1384226477189,MA(14)
2013-05-17,10.6011284306916,MA(14)
2013-05-20,10.5533646844262,MA(14)
2013-05-21,9.81255671352122,MA(14)
2013-05-22,9.64126759221909,MA(14)
2013-05-23,8.65298491229438,MA(14)
2013-05-24,8.61857122662094,MA(14)
2013-05-28,8.74957090086265,MA(14)
2013-05-29,9.07973640604395,MA(14)
2013-05-30,9.07754446193072,MA(14)
2013-05-31,10.7779418919944,MA(14)
2013-06-03,11.0642980298999,MA(14)
2013-06-04,10.4731991817289,MA(14)
2013-06-05,11.8077003878566,MA(14)
2013-06-06,12.1524248301337,MA(14)
2013-06-07,12.568148995043,MA(14)
2013-06-10,12.5654437595465,MA(14)
2013-06-11,13.2649647195972,MA(14)
2013-06-12,13.2758386714261,MA(14)
2013-06-13,14.6006441162909,MA(14)
2013-06-14,14.8103215453864,MA(14)
2013-06-17,14.9117378416734,MA(14)
2013-06-18,14.9727234540898,MA(14)
2013-06-19,16.0164796206593,MA(14)
2013-06-20,18.2757599254209,MA(14)
2013-06-21,18.1388485945084,MA(14)
2013-06-24,18.714373830001,MA(14)
2013-06-25,18.215444380239,MA(14)
2013-06-26,18.3113876107713,MA(14)
2013-06-27,17.6946287090478,MA(14)
2013-06-28,17.7870268888126,MA(14)
2013-07-01,17.4059445778455,MA(14)
2013-07-02,17.0412917272116,MA(14)
2013-07-03,15.8765494078256,MA(14)
2013-07-05,16.2554831045917,MA(14)
2013-07-08,16.0931887015964,MA(14)
2013-07-09,16.0468523333527,MA(14)
2013-07-10,14.9253265634004,MA(14)
2013-07-11,11.8563958945133,MA(14)
2013-07-12,11.8743678310373,MA(14)
2013-07-15,10.7086258856959,MA(14)
2013-07-16,10.0590693588199,MA(14)
2013-07-17,9.28907129588139,MA(14)
2013-07-18,9.16329269110976,MA(14)
2013-07-19,9.00711754460252,MA(14)
2013-07-22,8.75662060810406,MA(14)
2013-07-23,8.78856815724865,MA(14)
2013-07-24,8.92869052730323,MA(14)
2013-07-25,7.90497051398659,MA(14)
2013-07-26,7.59683711216385,MA(14)
2013-07-29,7.13773163315801,MA(14)
2013-07-30,7.13906642959013,MA(14)
2013-07-31,4.313012118864,MA(14)
2013-08-01,6.68140629568274,MA(14)
2013-08-02,6.6920750218728,MA(14)
2013-08-05,6.53529870007748,MA(14)
2013-08-06,6.87183993578302,MA(14)
2013-08-07,6.73185825667274,MA(14)
2013-08-08,6.89500987712314,MA(14)
2013-08-09,7.00632314097543,MA(14)
2013-08-12,6.97944286195857,MA(14)
2013-08-13,6.89066225245192,MA(14)
2013-08-14,7.15033388003296,MA(14)
2013-08-15,9.37838466813819,MA(14)
2013-08-16,9.34926656594575,MA(14)
2013-08-19,9.67664348813963,MA(14)
2013-08-20,9.80977033510511,MA(14)
2013-08-21,8.63111808503328,MA(14)
2013-08-22,9.33647155777392,MA(14)
2013-08-23,9.46303708813721,MA(14)
2013-08-26,9.30551151555309,MA(14)
2013-08-27,11.389434194695,MA(14)
2013-08-28,11.3304124332067,MA(14)
2013-08-29,11.2597204402283,MA(14)
2013-08-30,11.3291100976865,MA(14)
2013-09-03,11.4043896542433,MA(14)
2013-09-04,11.7012965950131,MA(14)
2013-09-05,10.0116021494701,MA(14)
2013-09-06,9.91343434087066,MA(14)
2013-09-09,10.472714356463,MA(14)
2013-09-10,10.8002672886921,MA(14)
2013-09-11,10.597392780409,MA(14)
2013-09-12,10.0597692439614,MA(14)
2013-09-13,9.98700998313342,MA(14)
2013-09-16,10.1276626720333,MA(14)
2013-09-17,7.74659842317124,MA(14)
2013-09-18,9.21020111268533,MA(14)
2013-09-19,9.20588965516401,MA(14)
2013-09-20,9.6078885303168,MA(14)
2013-09-23,9.65527053611645,MA(14)
2013-09-24,9.09733495353023,MA(14)
2013-09-25,9.15664963353059,MA(14)
2013-09-26,9.2739143036987,MA(14)
2013-09-27,8.44547197177222,MA(14)
2013-09-30,8.26384885117809,MA(14)
2013-10-01,8.82985328322859,MA(14)
2013-10-02,8.71769668291677,MA(14)
2013-10-03,9.44533609503205,MA(14)
2013-10-04,9.60627968245889,MA(14)
2013-10-07,10.1068873845138,MA(14)
2013-10-08,10.1726408314761,MA(14)
2013-10-09,10.1456281065127,MA(14)
2013-10-10,13.2983499600966,MA(14)
2013-10-11,13.4112716684727,MA(14)
2013-10-14,13.4761800247049,MA(14)
2013-10-15,13.7563443281112,MA(14)
2013-10-16,14.8577251040646,MA(14)
2013-10-17,15.0280898931642,MA(14)
2013-10-18,15.0639027681485,MA(14)
2013-10-21,14.6829483660522,MA(14)
2013-10-22,14.8779839440235,MA(14)
2013-10-23,14.5200116142265,MA(14)
2013-10-24,14.2793165860411,MA(14)
2013-10-25,13.9391875179675,MA(14)
2013-10-28,12.9275038256751,MA(14)
2013-10-29,13.1376965689065,MA(14)
2013-10-30,9.67392409060313,MA(14)
2013-10-31,9.44535364261479,MA(14)
2013-11-01,9.36818180561807,MA(14)
2013-11-04,9.00321796796257,MA(14)
2013-11-05,6.98503484691698,MA(14)
2013-11-06,6.63014550535537,MA(14)
2013-11-07,8.23393342423715,MA(14)
2013-11-08,9.97824682198702,MA(14)
2013-11-11,9.68575328972654,MA(14)
2013-11-12,9.52967284825256,MA(14)
2013-11-13,10.0266533173779,MA(14)
2013-11-14,10.0627089576416,MA(14)
2013-11-15,10.2035557186331,MA(14)
2013-11-18,10.0511877684675,MA(14)
2013-11-19,9.87456040939882,MA(14)
2013-11-20,9.86070049277965,MA(14)
2013-11-21,10.3651383859298,MA(14)
2013-11-22,10.4662134450411,MA(14)
2013-11-25,10.4123697305142,MA(14)
2013-11-26,10.25603130759,MA(14)
2013-11-27,8.65095411307096,MA(14)
2013-11-29,6.57115473617647,MA(14)
2013-12-02,6.66412826392366,MA(14)
2013-12-03,6.72540767898744,MA(14)
2013-12-04,5.82463261975326,MA(14)
2013-12-05,5.75721737701282,MA(14)
2013-12-06,7.23026221903549,MA(14)
2013-12-09,7.1002756559992,MA(14)
2013-12-10,7.17483377824078,MA(14)
2013-12-11,8.49945867264389,MA(14)
2013-12-12,7.94263975288771,MA(14)
2013-12-13,7.66246354514535,MA(14)
2013-12-16,8.09418455259659,MA(14)
2013-12-17,8.19965378413433,MA(14)
2013-12-18,10.7151586361754,MA(14)
2013-12-19,10.7128145680894,MA(14)
2013-12-20,10.8428394015573,MA(14)
2013-12-23,10.9892961837042,MA(14)
2013-12-24,11.044208872607,MA(14)
2013-12-26,11.0724656893161,MA(14)
2013-12-27,10.0159294651482,MA(14)
2013-12-30,9.9867930300706,MA(14)
2013-12-31,10.0356195251672,MA(14)
2014-01-02,9.5776473301083,MA(14)
2014-01-03,9.4447208489159,MA(14)
2014-01-06,9.5042282235698,MA(14)
2014-01-07,9.47668397627235,MA(14)
2014-01-08,9.3857912315594,MA(14)
2014-01-09,6.27967951477703,MA(14)
2014-01-10,6.34997950425482,MA(14)
2014-01-13,8.049725931779,MA(14)
2014-01-14,8.96930783679546,MA(14)
2014-01-15,9.14747149379865,MA(14)
2014-01-16,8.94417658508212,MA(14)
2014-01-17,9.09384426555498,MA(14)
2014-01-21,9.16855161601278,MA(14)
2014-01-22,9.01845536740908,MA(14)
2014-01-23,9.02338123862074,MA(14)
2014-01-24,12.6837071226526,MA(14)
2014-01-27,12.8067911708686,MA(14)
2014-01-28,12.8117624809999,MA(14)
2014-01-29,13.5254295605874,MA(14)
2014-01-30,14.3294022223629,MA(14)
2014-01-31,14.5566706705815,MA(14)
2014-02-03,16.6899293741922,MA(14)
2014-02-04,16.3776264253344,MA(14)
2014-02-05,16.2548839037198,MA(14)
2014-02-06,17.0643055720653,MA(14)
2014-02-07,17.8788090556485,MA(14)
2014-02-10,17.8527527783414,MA(14)
2014-02-11,18.4465268146433,MA(14)
2014-02-12,18.0568351397822,MA(14)
2014-02-13,15.89237438838,MA(14)
2014-02-14,15.8874471491992,MA(14)
2014-02-18,15.6830471554173,MA(14)
2014-02-19,15.3233619502653,MA(14)
2014-02-20,14.7934591649528,MA(14)
2014-02-21,14.5599539466042,MA(14)
2014-02-24,11.1141882569956,MA(14)
2014-02-25,10.6537761869135,MA(14)
2014-02-26,10.6191784796236,MA(14)
2014-02-27,9.47753679083919,MA(14)
2014-02-28,7.74734622521372,MA(14)
2014-03-03,8.32925041431203,MA(14)
2014-03-04,9.42139023903223,MA(14)
2014-03-05,9.4207299098526,MA(14)
2014-03-06,9.1259775165806,MA(14)
2014-03-07,8.90083230166679,MA(14)
2014-03-10,8.88953191967682,MA(14)
2014-03-11,8.71825732329418,MA(14)
2014-03-12,8.34071000532363,MA(14)
2014-03-13,9.67714687648553,MA(14)
2014-03-14,9.39577803875765,MA(14)
2014-03-17,10.2128607243481,MA(14)
2014-03-18,10.6556719401185,MA(14)
2014-03-19,10.7679149654244,MA(14)
2014-03-20,11.0020728680844,MA(14)
2014-03-21,10.6203510527126,MA(14)
2014-03-24,8.72007695193966,MA(14)
2014-03-25,8.91556951397601,MA(14)
2014-03-26,9.36874746315804,MA(14)
2014-03-27,9.40040851794489,MA(14)
2014-03-28,9.59981848366826,MA(14)
2014-03-31,9.93203593637358,MA(14)
2014-04-01,10.364143559586,MA(14)
2014-04-02,9.17206443207941,MA(14)
2014-04-03,9.10646604348977,MA(14)
2014-04-04,9.74708007919575,MA(14)
2014-04-07,10.3259533112779,MA(14)
2014-04-08,10.1179372832009,MA(14)
2014-04-09,10.8144835007202,MA(14)
2014-04-10,13.9627893844674,MA(14)
2014-04-11,14.3853363431924,MA(14)
2014-04-14,14.678189063991,MA(14)
2014-04-15,14.6538667294374,MA(14)
2014-04-16,15.2816939697706,MA(14)
2014-04-17,15.1668950227738,MA(14)
2014-04-21,14.8810453889053,MA(14)
2014-04-22,14.6845785710487,MA(14)
2014-04-23,14.6650560637521,MA(14)
2014-04-24,14.6752357433605,MA(14)
2014-04-25,14.0974879626609,MA(14)
2014-04-28,13.4068070351795,MA(14)
2014-04-29,13.4635828623008,MA(14)
2014-04-30,12.7202585254644,MA(14)
2014-05-01,9.06983339506974,MA(14)
2014-05-02,8.14628649057915,MA(14)
2014-05-05,7.41799135856042,MA(14)
2014-05-06,7.84125742198871,MA(14)
2014-05-07,6.90264731888439,MA(14)
2014-05-08,6.90305966716575,MA(14)
2014-05-09,6.74748453337057,MA(14)
2014-05-12,7.68750543409328,MA(14)
2014-05-13,7.63235038207639,MA(14)
2014-05-14,7.85443931737444,MA(14)
2014-05-15,8.10490586679265,MA(14)
2014-05-16,8.14391063751841,MA(14)
2014-05-19,8.05759120976205,MA(14)
2014-05-20,8.42147061493607,MA(14)
2014-05-21,9.08765255914737,MA(14)
2014-05-22,9.12438472250028,MA(14)
2014-05-23,9.26497017198137,MA(14)
2014-05-27,8.81171163173342,MA(14)
2014-05-28,8.50097844031399,MA(14)
2014-05-29,8.77756614529765,MA(14)
2014-05-30,8.78862216192634,MA(14)
2014-06-02,7.79660941318563,MA(14)
2014-06-03,7.7962206731361,MA(14)
2014-06-04,7.57983419028709,MA(14)
2014-06-05,7.01495622916141,MA(14)
2014-06-06,7.10764126611327,MA(14)
2014-06-09,6.93153607512242,MA(14)
2014-06-10,6.36135031613739,MA(14)
2014-06-11,5.57142928567957,MA(14)
2014-06-12,6.25175145564258,MA(14)
2014-06-13,6.13384833609544,MA(14)
2014-06-16,5.60220170628844,MA(14)
2014-06-17,5.65719201386113,MA(14)
2014-06-18,6.11925873197989,MA(14)
2014-06-19,6.09348028052365,MA(14)
2014-06-20,6.12939925395841,MA(14)
2014-06-23,6.12755903300634,MA(14)
2014-06-24,6.65975069208028,MA(14)
2014-06-25,6.40784051438009,MA(14)
2014-06-26,6.12390370606552,MA(14)
2014-06-27,6.16407055605263,MA(14)
2014-06-30,6.16520177629737,MA(14)
2014-07-01,6.60892243063278,MA(14)
2014-07-02,5.89216732879302,MA(14)
2014-07-03,6.18877585680531,MA(14)
2014-07-07,6.39810869646084,MA(14)
2014-07-08,7.00215192926952,MA(14)
2014-07-09,6.50430837609423,MA(14)
2014-07-10,6.71379717147832,MA(14)
2014-07-11,6.70278337747815,MA(14)
2014-07-14,7.00665806407582,MA(14)
2014-07-15,6.50523345496468,MA(14)
2014-07-16,6.41827372123272,MA(14)
2014-07-17,8.1395854105235,MA(14)
2014-07-18,9.17750447747518,MA(14)
2014-07-21,9.22851122580256,MA(14)
2014-07-22,9.04024552935871,MA(14)
2014-07-23,9.06627121396985,MA(14)
2014-07-24,8.76968810370885,MA(14)
2014-07-25,8.85251939110768,MA(14)
2014-07-28,8.33345943882594,MA(14)
2014-07-29,8.32407490164315,MA(14)
2014-07-30,8.13823030009581,MA(14)
2014-07-31,11.7780823887476,MA(14)
2014-08-01,11.662678460483,MA(14)
2014-08-04,12.0213652109689,MA(14)
2014-08-05,12.5813341639496,MA(14)
2014-08-06,11.531822683395,MA(14)
2014-08-07,10.9500123833938,MA(14)
2014-08-08,11.9337109411276,MA(14)
2014-08-11,11.8024869090328,MA(14)
2014-08-12,11.7995386472344,MA(14)
2014-08-13,12.1312094739073,MA(14)
2014-08-14,12.0956494476534,MA(14)
2014-08-15,12.0950644950125,MA(14)
2014-08-18,12.4700100345475,MA(14)
2014-08-19,12.6468853863811,MA(14)
2014-08-20,9.38930906809739,MA(14)
2014-08-21,9.3938556847469,MA(14)
2014-08-22,8.93263071506314,MA(14)
2014-08-25,8.18233189629947,MA(14)
2014-08-26,8.19436300476732,MA(14)
2014-08-27,7.84879999925597,MA(14)
2014-08-28,6.21612510176639,MA(14)
2014-08-29,6.26470230232314,MA(14)
2014-09-02,6.23059207384398,MA(14)
2014-09-03,5.56319176941143,MA(14)
2014-09-04,5.29266154649604,MA(14)
2014-09-05,5.70241089391615,MA(14)
2014-09-08,4.61747167054953,MA(14)
2014-09-09,4.95758820785677,MA(14)
2014-09-10,5.08422251063057,MA(14)
2014-09-11,4.94355655817125,MA(14)
2014-09-12,5.48771237107371,MA(14)
2014-09-15,5.11187417501011,MA(14)
2014-09-16,5.98854454299206,MA(14)
2014-09-17,6.01345143962835,MA(14)
2014-09-18,6.31680723802292,MA(14)
2014-09-19,6.16283124678756,MA(14)
2014-09-22,7.03468811268835,MA(14)
2014-09-23,7.44120401214752,MA(14)
2014-09-24,8.11296657284943,MA(14)
2014-09-25,10.4290119814955,MA(14)
2014-09-26,10.9587365649226,MA(14)
2014-09-29,10.6562308436263,MA(14)
2014-09-30,10.6103635299057,MA(14)
2014-10-01,12.0085407760285,MA(14)
2014-10-02,11.7396083687444,MA(14)
2014-10-03,12.639006440118,MA(14)
2014-10-06,12.2578194944411,MA(14)
2014-10-07,13.8361172282651,MA(14)
2014-10-08,15.5144824966644,MA(14)
2014-10-09,17.8464282296711,MA(14)
2014-10-10,18.1830151196617,MA(14)
2014-10-13,19.3356111506259,MA(14)
2014-10-14,19.0641157533005,MA(14)
2014-10-15,18.1053349193726,MA(14)
2014-10-16,17.7421999142015,MA(14)
2014-10-17,18.5172860812462,MA(14)
2014-10-20,18.8756768420856,MA(14)
2014-10-21,19.789719451076,MA(14)
2014-10-22,20.030407697754,MA(14)
2014-10-23,20.1470365036371,MA(14)
2014-10-24,20.3540368481665,MA(14)
2014-10-27,19.3185576039101,MA(14)
2014-10-28,18.5700724876039,MA(14)
2014-10-29,16.3509710618855,MA(14)
2014-10-30,15.8289669665134,MA(14)
2014-10-31,15.0203183808333,MA(14)
2014-11-03,15.0056005018685,MA(14)
2014-11-04,14.6556985682736,MA(14)
2014-11-05,14.8511157327685,MA(14)
2014-11-06,13.922143316097,MA(14)
2014-11-07,13.3812093093868,MA(14)
2014-11-10,10.6622711164248,MA(14)
2014-11-11,10.2071739092015,MA(14)
2014-11-12,8.80750779163384,MA(14)
2014-11-13,8.29460219352532,MA(14)
2014-11-14,8.27088267527109,MA(14)
2014-11-17,6.58412971060833,MA(14)
2014-11-18,6.90581415294447,MA(14)
2014-11-19,6.41911728909352,MA(14)
2014-11-20,4.19570363806162,MA(14)
2014-11-21,4.74058857760014,MA(14)
2014-11-24,4.7433841587222,MA(14)
2014-11-25,4.1190104815595,MA(14)
2014-11-26,3.97899880465613,MA(14)
2014-11-28,4.11920275865964,MA(14)
2014-12-01,4.86010214245456,MA(14)
2014-12-02,5.54676380998656,MA(14)
2014-12-03,5.76196114580436,MA(14)
2014-12-04,5.77853300980617,MA(14)
2014-12-05,5.82026484749884,MA(14)
2014-12-08,6.57653779064706,MA(14)
2014-12-09,6.21113960964203,MA(14)
2014-12-10,9.31179689501096,MA(14)
2014-12-11,9.46979432672502,MA(14)
2014-12-12,11.5117658730965,MA(14)
2014-12-15,11.7596622089217,MA(14)
2014-12-16,12.2894992723051,MA(14)
2014-12-17,14.9036872592489,MA(14)
2014-12-18,17.9312632697081,MA(14)
2014-12-19,17.8004750410688,MA(14)
2014-12-22,17.669387296384,MA(14)
2014-12-23,17.6133316806524,MA(14)
2014-12-24,17.6065773508706,MA(14)
2014-12-26,17.6478528552437,MA(14)
2014-12-29,17.3812357051868,MA(14)
2014-12-30,17.5038792695131,MA(14)
2014-12-31,16.6443292273534,MA(14)
2015-01-02,16.5347294576303,MA(14)
2015-01-05,16.9248206324611,MA(14)
2015-01-06,17.1309843206522,MA(14)
2015-01-07,17.4461021741564,MA(14)
2015-01-08,16.97091157937,MA(14)
2015-01-09,14.1478817608979,MA(14)
2015-01-12,14.430634145503,MA(14)
2015-01-13,14.3823028766748,MA(14)
2015-01-14,14.5731426958279,MA(14)
2015-01-15,15.0926295234816,MA(14)
2015-01-16,16.0496553247529,MA(14)
2015-01-20,16.05886860529,MA(14)
2015-01-21,16.0492302932512,MA(14)
2015-01-22,16.715414126117,MA(14)
2015-01-23,16.8759975240061,MA(14)
2015-01-26,15.0068819963155,MA(14)
2015-01-27,15.6011540334542,MA(14)
2015-01-28,15.889917164731,MA(14)
2015-01-29,14.5751321814295,MA(14)
2015-01-30,15.1741170635478,MA(14)
2015-02-02,15.750581429251,MA(14)
2015-02-03,16.8401845021782,MA(14)
2015-02-04,16.7517040930104,MA(14)
2015-02-05,16.8500851456444,MA(14)
2015-02-06,15.9457039562684,MA(14)
2015-02-09,16.033467225365,MA(14)
2015-02-10,16.5296462062427,MA(14)
2015-02-11,15.2387615637627,MA(14)
2015-02-12,15.5966753870983,MA(14)
2015-02-13,15.6535663957016,MA(14)
2015-02-17,14.5962025437926,MA(14)
2015-02-18,13.4200922434431,MA(14)
2015-02-19,12.8148346956645,MA(14)
2015-02-20,11.8466930102254,MA(14)
2015-02-23,10.523325893573,MA(14)
2015-02-24,8.68299156268932,MA(14)
2015-02-25,8.50892725694157,MA(14)
2015-02-26,7.35331501126479,MA(14)
2015-02-27,7.31730618697598,MA(14)
2015-03-02,7.54760135686214,MA(14)
2015-03-03,6.36593497917824,MA(14)
2015-03-04,6.63168391831762,MA(14)
2015-03-05,5.27096712204552,MA(14)
2015-03-06,7.82435565897201,MA(14)
2015-03-09,7.97075200363702,MA(14)
2015-03-10,10.7597852495017,MA(14)
2015-03-11,10.78096929886,MA(14)
2015-03-12,11.7290573330426,MA(14)
2015-03-13,12.0076753560702,MA(14)
2015-03-16,13.2324940127481,MA(14)
2015-03-17,13.3029757050273,MA(14)
2015-03-18,14.2358646256654,MA(14)
2015-03-19,14.3302109792071,MA(14)
2015-03-20,14.5969981963761,MA(14)
2015-03-23,14.4887016109855,MA(14)
2015-03-24,14.6027593820005,MA(14)
2015-03-25,15.8554168126162,MA(14)
2015-03-26,14.6974726769802,MA(14)
2015-03-27,14.6372046268426,MA(14)
2015-03-30,13.7260678995684,MA(14)
2015-03-31,14.2015767431282,MA(14)
2015-04-01,13.2853535086296,MA(14)
2015-04-02,13.1182168759965,MA(14)
2015-04-06,12.1476655651913,MA(14)
2015-04-07,12.097581861607,MA(14)
2015-04-08,11.0250961460985,MA(14)
2015-04-09,10.9920269358027,MA(14)
2015-04-10,10.5478845728354,MA(14)
2015-04-13,10.6994313120992,MA(14)
2015-04-14,10.4009135842921,MA(14)
2015-04-15,8.63010856356896,MA(14)
2015-04-16,8.57760377585115,MA(14)
2015-04-17,9.78182916575918,MA(14)
2015-04-20,9.18475537467075,MA(14)
2015-04-21,8.41510400349294,MA(14)
2015-04-22,8.52017460606613,MA(14)
2015-04-23,8.44788573585324,MA(14)
2015-04-24,8.03261327511246,MA(14)
2015-04-27,8.17541668528402,MA(14)
2015-04-28,8.18055607783499,MA(14)
2015-04-29,8.11768429777346,MA(14)
2015-04-30,8.92164401766436,MA(14)
2015-05-01,9.84407950362413,MA(14)
2015-05-04,9.89808689177413,MA(14)
2015-05-05,10.8896766548155,MA(14)
2015-05-06,11.0470760982139,MA(14)
2015-05-07,10.0728919760387,MA(14)
2015-05-08,10.8758777972903,MA(14)
2015-05-11,11.0698679076529,MA(14)
2015-05-12,10.9316853210031,MA(14)
2015-05-13,10.8870585444154,MA(14)
2015-05-14,11.7537695477301,MA(14)
2015-05-15,11.626742420712,MA(14)
2015-05-18,11.6391324990439,MA(14)
2015-05-19,11.5341128327596,MA(14)
2015-05-20,10.7090020115781,MA(14)
2015-05-21,9.7252848067716,MA(14)
2015-05-22,9.69198213714007,MA(14)
2015-05-26,9.3641530093759,MA(14)
2015-05-27,9.94895969654861,MA(14)
2015-05-28,9.83540146829397,MA(14)
2015-05-29,8.48513479889756,MA(14)
2015-06-01,8.25251743188341,MA(14)
2015-06-02,8.16869944527985,MA(14)
2015-06-03,8.21651143111412,MA(14)
2015-06-04,7.77030134055711,MA(14)
2015-06-05,7.78723825942307,MA(14)
2015-06-08,8.15607354652653,MA(14)
2015-06-09,8.15345400823165,MA(14)
2015-06-10,9.58707609427525,MA(14)
2015-06-11,9.56436864423427,MA(14)
2015-06-12,9.96901638327188,MA(14)
2015-06-15,9.17280641329348,MA(14)
2015-06-16,8.66217320629,MA(14)
2015-06-17,8.68589463267606,MA(14)
2015-06-18,9.25255982015161,MA(14)
2015-06-19,9.48174567026625,MA(14)
2015-06-22,9.8140166167219,MA(14)
2015-06-23,9.77686332853343,MA(14)
2015-06-24,9.5875054155091,MA(14)
2015-06-25,9.65065112369672,MA(14)
2015-06-26,9.25353496526518,MA(14)
2015-06-29,12.8452438117052,MA(14)
2015-06-30,11.8604818332914,MA(14)
2015-07-01,12.1927764823057,MA(14)
2015-07-02,11.8272353421555,MA(14)
2015-07-06,11.7780907919372,MA(14)
2015-07-07,11.8126339122009,MA(14)
2015-07-08,13.7549148639875,MA(14)
2015-07-09,13.1441982948744,MA(14)
2015-07-10,13.9489855592872,MA(14)
2015-07-13,14.4778722717202,MA(14)
2015-07-14,14.5966471337882,MA(14)
2015-07-15,14.2629460636309,MA(14)
2015-07-16,14.6023032579379,MA(14)
2015-07-17,14.6088447146594,MA(14)
2015-07-20,11.5810559510686,MA(14)
2015-07-21,11.6670145148231,MA(14)
2015-07-22,11.3405514188865,MA(14)
2015-07-23,11.5921135910749,MA(14)
2015-07-24,12.3443187686229,MA(14)
2015-07-27,12.3210775782617,MA(14)
2015-07-28,11.3362911190764,MA(14)
2015-07-29,11.7087705049947,MA(14)
2015-07-30,10.4996062377284,MA(14)
2015-07-31,9.46241910874203,MA(14)
2015-08-03,9.34734548658295,MA(14)
2015-08-04,9.39053511684048,MA(14)
2015-08-05,8.86170632475846,MA(14)
2015-08-06,9.44082080408642,MA(14)
2015-08-07,9.51331189247869,MA(14)
2015-08-10,10.778202478741,MA(14)
2015-08-11,11.4724365980338,MA(14)
2015-08-12,11.2246108652694,MA(14)
2015-08-13,10.2763881063398,MA(14)
2015-08-14,10.1161349224392,MA(14)
2015-08-17,8.94988831580753,MA(14)
2015-08-18,8.47579546209082,MA(14)
2015-08-19,9.17107244544175,MA(14)
2015-08-20,12.8218078251742,MA(14)
2015-08-21,18.7120064423338,MA(14)
2015-08-24,25.2581921744784,MA(14)
2015-08-25,25.8717435145963,MA(14)
2015-08-26,30.3373571261051,MA(14)
2015-08-27,31.9655194050928,MA(14)
2015-08-28,31.5109017226105,MA(14)
2015-08-31,31.4507653404066,MA(14)
2015-09-01,33.9108635632825,MA(14)
2015-09-02,34.7611378701027,MA(14)
2015-09-03,34.7254458753731,MA(14)
2015-09-04,35.2653944978231,MA(14)
2015-09-08,36.7696755219348,MA(14)
2015-09-09,37.0771441208625,MA(14)
2015-09-10,36.0340011812328,MA(14)
2015-09-11,33.3905234180011,MA(14)
2015-09-14,28.7955390233805,MA(14)
2015-09-15,28.7247775001797,MA(14)
2015-09-16,24.0146458758882,MA(14)
2015-09-17,21.7935345038812,MA(14)
2015-09-18,22.8542057299367,MA(14)
2015-09-21,22.6569855888486,MA(14)
2015-09-22,19.488884996128,MA(14)
2015-09-23,17.9412049138367,MA(14)
2015-09-24,17.9908653418787,MA(14)
2015-09-25,16.7658546714404,MA(14)
2015-09-28,17.0945669630388,MA(14)
2015-09-29,16.047433376044,MA(14)
2015-09-30,17.7857142957932,MA(14)
2015-10-01,17.7044289215466,MA(14)
2015-10-02,18.6151822949055,MA(14)
2015-10-05,19.3948005986877,MA(14)
2015-10-06,19.1062746159119,MA(14)
2015-10-07,19.3730250220813,MA(14)
2015-10-08,18.4839522510069,MA(14)
2015-10-09,18.3859911477734,MA(14)
2015-10-12,17.6323597955174,MA(14)
2015-10-13,17.8472760286683,MA(14)
2015-10-14,17.9022257712509,MA(14)
2015-10-15,18.9543506637273,MA(14)
2015-10-16,15.5645469209765,MA(14)
2015-10-19,15.5562561880401,MA(14)
2015-10-20,13.3640722568892,MA(14)
2015-10-21,13.5646393307355,MA(14)
2015-10-22,14.017291614167,MA(14)
2015-10-23,12.6219195928512,MA(14)
2015-10-26,12.5562815722608,MA(14)
2015-10-27,12.1404066465126,MA(14)
2015-10-28,12.5842936955129,MA(14)
2015-10-29,12.5820016742757,MA(14)
2015-10-30,12.7345130613606,MA(14)
2015-11-02,13.3668361098867,MA(14)
2015-11-03,13.2667577218968,MA(14)
2015-11-04,11.8085959172166,MA(14)
2015-11-05,11.6601389291649,MA(14)
2015-11-06,11.6605042374984,MA(14)
2015-11-09,12.3695855333746,MA(14)
2015-11-10,12.1374675241774,MA(14)
2015-11-11,10.0310917704922,MA(14)
2015-11-12,10.7042408760277,MA(14)
2015-11-13,11.6880028533359,MA(14)
2015-11-16,13.2106172143687,MA(14)
2015-11-17,12.2515758782765,MA(14)
2015-11-18,13.998904938532,MA(14)
2015-11-19,13.857981238254,MA(14)
2015-11-20,13.0286454538856,MA(14)
2015-11-23,12.9881817246882,MA(14)
2015-11-24,12.9114923656207,MA(14)
2015-11-25,12.9027310321523,MA(14)
2015-11-27,12.9043314381573,MA(14)
2015-11-30,12.3687305590897,MA(14)
2015-12-01,13.1428171711391,MA(14)
2015-12-02,13.8815291266254,MA(14)
2015-12-03,13.9527602877434,MA(14)
2015-12-04,15.6752378277327,MA(14)
2015-12-07,14.6771704595499,MA(14)
2015-12-08,14.9220936628033,MA(14)
2015-12-09,13.6946285345941,MA(14)
2015-12-10,13.7193458729612,MA(14)
2015-12-11,15.9478830777865,MA(14)
2015-12-14,16.0649205218783,MA(14)
2015-12-15,16.6654797666964,MA(14)
2015-12-16,17.7431261781196,MA(14)
2015-12-17,18.8618039039689,MA(14)
2015-12-18,20.2358028157652,MA(14)
2015-12-21,20.0013364653073,MA(14)
2015-12-22,19.7985664448773,MA(14)
2015-12-23,19.5384860247156,MA(14)
2015-12-24,17.5639550179796,MA(14)
2015-12-28,17.3365724071647,MA(14)
2015-12-29,17.6904248023116,MA(14)
2015-12-30,17.650548592925,MA(14)
2015-12-31,18.0722864077712,MA(14)
2016-01-04,17.3315245897817,MA(14)
2016-01-05,17.2361249740564,MA(14)
2016-01-06,17.5580640196186,MA(14)
2016-01-07,19.3374747472852,MA(14)
2016-01-08,18.8184061166841,MA(14)
2016-01-11,17.2243458924257,MA(14)
2016-01-12,17.2262934249731,MA(14)
2016-01-13,19.9280696399019,MA(14)
2016-01-14,20.4667455160451,MA(14)
2016-01-15,22.4404458210127,MA(14)
2016-01-19,22.4226384682177,MA(14)
2016-01-20,22.5281518476036,MA(14)
2016-01-21,22.4264069594095,MA(14)
2016-01-22,23.6427856793749,MA(14)
2016-01-25,23.6827329077413,MA(14)
2016-01-26,24.4003442590561,MA(14)
2016-01-27,24.1982998555831,MA(14)
2016-01-28,22.096383223867,MA(14)
2016-01-29,23.9555769405561,MA(14)
2016-02-01,23.9535980948396,MA(14)
2016-02-02,25.0382932200802,MA(14)
2016-02-03,22.742064643537,MA(14)
2016-02-04,21.6485169090151,MA(14)
2016-02-05,21.1105213780488,MA(14)
2016-02-08,21.9520054135988,MA(14)
2016-02-09,21.3836764048158,MA(14)
2016-02-10,21.2714083618111,MA(14)
2016-02-11,20.1946481890578,MA(14)
2016-02-12,20.740903984313,MA(14)
2016-02-16,21.044719293232,MA(14)
2016-02-17,21.663062169918,MA(14)
2016-02-18,21.6278925490211,MA(14)
2016-02-19,18.9984171724066,MA(14)
2016-02-22,19.9419251928053,MA(14)
2016-02-23,19.0210060536495,MA(14)
2016-02-24,18.9967125361279,MA(14)
2016-02-25,19.5754495382807,MA(14)
2016-02-26,17.9355807724659,MA(14)
2016-02-29,17.2415584770809,MA(14)
2016-03-01,19.9136114609087,MA(14)
2016-03-02,19.9881662970372,MA(14)
2016-03-03,19.3480680558286,MA(14)
2016-03-04,17.5945951063769,MA(14)
2016-03-07,16.1798594663645,MA(14)
2016-03-08,15.3912750416692,MA(14)
2016-03-09,15.4117242033473,MA(14)
2016-03-10,15.4118608888898,MA(14)
2016-03-11,15.7472755785801,MA(14)
2016-03-14,14.8395948290769,MA(14)
2016-03-15,14.7415353287918,MA(14)
2016-03-16,14.1472125888939,MA(14)
2016-03-17,14.3956367958072,MA(14)
2016-03-18,14.1000701400615,MA(14)
2016-03-21,9.98128190917268,MA(14)
2016-03-22,9.83780097957932,MA(14)
2016-03-23,10.0961972052084,MA(14)
2016-03-24,10.0006785154569,MA(14)
2016-03-28,9.99634379789483,MA(14)
2016-03-29,9.53254927140335,MA(14)
2016-03-30,9.47095287745713,MA(14)
2016-03-31,9.50994742466851,MA(14)
2016-04-01,7.09397099227425,MA(14)
2016-04-04,7.20306445531316,MA(14)
2016-04-05,8.357365325692,MA(14)
2016-04-06,9.15352104815093,MA(14)
2016-04-07,10.0990717402454,MA(14)
2016-04-08,9.99615916169362,MA(14)
2016-04-11,10.0545525225311,MA(14)
2016-04-12,10.8382489877736,MA(14)
2016-04-13,11.311947836033,MA(14)
2016-04-14,11.3110551547065,MA(14)
2016-04-15,11.3163634227156,MA(14)
2016-04-18,11.0404272028198,MA(14)
2016-04-19,10.9644826935125,MA(14)
2016-04-20,10.9352127865982,MA(14)
2016-04-21,10.8309430092434,MA(14)
2016-04-22,10.7454979458765,MA(14)
2016-04-25,9.87360327836357,MA(14)
2016-04-26,8.86579192363742,MA(14)
2016-04-27,7.29153728055211,MA(14)
2016-04-28,8.19395871582412,MA(14)
2016-04-29,8.39033871262616,MA(14)
2016-05-02,8.04326629261428,MA(14)
2016-05-03,7.7739050072099,MA(14)
2016-05-04,8.17067176057389,MA(14)
2016-05-05,8.16069279357982,MA(14)
2016-05-06,7.79746163553179,MA(14)
2016-05-09,7.69467381317439,MA(14)
2016-05-10,9.30536738280605,MA(14)
2016-05-11,9.91111403150217,MA(14)
2016-05-12,9.91135215275269,MA(14)
2016-05-13,10.5163271612032,MA(14)
2016-05-16,11.2667610735096,MA(14)
2016-05-17,11.9340519560832,MA(14)
2016-05-18,11.2726178087226,MA(14)
2016-05-19,11.1773705688197,MA(14)
2016-05-20,10.9798798228588,MA(14)
2016-05-23,10.3814668557392,MA(14)
2016-05-24,11.5938191954426,MA(14)
2016-05-25,11.9596488590182,MA(14)
2016-05-26,11.8847425354381,MA(14)
2016-05-27,12.0172133484753,MA(14)
2016-05-31,10.8216779469952,MA(14)
2016-06-01,10.0426870808019,MA(14)
2016-06-02,10.1129227955486,MA(14)
2016-06-03,9.53121368734948,MA(14)
2016-06-06,8.83934470322927,MA(14)
2016-06-07,7.90340861642024,MA(14)
2016-06-08,8.02532440852857,MA(14)
2016-06-09,7.90386032485343,MA(14)
2016-06-10,8.43867623266149,MA(14)
2016-06-13,9.0713400538395,MA(14)
2016-06-14,7.0636180752038,MA(14)
2016-06-15,6.47101963934641,MA(14)
2016-06-16,6.60405182576115,MA(14)
2016-06-17,6.49980700799089,MA(14)
2016-06-20,6.93225499469152,MA(14)
2016-06-21,7.00972552143332,MA(14)
2016-06-22,6.94286448611645,MA(14)
2016-06-23,8.84061362997251,MA(14)
2016-06-24,17.6875868464213,MA(14)
2016-06-27,19.2901399419593,MA(14)
2016-06-28,20.6291809169917,MA(14)
2016-06-29,21.8167864229672,MA(14)
2016-06-30,22.2085336914974,MA(14)
2016-07-01,21.9553976585626,MA(14)
2016-07-05,22.1334844134118,MA(14)
2016-07-06,22.2345349403825,MA(14)
2016-07-07,22.1982656623514,MA(14)
2016-07-08,23.0604348164615,MA(14)
2016-07-11,22.9752488295638,MA(14)
2016-07-12,23.1357800198413,MA(14)
2016-07-13,23.1253037115377,MA(14)
2016-07-14,22.5437667250786,MA(14)
2016-07-15,16.4140036630803,MA(14)
2016-07-18,14.5215448646831,MA(14)
2016-07-19,12.4836098664441,MA(14)
2016-07-20,10.3993325007044,MA(14)
2016-07-21,8.83551016488385,MA(14)
2016-07-22,9.00422341454645,MA(14)
2016-07-25,8.61799562924731,MA(14)
2016-07-26,8.3185864675159,MA(14)
2016-07-27,8.32585955965597,MA(14)
2016-07-28,5.37192980968989,MA(14)
2016-07-29,5.22152793727141,MA(14)
2016-08-01,4.34056379336664,MA(14)
2016-08-02,5.10982557871779,MA(14)
2016-08-03,4.79013547515888,MA(14)
2016-08-04,4.77485339439567,MA(14)
2016-08-05,5.90704967186013,MA(14)
2016-08-08,5.8882924449608,MA(14)
2016-08-09,5.60862080216457,MA(14)
2016-08-10,5.53058769993234,MA(14)
2016-08-11,5.55742023362577,MA(14)
2016-08-12,5.41976170750502,MA(14)
2016-08-15,5.54475024062337,MA(14)
2016-08-16,5.98980086484959,MA(14)
2016-08-17,6.00334051829507,MA(14)
2016-08-18,6.03554065914051,MA(14)
2016-08-19,6.04238556021487,MA(14)
2016-08-22,5.41239831360261,MA(14)
2016-08-23,5.31268331575236,MA(14)
2016-08-24,5.75725787656549,MA(14)
2016-08-25,4.51378433662417,MA(14)
2016-08-26,4.54675516358684,MA(14)
2016-08-29,5.04987777891585,MA(14)
2016-08-30,4.97137213544482,MA(14)
2016-08-31,4.66271206824554,MA(14)
2016-09-01,4.65058498130083,MA(14)
2016-09-02,4.83500529282168,MA(14)
2016-09-06,4.42378151194138,MA(14)
2016-09-07,4.35331229929238,MA(14)
2016-09-08,4.35587735429622,MA(14)
2016-09-09,11.3435944137808,MA(14)
2016-09-12,12.904668437258,MA(14)
2016-09-13,14.3428956491614,MA(14)
2016-09-14,14.1721869299251,MA(14)
2016-09-15,14.7845980360322,MA(14)
2016-09-16,14.8556132430976,MA(14)
2016-09-19,14.6912866066333,MA(14)
2016-09-20,14.6685704501853,MA(14)
2016-09-21,15.3365399707303,MA(14)
2016-09-22,15.5789778412958,MA(14)
2016-09-23,15.667704372676,MA(14)
2016-09-26,16.0367604447915,MA(14)
2016-09-27,16.2647454947594,MA(14)
2016-09-28,16.3902612277286,MA(14)
2016-09-29,13.199543687551,MA(14)
2016-09-30,12.147653297535,MA(14)
2016-10-03,10.4691533867959,MA(14)
2016-10-04,10.674670031554,MA(14)
2016-10-05,9.95813411161048,MA(14)
2016-10-06,9.83133246348664,MA(14)
2016-10-07,9.92730632139839,MA(14)
2016-10-10,10.114659664357,MA(14)
2016-10-11,10.4529933209185,MA(14)
2016-10-12,10.099711101714,MA(14)
2016-10-13,9.89009449678353,MA(14)
2016-10-14,9.1944357179992,MA(14)
2016-10-17,8.8782143392887,MA(14)
2016-10-18,8.9763532939072,MA(14)
2016-10-19,8.1098281930998,MA(14)
2016-10-20,7.40676631322408,MA(14)
2016-10-21,7.27713173839678,MA(14)
2016-10-24,7.24977399798995,MA(14)
2016-10-25,7.20152281665261,MA(14)
2016-10-26,7.23618556333902,MA(14)
2016-10-27,7.2155201383541,MA(14)
2016-10-28,7.07272771765224,MA(14)
2016-10-31,4.6919645577053,MA(14)
2016-11-01,5.48283963405242,MA(14)
2016-11-02,5.99956813985843,MA(14)
2016-11-03,6.28467126714462,MA(14)
2016-11-04,6.19197089428691,MA(14)
2016-11-07,10.8571726544505,MA(14)
2016-11-08,10.9340391896034,MA(14)
2016-11-09,11.869511250486,MA(14)
2016-11-10,11.8979934004529,MA(14)
2016-11-11,11.7431690169047,MA(14)
2016-11-14,11.632673697039,MA(14)
2016-11-15,12.0289767379169,MA(14)
2016-11-16,11.9810821660922,MA(14)
2016-11-17,12.0707320978008,MA(14)
2016-11-18,12.112787601829,MA(14)
2016-11-21,12.1780941113414,MA(14)
2016-11-22,11.8948572908365,MA(14)
2016-11-23,11.7513656364858,MA(14)
2016-11-25,11.8458233036226,MA(14)
2016-11-28,7.68159337387253,MA(14)
2016-11-29,7.5361608013518,MA(14)
2016-11-30,6.03189755171194,MA(14)
2016-12-01,6.15794708971129,MA(14)
2016-12-02,6.13180089883988,MA(14)
2016-12-05,6.60400759584458,MA(14)
2016-12-06,5.98033066752389,MA(14)
2016-12-07,8.11513338187364,MA(14)
2016-12-08,7.9246033018205,MA(14)
2016-12-09,8.248690956614,MA(14)
2016-12-12,7.64227380236656,MA(14)
2016-12-13,8.07195339082032,MA(14)
2016-12-14,8.76937609982861,MA(14)
2016-12-15,8.76691639105411,MA(14)
2016-12-16,8.51179367392697,MA(14)
2016-12-19,8.53392722976303,MA(14)
2016-12-20,8.59776306071501,MA(14)
2016-12-21,8.53157506511526,MA(14)
2016-12-22,8.56624528253404,MA(14)
2016-12-23,8.22457755133986,MA(14)
2016-12-27,8.15315259163575,MA(14)
2016-12-28,6.96491381839573,MA(14)
2016-12-29,6.90612406425744,MA(14)
2016-12-30,6.72984621636972,MA(14)
2017-01-03,7.60343996777169,MA(14)
2017-01-04,7.48589477091476,MA(14)
2017-01-05,6.6545278029512,MA(14)
2017-01-06,6.61826308017479,MA(14)
2017-01-09,6.74609905610136,MA(14)
2017-01-10,6.6943708120036,MA(14)
2017-01-11,6.62466294953492,MA(14)
2017-01-12,6.60518040160914,MA(14)
2017-01-13,6.60434824486343,MA(14)
2017-01-17,6.7018783561498,MA(14)
2017-01-18,6.67600292493435,MA(14)
2017-01-19,5.85907620721008,MA(14)
2017-01-20,6.02744629040457,MA(14)
2017-01-23,5.81105056981931,MA(14)
2017-01-24,5.35356618539489,MA(14)
2017-01-25,5.85306109145416,MA(14)
2017-01-26,5.85224944504092,MA(14)
2017-01-27,5.67291786897098,MA(14)
2017-01-30,6.03434632159618,MA(14)
2017-01-31,6.04606300168018,MA(14)
2017-02-01,5.92832268544778,MA(14)
2017-02-02,5.86343133043661,MA(14)
2017-02-03,6.56706168438296,MA(14)
2017-02-06,6.50767703933698,MA(14)
2017-02-07,6.46564144041989,MA(14)
2017-02-08,6.28932466241228,MA(14)
2017-02-09,6.58895564503143,MA(14)
2017-02-10,6.66193223420905,MA(14)
2017-02-13,6.45171687418025,MA(14)
2017-02-14,5.7505866124307,MA(14)
2017-02-15,6.11563983905427,MA(14)
2017-02-16,6.11558048028969,MA(14)
2017-02-17,5.60487351151542,MA(14)
2017-02-21,6.14538525466996,MA(14)
2017-02-22,6.1611062264268,MA(14)
2017-02-23,6.15893799899426,MA(14)
2017-02-24,5.38272819507152,MA(14)
2017-02-27,5.32521107177789,MA(14)
2017-02-28,5.43497033780605,MA(14)
2017-03-01,7.89876552010794,MA(14)
2017-03-02,7.91726030040841,MA(14)
2017-03-03,7.7759600891915,MA(14)
2017-03-06,7.58296375353211,MA(14)
2017-03-07,7.49434814760603,MA(14)
2017-03-08,7.25745571668059,MA(14)
2017-03-09,7.256126614875,MA(14)
2017-03-10,7.35192211916979,MA(14)
2017-03-13,6.89797494994829,MA(14)
2017-03-14,7.02982965347036,MA(14)
2017-03-15,7.86177163108083,MA(14)
2017-03-16,7.86658194964688,MA(14)
2017-03-17,7.87446014047491,MA(14)
2017-03-20,7.84472623451971,MA(14)
2017-03-21,7.51264726889796,MA(14)
2017-03-22,7.13502044826415,MA(14)
2017-03-23,7.14591909501588,MA(14)
2017-03-24,7.01906351691934,MA(14)
2017-03-27,6.92336485318448,MA(14)
2017-03-28,7.50476270126834,MA(14)
2017-03-29,7.51115272821648,MA(14)
2017-03-30,7.48662845342914,MA(14)
2017-03-31,7.54557760282018,MA(14)
2017-04-03,7.44125368617665,MA(14)
2017-04-04,6.55803677613373,MA(14)
2017-04-05,6.64876744610592,MA(14)
2017-04-06,6.67538584682737,MA(14)
2017-04-07,6.63025063477529,MA(14)
2017-04-10,4.02580446156394,MA(14)
2017-04-11,3.99226483016675,MA(14)
2017-04-12,4.27448834947561,MA(14)
2017-04-13,5.14720099360546,MA(14)
2017-04-17,6.28035123177092,MA(14)
2017-04-18,5.62406843111456,MA(14)
2017-04-19,5.65216592807912,MA(14)
2017-04-20,6.3667246112346,MA(14)
2017-04-21,6.42456217611427,MA(14)
2017-04-24,7.84543575659819,MA(14)
2017-04-25,8.25101425720059,MA(14)
2017-04-26,8.1516757684087,MA(14)
2017-04-27,8.11423678267912,MA(14)
2017-04-28,8.14698819036073,MA(14)
2017-05-01,8.17459244908373,MA(14)
2017-05-02,8.16752480712155,MA(14)
2017-05-03,8.02891237912646,MA(14)
2017-05-04,7.4949429647708,MA(14)
2017-05-05,6.78323717237688,MA(14)
2017-05-08,6.67104836031685,MA(14)
2017-05-09,6.64558732548995,MA(14)
2017-05-10,5.85403830645692,MA(14)
2017-05-11,5.78419733885418,MA(14)
2017-05-12,3.61796208105874,MA(14)
2017-05-15,3.24963827485819,MA(14)
2017-05-16,3.25611959750875,MA(14)
2017-05-17,8.40518144151068,MA(14)
2017-05-18,8.50943970695159,MA(14)
2017-05-19,8.94421736284738,MA(14)
2017-05-22,9.19115044886222,MA(14)
2017-05-23,9.20816545020704,MA(14)
2017-05-24,9.26463571453744,MA(14)
2017-05-25,9.29344760308125,MA(14)
2017-05-26,9.29436034809479,MA(14)
2017-05-30,9.29820843540841,MA(14)
2017-05-31,9.28797476534623,MA(14)
2017-06-01,9.77693285065794,MA(14)
2017-06-02,9.88146330323314,MA(14)
2017-06-05,9.68780998967668,MA(14)
2017-06-06,9.75460458670728,MA(14)
2017-06-07,5.95747295726919,MA(14)
2017-06-08,5.75203385836774,MA(14)
2017-06-09,5.00855412182937,MA(14)
2017-06-12,4.53061314506898,MA(14)
2017-06-13,4.85207625503542,MA(14)
2017-06-14,4.75565657972113,MA(14)
2017-06-15,4.47282571682431,MA(14)
2017-06-16,4.4725066562631,MA(14)
2017-06-19,5.66418479567869,MA(14)
2017-06-20,6.33302273771723,MA(14)
2017-06-21,5.47802613728652,MA(14)
2017-06-22,5.25357829198125,MA(14)
2017-06-23,5.26966757928513,MA(14)
2017-06-26,5.13850550209318,MA(14)
2017-06-27,6.13986806788502,MA(14)
2017-06-28,7.17064281653226,MA(14)
2017-06-29,8.0384513683858,MA(14)
2017-06-30,8.05385674006946,MA(14)
2017-07-03,7.88655293063313,MA(14)
2017-07-05,7.89918059280473,MA(14)
2017-07-06,8.79326828268459,MA(14)
2017-07-07,9.19684892626136,MA(14)
2017-07-10,8.50861201194188,MA(14)
2017-07-11,8.02770013485502,MA(14)
2017-07-12,8.59330242718021,MA(14)
2017-07-13,8.62751825733253,MA(14)
2017-07-14,8.82506708969069,MA(14)
2017-07-17,8.82408667814179,MA(14)
2017-07-18,8.13609595374844,MA(14)
2017-07-19,7.58881576988328,MA(14)
2017-07-20,6.65376907775564,MA(14)
2017-07-21,6.62402255834771,MA(14)
2017-07-24,6.56723571651536,MA(14)
2017-07-25,6.65382735279575,MA(14)
2017-07-26,5.33530508517426,MA(14)
2017-07-27,4.62166311493677,MA(14)
2017-07-28,4.63980767194182,MA(14)
2017-07-31,4.63822007460402,MA(14)
2017-08-01,3.6221590167835,MA(14)
2017-08-02,3.54076500516235,MA(14)
2017-08-03,3.08354158809604,MA(14)
2017-08-04,3.18493280524664,MA(14)
2017-08-07,3.25018813334574,MA(14)
2017-08-08,2.54563727618445,MA(14)
2017-08-09,2.54944502501169,MA(14)
2017-08-10,6.6660861524225,MA(14)
2017-08-11,6.67267635261684,MA(14)
2017-08-14,7.7998496048261,MA(14)
2017-08-15,7.80178458326564,MA(14)
2017-08-16,7.81398366206404,MA(14)
2017-08-17,10.195907782566,MA(14)
2017-08-18,10.2207839951501,MA(14)
2017-08-21,10.1802282346689,MA(14)
2017-08-22,11.0030070425215,MA(14)
2017-08-23,11.0611963812447,MA(14)
2017-08-24,11.067251566689,MA(14)
2017-08-25,11.0679373909211,MA(14)
2017-08-28,11.0226168907646,MA(14)
2017-08-29,11.0272937097851,MA(14)
2017-08-30,9.35018808162343,MA(14)
2017-08-31,9.6409097583514,MA(14)
2017-09-01,8.7070744079549,MA(14)
2017-09-05,9.27509017832043,MA(14)
2017-09-06,9.34934515042788,MA(14)
2017-09-07,6.64801762454999,MA(14)
2017-09-08,6.63249023536359,MA(14)
2017-09-11,8.03144291680016,MA(14)
2017-09-12,7.00325663370123,MA(14)
2017-09-13,6.85643013349456,MA(14)
2017-09-14,6.81594937712526,MA(14)
2017-09-15,6.82396118068726,MA(14)
2017-09-18,6.84850868453646,MA(14)
2017-09-19,6.85530314786142,MA(14)
2017-09-20,6.57882757059415,MA(14)
2017-09-21,6.25551323854045,MA(14)
2017-09-22,6.20530838005901,MA(14)
2017-09-25,5.39730559106029,MA(14)
2017-09-26,5.23347568861012,MA(14)
2017-09-27,5.50922173090821,MA(14)
2017-09-28,5.49671828614182,MA(14)
2017-09-29,3.44978349804763,MA(14)
2017-10-02,3.543540577402,MA(14)
2017-10-03,3.64483855608606,MA(14)
2017-10-04,3.65314469802719,MA(14)
2017-10-05,4.28943684572983,MA(14)
2017-10-06,4.26935109676055,MA(14)
2017-10-09,4.31161035555203,MA(14)
2017-10-10,4.41351148455158,MA(14)
2017-10-11,4.28918278667054,MA(14)
2017-10-12,4.33948389113073,MA(14)
2017-10-13,4.25264976773406,MA(14)
2017-10-16,4.31630505969683,MA(14)
2017-10-17,3.9677791132337,MA(14)
2017-10-18,3.94750413268917,MA(14)
2017-10-19,3.62762264233378,MA(14)
2017-10-20,3.89121684032881,MA(14)
2017-10-23,4.14008694462119,MA(14)
2017-10-24,4.16290624799119,MA(14)
2017-10-25,3.94573909532718,MA(14)
2017-10-26,3.95611920982237,MA(14)
2017-10-27,5.15880774424128,MA(14)
2017-10-30,5.2419643406084,MA(14)
2017-10-31,5.20168661439576,MA(14)
2017-11-01,5.19620547188592,MA(14)
2017-11-02,5.18357246889231,MA(14)
2017-11-03,5.29439131580217,MA(14)
2017-11-06,5.31395088459826,MA(14)
2017-11-07,5.30529264656426,MA(14)
2017-11-08,5.33840391631637,MA(14)
2017-11-09,5.13650108023362,MA(14)
2017-11-10,4.86810579123617,MA(14)
2017-11-13,4.83780736975485,MA(14)
2017-11-14,4.52306207591499,MA(14)
2017-11-15,5.06484241023332,MA(14)
2017-11-16,5.09958359527886,MA(14)
2017-11-17,5.04128578480401,MA(14)
2017-11-20,5.05427121107651,MA(14)
2017-11-21,5.7170358374427,MA(14)
2017-11-22,5.72526398448353,MA(14)
2017-11-24,5.64131801612358,MA(14)
2017-11-27,5.61806253459048,MA(14)
2017-11-28,6.97906886330554,MA(14)
2017-11-29,6.95414439217959,MA(14)
2017-11-30,7.59649467880164,MA(14)
2017-12-01,7.63518927513446,MA(14)
2017-12-04,7.63684513080232,MA(14)
2017-12-05,7.73776291744359,MA(14)
2017-12-06,7.37513939654771,MA(14)
2017-12-07,6.63518333638617,MA(14)
2017-12-08,6.94086182667158,MA(14)
2017-12-11,7.0505528899277,MA(14)
2017-12-12,6.52282819637799,MA(14)
2017-12-13,6.51817912146544,MA(14)
2017-12-14,6.68615371803714,MA(14)
2017-12-15,7.67673078561121,MA(14)
2017-12-18,6.84757525391157,MA(14)
2017-12-19,6.98099556649582,MA(14)
2017-12-20,6.08058720892757,MA(14)
2017-12-21,6.07806072800028,MA(14)
2017-12-22,6.06485215146758,MA(14)
2017-12-26,5.87165717729816,MA(14)
2017-12-27,5.88095710659878,MA(14)
2017-12-28,5.80122362571002,MA(14)
2017-12-29,5.75256436525695,MA(14)
2018-01-02,6.59373407437626,MA(14)
2018-01-03,7.0932815896547,MA(14)
2018-01-04,7.29117585257531,MA(14)
2018-01-05,7.678721638199,MA(14)
2018-01-08,6.7232051968569,MA(14)
2018-01-09,6.35578383635181,MA(14)
2018-01-10,6.22477069713347,MA(14)
2018-01-11,6.88460996923017,MA(14)
2018-01-12,7.40106781434635,MA(14)
2018-01-16,7.54747390720651,MA(14)
2018-01-17,8.51149179999171,MA(14)
2018-01-18,8.53236079262143,MA(14)
2018-01-19,8.69601217682377,MA(14)
2018-01-22,9.07332765689029,MA(14)
2018-01-23,8.42362201997035,MA(14)
2018-01-24,7.98425708114596,MA(14)
2018-01-25,7.80554968175177,MA(14)
2018-01-26,8.76918640650254,MA(14)
2018-01-29,9.19530150764956,MA(14)
2018-01-30,10.2808457186626,MA(14)
2018-01-31,10.2721622809275,MA(14)
2018-02-01,9.83970477981188,MA(14)
2018-02-02,13.0689828460672,MA(14)
2018-02-05,21.9366086151984,MA(14)
2018-02-06,22.7798118817488,MA(14)
2018-02-07,22.8679270195495,MA(14)
2018-02-08,27.9447300852708,MA(14)
2018-02-09,28.4364366589791,MA(14)
2018-02-12,29.0153011392118,MA(14)
2018-02-13,29.0352832673193,MA(14)
2018-02-14,29.5742157513363,MA(14)
2018-02-15,29.5903729399653,MA(14)
2018-02-16,29.4528009845892,MA(14)
2018-02-20,29.1916337592179,MA(14)
2018-02-21,29.2836733936177,MA(14)
2018-02-22,29.2852789150711,MA(14)
2018-02-23,28.6482165110794,MA(14)
2018-02-26,23.0754007859073,MA(14)
2018-02-27,22.5453196679638,MA(14)
2018-02-28,22.9354182944834,MA(14)
2018-03-01,17.2272961923905,MA(14)
2018-03-02,16.1894920922451,MA(14)
2018-03-05,15.7954499209566,MA(14)
2018-03-06,15.7962166209649,MA(14)
2018-03-07,14.7618060252189,MA(14)
2018-03-08,13.9911130975477,MA(14)
2018-03-09,15.7713846959145,MA(14)
2018-03-12,15.5851790047127,MA(14)
2018-03-13,15.6445082298698,MA(14)
2018-03-14,15.8261505431171,MA(14)
2018-03-15,14.3326342919397,MA(14)
2018-03-16,13.4738759855932,MA(14)
2018-03-19,13.7436722612417,MA(14)
2018-03-20,12.9247244707035,MA(14)
2018-03-21,11.6415490172513,MA(14)
2018-03-22,15.714142198595,MA(14)
2018-03-23,17.4819469027269,MA(14)
2018-03-26,20.7987481572194,MA(14)
2018-03-27,22.0630930565383,MA(14)
2018-03-28,22.0173213413243,MA(14)
2018-03-29,21.5673334088134,MA(14)
2018-04-02,23.5794746125272,MA(14)
2018-04-03,24.0161742336721,MA(14)
2018-04-04,24.3825270897574,MA(14)
2018-04-05,24.55099833207,MA(14)
2018-04-06,26.267027045016,MA(14)
2018-04-09,25.6006079173573,MA(14)
2018-04-10,26.5356210130848,MA(14)
2018-04-11,26.627295486727,MA(14)
2018-04-12,24.5985989377895,MA(14)
2018-04-13,22.9434817600331,MA(14)
2018-04-16,20.2445398292336,MA(14)
2018-04-17,19.3827475610324,MA(14)
2018-04-18,19.3465938539668,MA(14)
2018-04-19,18.6220790785035,MA(14)
2018-04-20,16.3943516344896,MA(14)
2018-04-23,15.5149209636693,MA(14)
2018-04-24,15.7955915696104,MA(14)
2018-04-25,15.5482825346225,MA(14)
2018-04-26,13.1631006874346,MA(14)
2018-04-27,13.0960714182066,MA(14)
2018-04-30,11.5946883958789,MA(14)
2018-05-01,11.4066708499926,MA(14)
2018-05-02,11.2869367955504,MA(14)
2018-05-03,11.2610697325848,MA(14)
2018-05-04,12.0042129945791,MA(14)
2018-05-07,11.2314525632009,MA(14)
2018-05-08,11.2265226342554,MA(14)
2018-05-09,11.6929725664864,MA(14)
2018-05-10,11.7955589365875,MA(14)
2018-05-11,11.8175484656828,MA(14)
2018-05-14,10.3628799733278,MA(14)
2018-05-15,10.7333641958403,MA(14)
2018-05-16,9.94469227623535,MA(14)
2018-05-17,9.94015152253098,MA(14)
2018-05-18,9.37964889271882,MA(14)
2018-05-21,9.82306346622391,MA(14)
2018-05-22,9.42944886197161,MA(14)
2018-05-23,9.48070131475188,MA(14)
2018-05-24,7.85359706106208,MA(14)
2018-05-25,7.78111003823513,MA(14)
2018-05-29,9.20285930717172,MA(14)
2018-05-30,9.82519789005893,MA(14)
2018-05-31,9.46097379915309,MA(14)
2018-06-01,10.477753494141,MA(14)
2018-06-04,10.6400858974997,MA(14)
2018-06-05,10.241198884758,MA(14)
2018-06-06,10.7212645304368,MA(14)
2018-06-07,10.7194096212319,MA(14)
2018-06-08,10.74265736606,MA(14)
2018-06-11,10.2925370582439,MA(14)
2018-06-12,10.2331181767427,MA(14)
2018-06-13,10.2832282067399,MA(14)
2018-06-14,10.3005078380663,MA(14)
2018-06-15,10.2611309041571,MA(14)
2018-06-18,9.0520823255015,MA(14)
2018-06-19,7.51139501553292,MA(14)
2018-06-20,6.95942783262486,MA(14)
2018-06-21,5.90564965676464,MA(14)
2018-06-22,5.6504201106722,MA(14)
2018-06-25,8.12056520253673,MA(14)
2018-06-26,7.33578855588673,MA(14)
2018-06-27,8.18888434695893,MA(14)
2018-06-28,8.49080035846677,MA(14)
2018-06-29,8.48484458299927,MA(14)
2018-07-02,8.55139875778942,MA(14)
2018-07-03,8.63785964301622,MA(14)
2018-07-05,9.31032228240287,MA(14)
2018-07-06,9.96163159455292,MA(14)
2018-07-09,10.5926583518448,MA(14)
2018-07-10,10.5569322391881,MA(14)
2018-07-11,10.9534241742014,MA(14)
2018-07-12,11.237952886105,MA(14)
2018-07-13,11.2196894726807,MA(14)
2018-07-16,9.58988884309682,MA(14)
2018-07-17,9.69064087358879,MA(14)
2018-07-18,9.02247638804839,MA(14)
2018-07-19,8.79950221306313,MA(14)
2018-07-20,8.80280603644956,MA(14)
2018-07-23,8.74162114899402,MA(14)
2018-07-24,8.72270902016527,MA(14)
2018-07-25,8.80836195981477,MA(14)
2018-07-26,8.15458412694588,MA(14)
2018-07-27,7.77550718985899,MA(14)
2018-07-30,8.01614282214652,MA(14)
2018-07-31,7.71021253384142,MA(14)
2018-08-01,6.78900635274407,MA(14)
2018-08-02,7.08487746689259,MA(14)
2018-08-03,7.33759009135649,MA(14)
2018-08-06,7.29790107181273,MA(14)
2018-08-07,7.33811241310559,MA(14)
2018-08-08,7.14553953101992,MA(14)
2018-08-09,7.1602815156432,MA(14)
2018-08-10,7.73105391543549,MA(14)
2018-08-13,7.65403343352423,MA(14)
2018-08-14,7.15321431640223,MA(14)
2018-08-15,7.74084744888574,MA(14)
2018-08-16,7.9556031116039,MA(14)
2018-08-17,7.70131695460036,MA(14)
2018-08-20,7.49135252637329,MA(14)
2018-08-21,7.52923564877307,MA(14)
2018-08-22,7.23913391024431,MA(14)
2018-08-23,7.00592676023795,MA(14)
2018-08-24,7.32630681435924,MA(14)
2018-08-27,7.91711781643577,MA(14)
2018-08-28,7.91715875512342,MA(14)
2018-08-29,8.25115153950608,MA(14)
2018-08-30,7.90571398503067,MA(14)
2018-08-31,7.72180749459242,MA(14)
2018-09-04,7.27134038601435,MA(14)
2018-09-05,6.6242202420596,MA(14)
2018-09-06,5.92955571667127,MA(14)
2018-09-07,5.83703049746709,MA(14)
2018-09-10,5.80195648449527,MA(14)
2018-09-11,5.94882030496281,MA(14)
2018-09-12,5.9483487244668,MA(14)
2018-09-13,6.31090746166422,MA(14)
2018-09-14,5.74644921865388,MA(14)
2018-09-17,5.30716884359687,MA(14)
2018-09-18,5.7682884178352,MA(14)
2018-09-19,5.27081575834734,MA(14)
2018-09-20,5.92900841693916,MA(14)
2018-09-21,5.9307818888,MA(14)
2018-09-24,6.0745034009327,MA(14)
2018-09-25,5.98306556991625,MA(14)
2018-09-26,5.94514271473645,MA(14)
2018-09-27,5.98562848923448,MA(14)
2018-09-28,5.93176249915845,MA(14)
2018-10-01,5.92084339891522,MA(14)
2018-10-02,5.92129963961044,MA(14)
2018-10-03,5.49506898679613,MA(14)
2018-10-04,6.49601952823338,MA(14)
2018-10-05,6.48959570805461,MA(14)
2018-10-08,6.08462706054899,MA(14)
2018-10-09,6.09114732034886,MA(14)
2018-10-10,15.0204048824425,MA(14)
2018-10-11,17.3998048766676,MA(14)
2018-10-12,18.3322520245766,MA(14)
2018-10-15,18.4940651516431,MA(14)
2018-10-16,20.5149595357214,MA(14)
2018-10-17,20.4820701578344,MA(14)
2018-10-18,21.3785327242579,MA(14)
2018-10-19,21.3238391865958,MA(14)
2018-10-22,21.4007783748635,MA(14)
2018-10-23,21.5257538339382,MA(14)
2018-10-24,25.0370669776887,MA(14)
2018-10-25,26.1185409279215,MA(14)
2018-10-26,27.1423558587405,MA(14)
2018-10-29,27.2778720237283,MA(14)
2018-10-30,24.2452606190176,MA(14)
2018-10-31,23.0536085222028,MA(14)
2018-11-01,22.7075437851554,MA(14)
2018-11-02,22.727502549799,MA(14)
2018-11-05,21.0080289734139,MA(14)
2018-11-06,21.1725895474527,MA(14)
2018-11-07,22.1225043075245,MA(14)
2018-11-08,22.1474325464642,MA(14)
2018-11-09,22.4152781123541,MA(14)
2018-11-12,23.8262989383066,MA(14)
2018-11-13,19.8134444733025,MA(14)
2018-11-14,18.49502272976,MA(14)
2018-11-15,17.5310882831792,MA(14)
2018-11-16,17.3345162258591,MA(14)
2018-11-19,17.5394248754393,MA(14)
2018-11-20,18.6212182178048,MA(14)
2018-11-21,18.1301334035789,MA(14)
2018-11-23,18.1453702944892,MA(14)
2018-11-26,19.1339078577237,MA(14)
2018-11-27,19.0012457245333,MA(14)
2018-11-28,19.3526287753489,MA(14)
2018-11-29,19.3455496974767,MA(14)
2018-11-30,19.2567910843506,MA(14)
2018-12-03,17.9239263724854,MA(14)
2018-12-04,22.6751975245152,MA(14)
2018-12-06,22.4560693659382,MA(14)
2018-12-07,24.163421293224,MA(14)
2018-12-10,24.1566494985966,MA(14)
2018-12-11,23.0925827584165,MA(14)
2018-12-12,21.8761163011331,MA(14)
2018-12-13,21.8385613643646,MA(14)
2018-12-14,23.1412502662937,MA(14)
2018-12-17,23.9120934971999,MA(14)
2018-12-18,23.8724940006037,MA(14)
2018-12-19,22.8200208886791,MA(14)
2018-12-20,23.7704150542051,MA(14)
2018-12-21,25.1095204042375,MA(14)
2018-12-24,27.2810327860777,MA(14)
2018-12-26,31.1341255805535,MA(14)
2018-12-27,31.3352979113985,MA(14)
2018-12-28,29.7111132714646,MA(14)
2018-12-31,29.9160020810117,MA(14)
2019-01-02,29.9204189353624,MA(14)
2019-01-03,31.6580638653117,MA(14)
2019-01-04,34.7238130144867,MA(14)
2019-01-07,33.8842201531326,MA(14)
2019-01-08,32.9556122354595,MA(14)
2019-01-09,33.0008746190306,MA(14)
2019-01-10,32.3990686420405,MA(14)
2019-01-11,31.6949722644217,MA(14)
2019-01-14,30.5328186139623,MA(14)
2019-01-15,28.5945777031506,MA(14)
2019-01-16,20.0040084307025,MA(14)
2019-01-17,19.934698266204,MA(14)
2019-01-18,20.6820400623199,MA(14)
2019-01-22,21.2433670964851,MA(14)
2019-01-23,21.2569598957686,MA(14)
2019-01-24,18.4384860571563,MA(14)
2019-01-25,12.2155453758935,MA(14)
2019-01-28,12.3120510395962,MA(14)
2019-01-29,11.6336447998354,MA(14)
2019-01-30,13.2237673113683,MA(14)
2019-01-31,13.5766434828278,MA(14)
2019-02-01,13.5818074136956,MA(14)
2019-02-04,13.6984573700632,MA(14)
2019-02-05,13.0873337111283,MA(14)
2019-02-06,13.0875580424633,MA(14)
2019-02-07,13.2986231719173,MA(14)
2019-02-08,12.0956510137168,MA(14)
2019-02-11,10.4923870047586,MA(14)
2019-02-12,11.7693910672869,MA(14)
2019-02-13,11.8240894942211,MA(14)
2019-02-14,11.3273518177407,MA(14)
2019-02-15,11.7529858759417,MA(14)
2019-02-19,11.7538907990019,MA(14)
2019-02-20,9.80835803797249,MA(14)
2019-02-21,9.2382822689757,MA(14)
2019-02-22,9.61741630702117,MA(14)
2019-02-25,9.19896889195384,MA(14)
2019-02-26,8.98846272540786,MA(14)
2019-02-27,8.94202342824727,MA(14)
2019-02-28,8.09980675841685,MA(14)
2019-03-01,8.5998462803285,MA(14)
2019-03-04,8.75026632085686,MA(14)
2019-03-05,6.89224236887068,MA(14)
2019-03-06,7.31611581728568,MA(14)
2019-03-07,8.009603817346,MA(14)
2019-03-08,6.63785565697715,MA(14)
2019-03-11,9.02852154450995,MA(14)
2019-03-12,9.08318115834162,MA(14)
2019-03-13,9.42552435327025,MA(14)
2019-03-14,9.03782436092848,MA(14)
2019-03-15,9.26428471328502,MA(14)
2019-03-18,9.38928948758442,MA(14)
2019-03-19,9.3866350424809,MA(14)
2019-03-20,9.39318366220651,MA(14)
2019-03-21,10.0302199467477,MA(14)
2019-03-22,12.784312365324,MA(14)
2019-03-25,12.7802800696455,MA(14)
2019-03-26,12.8386923146534,MA(14)
2019-03-27,12.5225642477486,MA(14)
2019-03-28,12.581493796193,MA(14)
2019-03-29,11.3351006619114,MA(14)
2019-04-01,12.2701535461894,MA(14)
2019-04-02,11.9160339877793,MA(14)
2019-04-03,11.9448581174055,MA(14)
2019-04-04,11.7914668890339,MA(14)
2019-04-05,11.8497333901682,MA(14)
2019-04-08,11.8578605041557,MA(14)
2019-04-09,12.0693967426384,MA(14)
2019-04-10,11.2701943651065,MA(14)
2019-04-11,7.84121664599389,MA(14)
2019-04-12,8.31313335588127,MA(14)
2019-04-15,7.74802726304739,MA(14)
2019-04-16,7.49723451567385,MA(14)
2019-04-17,7.40549341476191,MA(14)
2019-04-18,6.87326686406955,MA(14)
2019-04-22,4.8784641267147,MA(14)
2019-04-23,6.13476321565928,MA(14)
2019-04-24,6.13780061985379,MA(14)
2019-04-25,6.07638974833571,MA(14)
2019-04-26,6.08303200672145,MA(14)
2019-04-29,6.0837791449734,MA(14)
2019-04-30,5.52808554325323,MA(14)
2019-05-01,6.20754790058338,MA(14)
2019-05-02,6.27221632753105,MA(14)
2019-05-03,6.92975759660788,MA(14)
2019-05-06,7.17888459554298,MA(14)
2019-05-07,10.0494304381808,MA(14)
2019-05-08,10.0262995660181,MA(14)
2019-05-09,10.0854960551894,MA(14)
2019-05-10,10.1978870468806,MA(14)
2019-05-13,14.0251919179218,MA(14)
2019-05-14,14.3954564229281,MA(14)
2019-05-15,14.6033432716796,MA(14)
2019-05-16,14.9452642826905,MA(14)
2019-05-17,15.1418806691693,MA(14)
2019-05-20,15.4047060646923,MA(14)
2019-05-21,15.4906132207173,MA(14)
2019-05-22,15.5106520725232,MA(14)
2019-05-23,15.805162755035,MA(14)
2019-05-24,15.7017282750083,MA(14)
2019-05-28,14.4801991735248,MA(14)
2019-05-29,14.7582413815906,MA(14)
2019-05-30,14.7294017604825,MA(14)
2019-05-31,15.6844086980532,MA(14)
2019-06-03,11.866964561124,MA(14)
2019-06-04,14.4825414854057,MA(14)
2019-06-05,14.679596037722,MA(14)
2019-06-06,14.4279910834263,MA(14)
2019-06-07,14.8835729991453,MA(14)
2019-06-10,14.7373913407002,MA(14)
2019-06-11,14.2979747544429,MA(14)
2019-06-12,14.2739777114243,MA(14)
2019-06-13,13.4565653499803,MA(14)
2019-06-14,13.4616834728288,MA(14)
2019-06-17,12.9899551288102,MA(14)
2019-06-18,13.2984259965701,MA(14)
2019-06-19,13.3285399027731,MA(14)
2019-06-20,12.7284557175316,MA(14)
2019-06-21,12.685734138641,MA(14)
2019-06-24,9.00901577856572,MA(14)
2019-06-25,9.25317060953538,MA(14)
2019-06-26,8.90011301029421,MA(14)
2019-06-27,7.89543756532174,MA(14)
2019-06-28,8.02268658855352,MA(14)
2019-07-01,8.64713901216833,MA(14)
2019-07-02,8.69233603964336,MA(14)
2019-07-03,9.11057522382929,MA(14)
2019-07-05,9.11710000334906,MA(14)
2019-07-08,9.33606876022687,MA(14)
2019-07-09,8.41042108749529,MA(14)
2019-07-10,8.53027457705268,MA(14)
2019-07-11,7.60425022930522,MA(14)
2019-07-12,7.83168983376607,MA(14)
2019-07-15,7.7977141445423,MA(14)
2019-07-16,6.82804250504882,MA(14)
2019-07-17,7.34964857011665,MA(14)
2019-07-18,7.32804036324937,MA(14)
2019-07-19,7.3939117787698,MA(14)
2019-07-22,6.75746708710718,MA(14)
2019-07-23,7.24242091538502,MA(14)
2019-07-24,6.77698474772163,MA(14)
2019-07-25,7.09333503419411,MA(14)
2019-07-26,7.46956501474866,MA(14)
2019-07-29,7.48256922787426,MA(14)
2019-07-30,7.31863135960839,MA(14)
2019-07-31,8.6037413768959,MA(14)
2019-08-01,9.20987142066286,MA(14)
2019-08-02,9.71374150323906,MA(14)
2019-08-05,15.9834545564405,MA(14)
2019-08-06,16.6634880987701,MA(14)
2019-08-07,16.5980045582479,MA(14)
2019-08-08,18.175272290182,MA(14)
2019-08-09,18.3517170703149,MA(14)
2019-08-12,18.8652952921427,MA(14)
2019-08-13,19.8058029101697,MA(14)
2019-08-14,23.348162894013,MA(14)
2019-08-15,23.1634170501413,MA(14)
2019-08-16,23.9313740704569,MA(14)
2019-08-19,24.4412940365995,MA(14)
2019-08-20,24.2334448703889,MA(14)
2019-08-21,24.1808481557847,MA(14)
2019-08-22,23.9837155238018,MA(14)
2019-08-23,23.1395825476325,MA(14)
2019-08-26,22.9538234180735,MA(14)
2019-08-27,22.9915455529227,MA(14)
2019-08-28,21.7832510292348,MA(14)
2019-08-29,22.2491325568246,MA(14)
2019-08-30,21.6256306453441,MA(14)
2019-09-03,20.879405343996,MA(14)
2019-09-04,17.2880659743889,MA(14)
2019-09-05,18.1005820848853,MA(14)
2019-09-06,17.0629739807145,MA(14)
2019-09-09,16.2877253540697,MA(14)
2019-09-10,15.9384166200251,MA(14)
2019-09-11,15.8510103167751,MA(14)
2019-09-12,15.8960621401465,MA(14)
2019-09-13,11.3739576725333,MA(14)
2019-09-16,10.4795987118415,MA(14)
2019-09-17,10.4484968746649,MA(14)
2019-09-18,10.0792478860169,MA(14)
2019-09-19,8.55614561422986,MA(14)
2019-09-20,8.79969901429693,MA(14)
2019-09-23,8.29926499061402,MA(14)
2019-09-24,7.80182058805966,MA(14)
2019-09-25,6.14525906604253,MA(14)
2019-09-26,6.21870909328584,MA(14)
2019-09-27,6.61398517372947,MA(14)
2019-09-30,6.94644504371914,MA(14)
2019-10-01,8.13343127233797,MA(14)
2019-10-02,11.0885096607691,MA(14)
2019-10-03,11.5810154642695,MA(14)
2019-10-04,12.9593619718297,MA(14)
2019-10-07,13.0520207880673,MA(14)
2019-10-08,14.6374853435176,MA(14)
2019-10-09,15.1302465060344,MA(14)
2019-10-10,15.2291455681888,MA(14)
2019-10-11,15.907917822873,MA(14)
2019-10-14,15.5128806771494,MA(14)
2019-10-15,15.856943874697,MA(14)
2019-10-16,15.8461978972204,MA(14)
2019-10-17,15.7285496554509,MA(14)
2019-10-18,15.6720867855178,MA(14)
2019-10-21,15.0606279925548,MA(14)
2019-10-22,13.0700600589686,MA(14)
2019-10-23,12.6890210306718,MA(14)
2019-10-24,11.2286340256565,MA(14)
2019-10-25,11.1997666150887,MA(14)
2019-10-28,9.32978704396268,MA(14)
2019-10-29,8.51471125906873,MA(14)
2019-10-30,8.19029469713123,MA(14)
2019-10-31,6.89789462378631,MA(14)
2019-11-01,7.98427771050517,MA(14)
2019-11-04,6.97603845817585,MA(14)
2019-11-05,6.94269915437574,MA(14)
2019-11-06,6.85053378852298,MA(14)
2019-11-07,6.74561218465619,MA(14)
2019-11-08,6.18844011732803,MA(14)
2019-11-11,6.05834578580241,MA(14)
2019-11-12,5.97466309305787,MA(14)
2019-11-13,5.92702396196758,MA(14)
2019-11-14,5.68372205519914,MA(14)
2019-11-15,6.10468124364154,MA(14)
2019-11-18,6.09823605924135,MA(14)
2019-11-19,5.94704002425525,MA(14)
2019-11-20,6.02159078231611,MA(14)
2019-11-21,4.4939735284515,MA(14)
2019-11-22,4.31250090719302,MA(14)
2019-11-25,5.32310627002998,MA(14)
2019-11-26,5.39502729075155,MA(14)
2019-11-27,5.55677865375647,MA(14)
2019-11-29,5.70917137892964,MA(14)
2019-12-02,6.73230128077363,MA(14)
2019-12-03,7.26695110869388,MA(14)
2019-12-04,7.73394903096426,MA(14)
2019-12-05,7.75179179323487,MA(14)
2019-12-06,8.02276734809245,MA(14)
2019-12-09,8.13090435689424,MA(14)
2019-12-10,8.14026808216284,MA(14)
2019-12-11,8.07718296415106,MA(14)
2019-12-12,8.82112638731348,MA(14)
2019-12-13,8.77327421339811,MA(14)
2019-12-16,8.72007862756323,MA(14)
2019-12-17,8.67184623208739,MA(14)
2019-12-18,8.49326148158832,MA(14)
2019-12-19,8.53146543743945,MA(14)
2019-12-20,7.98199926736182,MA(14)
2019-12-23,7.47830079905355,MA(14)
2019-12-24,6.98828114064529,MA(14)
2019-12-26,7.28744629164476,MA(14)
2019-12-27,6.19179090959035,MA(14)
2019-12-30,6.52291688747579,MA(14)
2019-12-31,6.62409358353596,MA(14)
2020-01-02,7.40303978297926,MA(14)
2020-01-03,7.12384191169266,MA(14)
2020-01-06,7.27803172142242,MA(14)
2020-01-07,6.73189082830676,MA(14)
2020-01-08,7.04053480759709,MA(14)
2020-01-09,7.57580375228559,MA(14)
2020-01-10,7.43757478748037,MA(14)
2020-01-13,7.72030974717561,MA(14)
2020-01-14,7.73818864894958,MA(14)
2020-01-15,7.77792727548235,MA(14)
2020-01-16,8.25954653375448,MA(14)
2020-01-17,8.41862672340167,MA(14)
2020-01-21,8.13205633035743,MA(14)
2020-01-22,8.03741143377648,MA(14)
2020-01-23,7.23878014813956,MA(14)
2020-01-24,7.62690090015502,MA(14)
2020-01-27,10.0420009843201,MA(14)
2020-01-28,10.8306891776777,MA(14)
2020-01-29,10.6380116099928,MA(14)
2020-01-30,10.3469353872436,MA(14)
2020-01-31,12.7510066783634,MA(14)
2020-02-03,12.7784254300701,MA(14)
2020-02-04,14.2253103346116,MA(14)
2020-02-05,14.9695418401974,MA(14)
2020-02-06,14.6170988218983,MA(14)
2020-02-07,14.7052121979149,MA(14)
2020-02-10,14.9833007190192,MA(14)
2020-02-11,14.9997540144596,MA(14)
2020-02-12,15.2371479905281,MA(14)
2020-02-13,14.7618738602631,MA(14)
2020-02-14,13.1766827873833,MA(14)
2020-02-18,12.5412403725015,MA(14)
2020-02-19,12.6918964181378,MA(14)
2020-02-20,12.7257623017823,MA(14)
2020-02-21,11.1768195029261,MA(14)
2020-02-24,17.9747156730094,MA(14)
2020-02-25,21.2705502914898,MA(14)
2020-02-26,20.8001049526596,MA(14)
2020-02-27,28.1955719885634,MA(14)
2020-02-28,28.3191368616554,MA(14)
2020-03-02,33.9741090472806,MA(14)
2020-03-03,36.0400226221979,MA(14)
2020-03-04,39.9574380687648,MA(14)
2020-03-05,42.5299764341686,MA(14)
2020-03-06,43.1396277765007,MA(14)
2020-03-09,54.5367638233324,MA(14)
2020-03-10,58.184587423517,MA(14)
2020-03-11,61.8959159564283,MA(14)
2020-03-12,74.7989600414161,MA(14)
2020-03-13,82.4364352157598,MA(14)
2020-03-16,97.6564117925441,MA(14)
2020-03-17,100.695714399721,MA(14)
2020-03-18,101.395935679157,MA(14)
2020-03-19,101.355092058795,MA(14)
2020-03-20,101.301306421591,MA(14)
2020-03-23,101.363966408919,MA(14)
2020-03-24,106.797914202667,MA(14)
2020-03-25,105.908478610978,MA(14)
2020-03-26,108.712165584601,MA(14)
2020-03-27,104.466600608548,MA(14)
2020-03-30,103.403181446417,MA(14)
2020-03-31,101.4420090966,MA(14)
2020-04-01,94.1843891977505,MA(14)
2020-04-02,86.9097510547202,MA(14)
2020-04-03,68.4471553968064,MA(14)
2020-04-06,70.032456828291,MA(14)
2020-04-07,66.3263249250958,MA(14)
2020-04-08,67.79024124802,MA(14)
2020-04-09,65.4337725185413,MA(14)
2020-04-13,64.3595140270251,MA(14)
2020-04-14,53.5520907053621,MA(14)
2020-04-15,54.1567550057007,MA(14)
2020-04-16,47.7953705694743,MA(14)
2020-04-17,46.8993286918521,MA(14)
2020-04-20,45.4269656872809,MA(14)
2020-04-21,46.8017829834838,MA(14)
2020-04-22,43.7975708404562,MA(14)
2020-04-23,42.7468434035511,MA(14)
2020-04-24,42.6598655011683,MA(14)
2020-04-27,32.1406436177738,MA(14)
2020-04-28,32.2101660460145,MA(14)
2020-04-29,30.9861648939095,MA(14)
2020-04-30,30.6348627877476,MA(14)
2020-05-01,32.6299847266375,MA(14)
2020-05-04,30.0995578122956,MA(14)
2020-05-05,28.8414784753482,MA(14)
2020-05-06,28.8891636512244,MA(14)
2020-05-07,27.0759380604083,MA(14)
2020-05-08,26.9250652876398,MA(14)
2020-05-11,23.486879703067,MA(14)
2020-05-12,23.1617115950866,MA(14)
2020-05-13,24.3276400156214,MA(14)
2020-05-14,24.1073766069601,MA(14)
2020-05-15,23.3625265329585,MA(14)
2020-05-18,26.6955007989731,MA(14)
2020-05-19,24.6893568764841,MA(14)
2020-05-20,25.3567916003992,MA(14)
2020-05-21,22.5655110996052,MA(14)
2020-05-22,22.5161656227265,MA(14)
2020-05-26,22.7849618784552,MA(14)
2020-05-27,23.4324389292931,MA(14)
2020-05-28,22.94576864094,MA(14)
2020-05-29,21.9234650180823,MA(14)
2020-06-01,21.9804134828837,MA(14)
2020-06-02,20.4564034112888,MA(14)
2020-06-03,19.8962739882151,MA(14)
2020-06-04,19.3506428812347,MA(14)
2020-06-05,22.1642160614126,MA(14)
2020-06-08,18.5758260279782,MA(14)
2020-06-09,18.3349877722891,MA(14)
2020-06-10,17.1038305890573,MA(14)
2020-06-11,30.67169910962,MA(14)
2020-06-12,31.1421698961233,MA(14)
2020-06-15,30.9100330191421,MA(14)
2020-06-16,31.3010919204338,MA(14)
2020-06-17,31.3254890524063,MA(14)
2020-06-18,31.2607362890954,MA(14)
2020-06-19,31.3123299453973,MA(14)
2020-06-22,31.2410923454946,MA(14)
2020-06-23,30.7650186888963,MA(14)
2020-06-24,32.6647722537738,MA(14)
2020-06-25,31.1232310089458,MA(14)
2020-06-26,32.411097686009,MA(14)
2020-06-29,32.8250854378247,MA(14)
2020-06-30,33.379311412124,MA(14)
2020-07-01,21.4376389273432,MA(14)
2020-07-02,20.8127318192789,MA(14)
2020-07-06,21.5701049905671,MA(14)
2020-07-07,20.5763284606637,MA(14)
2020-07-08,20.7826406607429,MA(14)
2020-07-09,20.9182923272772,MA(14)
2020-07-10,21.2415003076774,MA(14)
2020-07-13,21.4363616592309,MA(14)
2020-07-14,22.0881949864857,MA(14)
2020-07-15,19.4923225403045,MA(14)
2020-07-16,18.9951050690913,MA(14)
2020-07-17,15.9640465653945,MA(14)
2020-07-20,15.1463538806176,MA(14)
2020-07-21,13.7169465584062,MA(14)
2020-07-22,13.7672637475791,MA(14)
2020-07-23,14.6052265161443,MA(14)
2020-07-24,13.2613129006033,MA(14)
2020-07-27,12.8229453630384,MA(14)
2020-07-28,12.6926658633187,MA(14)
2020-07-29,13.5139919026877,MA(14)
2020-07-30,12.8759757307077,MA(14)
2020-07-31,12.6655587735091,MA(14)
2020-08-03,11.7426302137428,MA(14)
2020-08-04,11.2077684057365,MA(14)
2020-08-05,11.4398658997211,MA(14)
2020-08-06,11.6942805281488,MA(14)
2020-08-07,11.1495370190053,MA(14)
2020-08-10,11.1869897082981,MA(14)
2020-08-11,11.4331105922521,MA(14)
2020-08-12,11.7377266284349,MA(14)
2020-08-13,11.4733819140524,MA(14)
2020-08-14,11.0430871493269,MA(14)
2020-08-17,10.7575923054519,MA(14)
2020-08-18,9.45658586426851,MA(14)
2020-08-19,9.50712570243782,MA(14)
2020-08-20,9.04073626347436,MA(14)
2020-08-21,8.64288407365737,MA(14)
2020-08-24,9.49802764265714,MA(14)
2020-08-25,9.22922575486525,MA(14)
2020-08-26,9.80934052889097,MA(14)
2020-08-27,9.83110618396947,MA(14)
2020-08-28,10.166195547851,MA(14)
2020-08-31,9.63235011823883,MA(14)
2020-09-01,8.26553141068819,MA(14)
2020-09-02,10.4447566213107,MA(14)
2020-09-03,18.3687256188313,MA(14)
2020-09-04,18.6550510204373,MA(14)
2020-09-08,22.1033464327365,MA(14)
2020-09-09,23.5820503993305,MA(14)
2020-09-10,24.7091641457147,MA(14)
2020-09-11,24.667514265147,MA(14)
2020-09-14,24.88530874346,MA(14)
2020-09-15,24.9362506398391,MA(14)
2020-09-16,24.6428264203666,MA(14)
2020-09-17,24.890041231846,MA(14)
2020-09-18,25.1804846348643,MA(14)
2020-09-21,25.6394848624735,MA(14)
2020-09-22,25.8243312028513,MA(14)
2020-09-23,26.9868911302789,MA(14)
2020-09-24,22.3955098720819,MA(14)
2020-09-25,23.119556926068,MA(14)
2020-09-28,20.9435968341649,MA(14)
2020-09-29,19.2809677495848,MA(14)
2020-09-30,18.1001480639663,MA(14)
2020-10-01,18.2357053112419,MA(14)
2020-10-02,17.9012054779654,MA(14)
2020-10-05,19.2944492857773,MA(14)
2020-10-06,20.0950140231698,MA(14)
2020-10-07,21.0756735962368,MA(14)
2020-10-08,20.8078770286521,MA(14)
2020-10-09,20.5540007516246,MA(14)
2020-10-12,21.2193517744468,MA(14)
2020-10-13,18.8278774372667,MA(14)
2020-10-14,18.9943516794201,MA(14)
2020-10-15,17.7859264188703,MA(14)
2020-10-16,16.4538702663907,MA(14)
2020-10-19,17.7477291571439,MA(14)
2020-10-20,17.5182316885808,MA(14)
2020-10-21,17.4004293244466,MA(14)
2020-10-22,17.0609077059093,MA(14)
2020-10-23,15.3793880855436,MA(14)
2020-10-26,16.2493169493315,MA(14)
2020-10-27,14.579481550472,MA(14)
2020-10-28,20.7766003698096,MA(14)
2020-10-29,21.051535564051,MA(14)
2020-10-30,20.552832047298,MA(14)
